# 3ds Max Wavefront OBJ Exporter v0.97b - (c)2007 guruware
# File Created: 31.01.2019 23:25:11

#
# object concrete_hemisphere_barrier_pack_1
#

v  0.0000000000 0.3000216484 -0.0000000000
v  -0.0604183078 0.2931745350 0.0000000001
v  -0.0592731647 0.2867005765 0.0592574663
v  0.0000000000 0.2931745946 0.0604183078
v  0.2121473402 0.2121473700 -0.0000000000
v  0.1690185964 0.2471253574 -0.0000000001
v  0.1663377583 0.2430022359 0.0513333306
v  0.2094788551 0.2094788551 0.0449856743
v  0.1181242988 0.2757891715 0.0000000001
v  0.1159929186 0.2702439725 0.0563055985
v  0.0604183078 0.2931745350 0.0000000001
v  0.0592731684 0.2867005765 0.0592574775
v  -0.2121473402 0.2121473700 -0.0000000000
v  -0.1690185964 0.2471253574 -0.0000000001
v  -0.1663377285 0.2430022359 -0.0513333268
v  -0.2094788253 0.2094788104 -0.0449856706
v  -0.1181242988 0.2757891715 0.0000000001
v  -0.1159929037 0.2702439427 -0.0563055873
v  -0.0592731647 0.2867005169 -0.0592574589
v  -0.2121472955 0.0000000000 0.2121475190
v  -0.1663262546 0.0000000000 0.2489248663
v  -0.1656443328 0.0514131524 0.2434574664
v  -0.2094941288 0.0448670387 0.2094941884
v  -0.1151392683 0.0566193387 0.2705474496
v  -0.1148231700 0.0000000000 0.2771798968
v  -0.0587593354 0.0597307272 0.2867246866
v  -0.0584274903 0.0000000000 0.2936227918
v  0.2121473700 0.0000000000 -0.2121472955
v  0.1663262695 0.0000000000 -0.2489247024
v  0.1656443030 0.0514131524 -0.2434573472
v  0.2094940692 0.0448669977 -0.2094940543
v  0.1151392236 0.0566193201 -0.2705473006
v  0.1148231924 0.0000000000 -0.2771797180
v  0.0587593056 0.0597307086 -0.2867245674
v  0.0584274717 0.0000000000 -0.2936226726
v  0.0000000000 0.2121473998 0.2121473998
v  -0.0449856780 0.2094788700 0.2094788700
v  -0.0513706468 0.1661671847 0.2430948168
v  -0.0000000000 0.1688319147 0.2472359091
v  -0.0563519597 0.1156624183 0.2703749537
v  0.0000000000 0.1178133339 0.2759222090
v  0.0000000010 0.0609483905 0.2930699587
v  0.0000000040 0.0000000000 0.3000217676
v  0.2094787955 0.2094788253 -0.0449856557
v  0.2472358644 0.1688318849 -0.0000000001
v  0.2430947423 0.1661671549 -0.0513706394
v  0.2759221494 0.1178133339 -0.0000000000
v  0.2703748643 0.1156624034 -0.0563519448
v  0.2930698693 0.0609483719 -0.0000000002
v  0.2867246270 0.0597307198 -0.0587593056
v  0.3000216782 0.0000000000 -0.0000000000
v  0.2936227322 0.0000000000 -0.0584274195
v  0.0000000000 0.2121473253 -0.2121473253
v  0.0449856669 0.2094787955 -0.2094787955
v  0.0513706282 0.1661671400 -0.2430947274
v  -0.0000000004 0.1688318551 -0.2472357899
v  0.0563519374 0.1156623587 -0.2703747749
v  0.0000000000 0.1178132966 -0.2759220898
v  0.0000000110 0.0609483719 -0.2930698097
v  0.0000000421 0.0000000000 -0.3000216186
v  -0.2094788253 0.2094788700 0.0449856594
v  -0.2472358644 0.1688318849 -0.0000000007
v  -0.2430947572 0.1661671400 0.0513706431
v  -0.2759221494 0.1178133339 0.0000000000
v  -0.2703748941 0.1156624034 0.0563519560
v  -0.2930698693 0.0609483719 0.0000000196
v  -0.2867246270 0.0597307198 0.0587593354
v  -0.3000216782 0.0000000000 0.0000000763
v  -0.2936227322 0.0000000000 0.0584274977
v  0.1732176244 0.1732176244 0.1732176244
v  0.1315770745 0.1903425902 0.1903426349
v  0.1475335211 0.1474533230 0.2142756283
v  0.1903335154 0.1316072494 0.1903335154
v  0.1595100760 0.1008045971 0.2325299978
v  0.2026555538 0.0887382850 0.2026555538
v  0.1656443626 0.0514131524 0.2434574664
v  0.2094941288 0.0448670201 0.2094941735
v  0.1663262695 0.0000000000 0.2489248365
v  0.2121473253 0.0000000000 0.2121475041
v  0.0891257375 0.2025705725 0.2025705278
v  0.1012269184 0.1593142152 0.2324712276
v  0.1105627045 0.1101603284 0.2562296689
v  0.1151392683 0.0566193387 0.2705474496
v  0.1148231849 0.0000000000 0.2771798968
v  0.0449856669 0.2094789147 0.2094788700
v  0.0513706468 0.1661672145 0.2430947870
v  0.0563519672 0.1156624183 0.2703749537
v  0.0587593243 0.0597307272 0.2867246866
v  0.0584274530 0.0000000000 0.2936228216
v  -0.1315770745 0.1903425902 0.1903425902
v  -0.1732176244 0.1732176244 0.1732176244
v  -0.1903335154 0.1316072494 0.1903335154
v  -0.1475335211 0.1474533230 0.2142756283
v  -0.2026555389 0.0887383595 0.2026555389
v  -0.1595100611 0.1008045971 0.2325299978
v  -0.0891257524 0.2025705725 0.2025705278
v  -0.1012269258 0.1593142152 0.2324712276
v  -0.1105627045 0.1101603284 0.2562296689
v  -0.1732175797 0.1732175797 -0.1732175797
v  -0.1315770149 0.1903425157 -0.1903425604
v  -0.1475334764 0.1474532634 -0.2142755687
v  -0.1903334558 0.1316072047 -0.1903334409
v  -0.1595100164 0.1008045748 -0.2325299233
v  -0.2026555240 0.0887382850 -0.2026554942
v  -0.1656442583 0.0514131524 -0.2434573472
v  -0.2094940543 0.0448670201 -0.2094940543
v  -0.1663262099 0.0000000000 -0.2489247471
v  -0.2121472955 0.0000000000 -0.2121473402
v  -0.0891257077 0.2025704980 -0.2025704682
v  -0.1012268811 0.1593141556 -0.2324711382
v  -0.1105626673 0.1101602912 -0.2562295496
v  -0.1151392162 0.0566193201 -0.2705473304
v  -0.1148231104 0.0000000000 -0.2771797478
v  -0.0449856520 0.2094788104 -0.2094787806
v  -0.0513706245 0.1661671400 -0.2430947125
v  -0.0563519374 0.1156623587 -0.2703747749
v  -0.0587593056 0.0597307198 -0.2867245674
v  -0.0584274530 0.0000000000 -0.2936226428
v  0.1315770149 0.1903425604 -0.1903425604
v  0.1732175797 0.1732175797 -0.1732175797
v  0.1903334409 0.1316071600 -0.1903334409
v  0.1475334764 0.1474532783 -0.2142755389
v  0.2026554942 0.0887382478 -0.2026554942
v  0.1595100164 0.1008045748 -0.2325299233
v  0.0891257301 0.2025704980 -0.2025704533
v  0.1012268886 0.1593141556 -0.2324711382
v  0.1105626673 0.1101602912 -0.2562295496
v  -0.0513503142 0.2430024892 -0.1663308293
v  0.0000000000 0.2471252978 -0.1690185517
v  -0.0563404150 0.2702443898 -0.1159736067
v  0.0000000000 0.2757891417 -0.1181242689
v  0.0000000000 0.2931745350 -0.0604182892
v  0.0000000000 0.2471253872 0.1690185964
v  -0.0513503216 0.2430025786 0.1663308740
v  0.0000000000 0.2757891715 0.1181243137
v  -0.0563404150 0.2702444792 0.1159736216
v  0.1475017071 0.2142724991 -0.1474945396
v  0.1903425753 0.1903425157 -0.1315770149
v  0.1594395936 0.2324215025 -0.1011688709
v  0.2025704682 0.2025704980 -0.0891257152
v  0.1663377285 0.2430022359 -0.0513333231
v  0.1903425902 0.1903425902 0.1315770447
v  0.1475017518 0.2142725736 0.1474945545
v  0.2025705129 0.2025705278 0.0891257450
v  0.1594396532 0.2324215472 0.1011688858
v  0.1011890993 0.2324216217 -0.1594246775
v  0.1105271280 0.2561050355 -0.1104850546
v  0.1159929037 0.2702439427 -0.0563055836
v  0.1011891142 0.2324216962 0.1594247073
v  0.1105271205 0.2561051250 0.1104850471
v  0.0513503104 0.2430024892 -0.1663308293
v  0.0563404113 0.2702443898 -0.1159736067
v  0.0592731610 0.2867005169 -0.0592574589
v  0.0513503216 0.2430025786 0.1663308740
v  0.0563404262 0.2702444792 0.1159736291
v  -0.1475017369 0.2142725736 0.1474945843
v  -0.1903426200 0.1903425902 0.1315770447
v  -0.1594396383 0.2324215621 0.1011689007
v  -0.2025705129 0.2025705278 0.0891257301
v  -0.1663377583 0.2430022359 0.0513333268
v  -0.1903425604 0.1903425753 -0.1315770298
v  -0.1475017220 0.2142724991 -0.1474945247
v  -0.2025704682 0.2025704980 -0.0891257375
v  -0.1594396383 0.2324215025 -0.1011688784
v  -0.1011891142 0.2324216813 0.1594247222
v  -0.1105271205 0.2561051250 0.1104850546
v  -0.1159929037 0.2702439725 0.0563055985
v  -0.1011890993 0.2324216366 -0.1594246775
v  -0.1105271280 0.2561050355 -0.1104850546
v  0.2142756283 0.1474533230 0.1475335211
v  0.2324711978 0.1593141854 0.1012268960
v  0.2430947423 0.1661671847 0.0513706282
v  0.2142755389 0.1474532932 -0.1475334764
v  0.2324711382 0.1593141854 -0.1012268960
v  0.2325299829 0.1008045971 0.1595100909
v  0.2562296093 0.1101602912 0.1105626971
v  0.2703748941 0.1156624034 0.0563519523
v  0.2325299382 0.1008045748 -0.1595100164
v  0.2562295794 0.1101602912 -0.1105626822
v  0.2434574068 0.0514131524 0.1656443626
v  0.2705473900 0.0566193201 0.1151392683
v  0.2867246270 0.0597307198 0.0587593429
v  0.2434574068 0.0514131524 -0.1656442583
v  0.2705473602 0.0566193201 -0.1151392236
v  0.2489248216 0.0000000000 0.1663262844
v  0.2771798372 0.0000000000 0.1148232743
v  0.2936227024 0.0000000000 0.0584275313
v  0.2489248216 0.0000000000 -0.1663261205
v  0.2771798074 0.0000000000 -0.1148231030
v  -0.2142755687 0.1474532634 -0.1475334913
v  -0.2324711531 0.1593141854 -0.1012268886
v  -0.2430947423 0.1661671549 -0.0513706282
v  -0.2142756283 0.1474533230 0.1475335211
v  -0.2324711978 0.1593141854 0.1012269184
v  -0.2325299233 0.1008045748 -0.1595100462
v  -0.2562295794 0.1101602912 -0.1105626747
v  -0.2703748643 0.1156623811 -0.0563519448
v  -0.2325299978 0.1008045971 0.1595100611
v  -0.2562296093 0.1101602912 0.1105626971
v  -0.2434574068 0.0514131524 -0.1656442583
v  -0.2705473602 0.0566193201 -0.1151392311
v  -0.2867246270 0.0597307198 -0.0587592982
v  -0.2434574515 0.0514131524 0.1656443328
v  -0.2705474198 0.0566193201 0.1151392534
v  -0.2489248663 0.0000000000 -0.1663260758
v  -0.2771797776 0.0000000000 -0.1148231402
v  -0.2936227024 0.0000000000 -0.0584273860
v  -0.2489248365 0.0000000000 0.1663262546
v  -0.2771798372 0.0000000000 0.1148231775
v  0.0000000230 0.0000000000 0.0000000381
# 210 vertices

vn 0.0000000085 1.0000000000 -0.0000005024
vn -0.2003653646 0.9797208905 -0.0008248716
vn -0.1957848668 0.9609113932 0.1957486421
vn 0.0008274865 0.9797185659 0.2003767341
vn 0.7073045969 0.7069032788 0.0028212534
vn 0.5602047443 0.8283508420 0.0023574673
vn 0.5517593026 0.8159899116 0.1724009961
vn 0.6991536021 0.6987819672 0.1512878388
vn 0.3902162910 0.9207217693 0.0016187793
vn 0.3838211894 0.9040290117 0.1881830096
vn 0.2003653049 0.9797208905 0.0008239181
vn 0.1971016973 0.9603717923 0.1970708668
vn -0.7073045969 0.7069032788 -0.0028222257
vn -0.5602045655 0.8283509016 -0.0023579332
vn -0.5517593026 0.8159898520 -0.1724015176
vn -0.6991535425 0.6987818480 -0.1512885392
vn -0.3902163208 0.9207217693 -0.0016193740
vn -0.3838208020 0.9040290713 -0.1881835908
vn -0.1971016228 0.9603716731 -0.1970714778
vn -0.7031589150 0.0852646455 0.7059019208
vn -0.5507696867 0.0955836549 0.8291661739
vn -0.5506472588 0.1722001582 0.8167831302
vn -0.6964077950 0.1482400000 0.7021688819
vn -0.3817411661 0.1891446710 0.9047088027
vn -0.3778337240 0.1052319407 0.9198738337
vn -0.1952837110 0.1985680461 0.9604347944
vn -0.1926291734 0.1113110259 0.9749378562
vn 0.7031592131 0.0852652714 -0.7059015036
vn 0.5507696867 0.0955835506 -0.8291661739
vn 0.5506472588 0.1721998900 -0.8167831898
vn 0.6964076757 0.1482397318 -0.7021690011
vn 0.3817409277 0.1891445667 -0.9047089219
vn 0.3778340816 0.1052319780 -0.9198737144
vn 0.1952839345 0.1985684037 -0.9604346752
vn 0.1926293224 0.1113111079 -0.9749378562
vn 0.0000064978 0.7069104910 0.7073029876
vn -0.1494527757 0.6956229806 0.7026895285
vn -0.1724859029 0.5512121320 0.8163416982
vn -0.0023606331 0.5596539974 0.8287230134
vn -0.1883132011 0.3838725388 0.9039800763
vn -0.0015180894 0.3901221454 0.9207618833
vn -0.0003937873 0.2013560981 0.9795180559
vn 0.0001992443 0.1135285199 0.9935347438
vn 0.6995458603 0.6991722584 -0.1476270109
vn 0.8287228942 0.5596541762 0.0023604685
vn 0.8177872896 0.5502328873 -0.1687237620
vn 0.9207619429 0.3901219368 0.0015178117
vn 0.9052554965 0.3820716143 -0.1858326346
vn 0.9795180559 0.2013558745 0.0003936872
vn 0.9610090256 0.1964989454 -0.1945504099
vn 0.9935347438 0.1135284305 -0.0001991721
vn 0.9748410583 0.1118898541 -0.1927838624
vn -0.0000068324 0.7069102526 -0.7073032856
vn 0.1494528353 0.6956229210 -0.7026895285
vn 0.1724856496 0.5512116551 -0.8163421154
vn 0.0023606857 0.5596538186 -0.8287231326
vn 0.1883132607 0.3838724494 -0.9039801359
vn 0.0015180896 0.3901219964 -0.9207619429
vn 0.0003936330 0.2013561130 -0.9795179963
vn -0.0001993789 0.1135283262 -0.9935347438
vn -0.6995459795 0.6991722584 0.1476265937
vn -0.8287229538 0.5596540570 -0.0023608387
vn -0.8177874684 0.5502327085 0.1687233150
vn -0.9207618833 0.3901220560 -0.0015182768
vn -0.9052556157 0.3820715547 0.1858323216
vn -0.9795180559 0.2013558298 -0.0003938174
vn -0.9610090852 0.1964989454 0.1945500225
vn -0.9935347438 0.1135284305 0.0001991625
vn -0.9748410583 0.1118899137 0.1927835643
vn 0.5862194896 0.5862944126 0.5591114163
vn 0.4376423657 0.6470127106 0.6243746281
vn 0.4892933369 0.4888951778 0.7222005129
vn 0.6471736431 0.4373628795 0.6244037747
vn 0.5285835862 0.3325738609 0.7810211182
vn 0.6829327941 0.2922178805 0.6694859862
vn 0.5489400029 0.1675258875 0.8189016581
vn 0.7021691203 0.1482398659 0.6964074969
vn 0.5494726300 0.0938713104 0.8302216530
vn 0.7059015036 0.0852651820 0.7031592131
vn 0.2931166589 0.6827474236 0.6692821383
vn 0.3335900009 0.5278961658 0.7810527086
vn 0.3646416664 0.3636655509 0.8571953177
vn 0.3804690242 0.1853884757 0.9060212374
vn 0.3773647845 0.1055750027 0.9200270176
vn 0.1494582891 0.7023390532 0.6959756017
vn 0.1687234491 0.5502328277 0.8177874088
vn 0.1858323514 0.3820715845 0.9052555561
vn 0.1945503205 0.1964989305 0.9610090256
vn 0.1927836239 0.1118902862 0.9748410583
vn -0.4376386702 0.6242620945 0.6471238136
vn -0.5681985617 0.5682146549 0.5952163339
vn -0.6244038343 0.4373629093 0.6471734643
vn -0.4924443066 0.4919882119 0.7179458141
vn -0.6694861054 0.2922181785 0.6829325557
vn -0.5309875607 0.3373535872 0.7773318291
vn -0.2931169271 0.6690287590 0.6829956174
vn -0.3378584087 0.5299833417 0.7777977586
vn -0.3676096499 0.3671410978 0.8544416428
vn -0.5862191319 0.5862942338 -0.5591119528
vn -0.4376421571 0.6470125318 -0.6243749857
vn -0.4892930984 0.4888952374 -0.7222006321
vn -0.6471732855 0.4373630583 -0.6244039536
vn -0.5285833478 0.3325735927 -0.7810214162
vn -0.6829328537 0.2922173738 -0.6694861650
vn -0.5489397645 0.1675256044 -0.8189018965
vn -0.7021688223 0.1482394785 -0.6964079738
vn -0.5494722724 0.0938720405 -0.8302218318
vn -0.7059015036 0.0852650180 -0.7031592727
vn -0.2931164801 0.6827472448 -0.6692824364
vn -0.3335897923 0.5278958678 -0.7810530066
vn -0.3646411598 0.3636655807 -0.8571955562
vn -0.3804691136 0.1853880286 -0.9060212374
vn -0.3773645461 0.1055747569 -0.9200271368
vn -0.1494581699 0.7023388743 -0.6959758401
vn -0.1687233746 0.5502324700 -0.8177876472
vn -0.1858323365 0.3820714056 -0.9052556753
vn -0.1945501268 0.1964990944 -0.9610090256
vn -0.1927838922 0.1118894741 -0.9748410583
vn 0.4376384020 0.6242618561 -0.6471242309
vn 0.5681988001 0.5682142377 -0.5952165723
vn 0.6244037747 0.4373628199 -0.6471735835
vn 0.4924444556 0.4919881821 -0.7179457545
vn 0.6694859862 0.2922177315 -0.6829328537
vn 0.5309874415 0.3373534381 -0.7773320079
vn 0.2931165993 0.6690286398 -0.6829958558
vn 0.3378583491 0.5299832821 -0.7777978182
vn 0.3676090240 0.3671406209 -0.8544421196
vn -0.1724618971 0.8160002828 -0.5517249107
vn -0.0023714027 0.8283552527 -0.5601981282
vn -0.1882831454 0.9040233493 -0.3837853968
vn -0.0016299450 0.9207171798 -0.3902271092
vn -0.0008273924 0.9797185063 -0.2003771812
vn 0.0023713247 0.8283554912 0.5601977706
vn -0.1686886251 0.8174580932 0.5507325530
vn 0.0016299532 0.9207172990 0.3902268708
vn -0.1856775433 0.9051911235 0.3822994232
vn 0.4892479777 0.7220053077 -0.4892287254
vn 0.6352939010 0.6351569295 -0.4392918050
vn 0.5283722878 0.7807837129 -0.3334658742
vn 0.6763920784 0.6761040688 -0.2921934724
vn 0.5507640243 0.8174478412 -0.1686358750
vn 0.6363798380 0.6362710595 0.4360961020
vn 0.4923902750 0.7177186012 0.4923737049
vn 0.6759785414 0.6757006049 0.2940777540
vn 0.5304903984 0.7775006890 0.3377462924
vn 0.3335243464 0.7807951570 -0.5283184648
vn 0.3643167615 0.8571075201 -0.3641977012
vn 0.3823523819 0.9051883817 -0.1855817884
vn 0.3377853334 0.7775220871 0.5304341912
vn 0.3672489822 0.8545932174 0.3671493530
vn 0.1686885506 0.8174579144 -0.5507328510
vn 0.1856777221 0.9051910043 -0.3822996914
vn 0.1957846880 0.9609112740 -0.1957494617
vn 0.1724620610 0.8160004616 0.5517246723
vn 0.1882830113 0.9040235877 0.3837849796
vn -0.4892477393 0.7220053673 0.4892288744
vn -0.6352940798 0.6351569891 0.4392915368
vn -0.5283724070 0.7807838917 0.3334652483
vn -0.6763924360 0.6761040092 0.2921928763
vn -0.5507639647 0.8174479604 0.1686352193
vn -0.6363798380 0.6362710595 -0.4360961616
vn -0.4923901558 0.7177182436 -0.4923743308
vn -0.6759784222 0.6757006645 -0.2940778732
vn -0.5304903984 0.7775004506 -0.3377468288
vn -0.3335245252 0.7807952166 0.5283183455
vn -0.3643167317 0.8571076989 0.3641973138
vn -0.3823525906 0.9051885009 0.1855810285
vn -0.3377850950 0.7775219083 -0.5304346681
vn -0.3672487140 0.8545930982 -0.3671497703
vn 0.7179459929 0.4919883013 0.4924439490
vn 0.7777981758 0.5299831033 0.3378577828
vn 0.8163418174 0.5512120128 0.1724858135
vn 0.7222003937 0.4888951778 -0.4892934561
vn 0.7810525894 0.5278962255 -0.3335902691
vn 0.7773322463 0.3373533189 0.5309871435
vn 0.8544418812 0.3671409488 0.3676092327
vn 0.9039800167 0.3838726580 0.1883133203
vn 0.7810210586 0.3325739801 -0.5285836458
vn 0.8571952581 0.3636656106 -0.3646417856
vn 0.8167833090 0.1722000390 0.5506470799
vn 0.9047088027 0.1891449839 0.3817410171
vn 0.9604348540 0.1985679716 0.1952834278
vn 0.8189017177 0.1675257385 -0.5489400029
vn 0.9060211778 0.1853882670 -0.3804692030
vn 0.8291660547 0.0955840647 0.5507697463
vn 0.9198737741 0.1052324250 0.3778338432
vn 0.9749379754 0.1113108024 0.1926286668
vn 0.8302217722 0.0938715711 -0.5494724512
vn 0.9200270772 0.1055749208 -0.3773647249
vn -0.7179458737 0.4919881225 -0.4924443066
vn -0.7777977586 0.5299833417 -0.3378584385
vn -0.8163417578 0.5512120128 -0.1724861562
vn -0.7222007513 0.4888952374 0.4892929196
vn -0.7810529470 0.5278960466 0.3335895538
vn -0.7773319483 0.3373533785 -0.5309875011
vn -0.8544417620 0.3671409488 -0.3676095605
vn -0.9039799571 0.3838726282 -0.1883136332
vn -0.7810214162 0.3325737417 0.5285832286
vn -0.8571954966 0.3636654913 0.3646412492
vn -0.8167828918 0.1722000241 -0.5506476164
vn -0.9047088027 0.1891445667 -0.3817411661
vn -0.9604347944 0.1985678971 -0.1952838451
vn -0.8189019561 0.1675258875 0.5489395857
vn -0.9060213566 0.1853884608 0.3804687262
vn -0.8291661739 0.0955834240 -0.5507696867
vn -0.9198738933 0.1052314565 -0.3778336942
vn -0.9749379754 0.1113104820 -0.1926290691
vn -0.8302219510 0.0938714296 0.5494722128
vn -0.9200271964 0.1055747792 0.3773644865
vn 0.0000000000 -1.0000000000 -0.0000000000
# 210 vertex normals

vt 0.4990603626 0.4999858737 0.0000000000
vt 0.4417844713 0.4999853671 0.0000000000
vt 0.4424858391 0.4434177279 0.0000000000
vt 0.4990646243 0.4427061081 0.0000000000
vt 0.7216033340 0.4999971986 0.0000000000
vt 0.6686417460 0.4999949038 0.0000000000
vt 0.6666869521 0.4486902356 0.0000000000
vt 0.7193956971 0.4535483718 0.0000000000
vt 0.6132389903 0.4999924898 0.0000000000
vt 0.6118543744 0.4452945590 0.0000000000
vt 0.5563391447 0.4999895990 0.0000000000
vt 0.5556417108 0.4434220195 0.0000000000
vt 0.2765182555 0.4999829531 0.0000000000
vt 0.3294804096 0.4999853671 0.0000000000
vt 0.3314361870 0.5512856841 0.0000000000
vt 0.2787263989 0.5464203954 0.0000000000
vt 0.3848845661 0.4999858737 0.0000000000
vt 0.3862701058 0.5546814203 0.0000000000
vt 0.4424819946 0.5565407872 0.0000000000
vt 0.1772985160 0.1781982332 0.0000000000
vt 0.2447734773 0.1228217855 0.0000000000
vt 0.2729250193 0.1688970923 0.0000000000
vt 0.2105500698 0.2114540488 0.0000000000
vt 0.3428867757 0.1351169050 0.0000000000
vt 0.3221145272 0.0790834576 0.0000000000
vt 0.4195901453 0.1148938313 0.0000000000
vt 0.4086054564 0.0529311150 0.0000000000
vt 0.8208298087 0.8217714429 0.0000000000
vt 0.7533581257 0.8771474361 0.0000000000
vt 0.7252030373 0.8310742974 0.0000000000
vt 0.7875758410 0.7885214090 0.0000000000
vt 0.6552458405 0.8648509383 0.0000000000
vt 0.6760166287 0.9208882451 0.0000000000
vt 0.5785436630 0.8850720525 0.0000000000
vt 0.5895299315 0.9470342994 0.0000000000
vt 0.4990717769 0.2774446905 0.0000000000
vt 0.4526286125 0.2796537876 0.0000000000
vt 0.4415143728 0.2275642753 0.0000000000
vt 0.4990751147 0.2237458229 0.0000000000
vt 0.4304669499 0.1724111438 0.0000000000
vt 0.4990784526 0.1666211784 0.0000000000
vt 0.4990808964 0.1069386750 0.0000000000
vt 0.4990841746 0.0426394604 0.0000000000
vt 0.7193933129 0.5464327335 0.0000000000
vt 0.7753017545 0.5000001192 0.0000000000
vt 0.7714804411 0.5575584769 0.0000000000
vt 0.8324287534 0.5000020266 0.0000000000
vt 0.8266316652 0.5686092377 0.0000000000
vt 0.8921093941 0.5000053644 0.0000000000
vt 0.8841475248 0.5794922709 0.0000000000
vt 0.9564095140 0.5000087023 0.0000000000
vt 0.9461092949 0.5904822350 0.0000000000
vt 0.4990583956 0.7225183249 0.0000000000
vt 0.5454997420 0.7203134894 0.0000000000
vt 0.5566158295 0.7724028230 0.0000000000
vt 0.4990574419 0.7762162685 0.0000000000
vt 0.5676675439 0.8275532722 0.0000000000
vt 0.4990564883 0.8333446980 0.0000000000
vt 0.4990551174 0.8930243254 0.0000000000
vt 0.4990536869 0.9573274255 0.0000000000
vt 0.2787297666 0.4535350204 0.0000000000
vt 0.2228232324 0.4999819994 0.0000000000
vt 0.2266431004 0.4424195886 0.0000000000
vt 0.1656966805 0.4999809861 0.0000000000
vt 0.1714928150 0.4313666821 0.0000000000
vt 0.1060165465 0.4999790788 0.0000000000
vt 0.1139764637 0.4204872251 0.0000000000
vt 0.0417168550 0.4999781847 0.0000000000
vt 0.0520147085 0.4094956517 0.0000000000
vt 0.6896758676 0.3093855381 0.0000000000
vt 0.6397811770 0.2955517173 0.0000000000
vt 0.6690748930 0.2538940907 0.0000000000
vt 0.7239217162 0.2751377821 0.0000000000
vt 0.6974878907 0.2118414789 0.0000000000
vt 0.7559584975 0.2431067377 0.0000000000
vt 0.7252271175 0.1689144969 0.0000000000
vt 0.7875992656 0.2114750445 0.0000000000
vt 0.7533834577 0.1228423119 0.0000000000
vt 0.8208507895 0.1782230288 0.0000000000
vt 0.5921995044 0.2853984237 0.0000000000
vt 0.6135477424 0.2373397052 0.0000000000
vt 0.6346268058 0.1871701479 0.0000000000
vt 0.6552701592 0.1351283491 0.0000000000
vt 0.6760490537 0.0790977776 0.0000000000
vt 0.5455139875 0.2796566486 0.0000000000
vt 0.5566337109 0.2275683284 0.0000000000
vt 0.5676875710 0.1724154353 0.0000000000
vt 0.5785706043 0.1149007380 0.0000000000
vt 0.5895615220 0.0529382676 0.0000000000
vt 0.3583571911 0.2955421805 0.0000000000
vt 0.3084610403 0.3093731403 0.0000000000
vt 0.2742180228 0.2751220465 0.0000000000
vt 0.3290672302 0.2538812160 0.0000000000
vt 0.2421860099 0.2430885881 0.0000000000
vt 0.3006604314 0.2118262053 0.0000000000
vt 0.4059411585 0.2853926718 0.0000000000
vt 0.3845977783 0.2373315692 0.0000000000
vt 0.3635254502 0.1871586889 0.0000000000
vt 0.3084505498 0.6905899048 0.0000000000
vt 0.3583447933 0.7044180632 0.0000000000
vt 0.3290536404 0.7460796833 0.0000000000
vt 0.2742018104 0.7248295546 0.0000000000
vt 0.3006423414 0.7881320715 0.0000000000
vt 0.2421669364 0.7568619847 0.0000000000
vt 0.2729056776 0.8310597539 0.0000000000
vt 0.2105338275 0.7885032892 0.0000000000
vt 0.2447486818 0.8771312237 0.0000000000
vt 0.1772775203 0.8217524290 0.0000000000
vt 0.4059278071 0.7145751715 0.0000000000
vt 0.3845801353 0.7626286149 0.0000000000
vt 0.3635063469 0.8128005266 0.0000000000
vt 0.3428629339 0.8648399115 0.0000000000
vt 0.3220887482 0.9208747745 0.0000000000
vt 0.4526152611 0.7203097343 0.0000000000
vt 0.4414977133 0.7723980546 0.0000000000
vt 0.4304464459 0.8275489807 0.0000000000
vt 0.4195653200 0.8850658536 0.0000000000
vt 0.4085754156 0.9470270872 0.0000000000
vt 0.6397677660 0.7044266462 0.0000000000
vt 0.6896634698 0.6906023026 0.0000000000
vt 0.7239097953 0.7248438597 0.0000000000
vt 0.6690586805 0.7460904121 0.0000000000
vt 0.7559441924 0.7568773031 0.0000000000
vt 0.6974669099 0.7881444693 0.0000000000
vt 0.5921843648 0.7145798802 0.0000000000
vt 0.6135309935 0.7626366615 0.0000000000
vt 0.6346057057 0.8128091097 0.0000000000
vt 0.4477370977 0.6675935388 0.0000000000
vt 0.4990594089 0.6695632935 0.0000000000
vt 0.4443237185 0.6127541065 0.0000000000
vt 0.4990603626 0.6141597033 0.0000000000
vt 0.4990603626 0.5572612286 0.0000000000
vt 0.4990703464 0.3304077983 0.0000000000
vt 0.4477476180 0.3323688209 0.0000000000
vt 0.4990679622 0.3858033419 0.0000000000
vt 0.4443289638 0.3872156441 0.0000000000
vt 0.6524892449 0.6534109116 0.0000000000
vt 0.7034996748 0.6407037973 0.0000000000
vt 0.6615906954 0.6024911404 0.0000000000
vt 0.7136562467 0.5931193233 0.0000000000
vt 0.6666845083 0.5512959361 0.0000000000
vt 0.7035073638 0.3592831492 0.0000000000
vt 0.6524985433 0.3465695679 0.0000000000
vt 0.7136572003 0.4068609178 0.0000000000
vt 0.6615959406 0.3974958360 0.0000000000
vt 0.6015775204 0.6625004411 0.0000000000
vt 0.6082157493 0.6090935469 0.0000000000
vt 0.6118515134 0.5546876192 0.0000000000
vt 0.6015880108 0.3374788463 0.0000000000
vt 0.6082214713 0.3908761740 0.0000000000
vt 0.5503812432 0.6675956249 0.0000000000
vt 0.5537969470 0.6127569675 0.0000000000
vt 0.5556389093 0.5565429330 0.0000000000
vt 0.5503917336 0.3323712051 0.0000000000
vt 0.5538032055 0.3872185051 0.0000000000
vt 0.3456357718 0.3465600312 0.0000000000
vt 0.2946252823 0.3592707217 0.0000000000
vt 0.3365342915 0.3974858224 0.0000000000
vt 0.2844700813 0.4068475664 0.0000000000
vt 0.3314397633 0.4486806989 0.0000000000
vt 0.2946176529 0.6406913400 0.0000000000
vt 0.3456268907 0.6534018517 0.0000000000
vt 0.2844643593 0.5931040645 0.0000000000
vt 0.3365295231 0.6024791002 0.0000000000
vt 0.3965484202 0.3374726474 0.0000000000
vt 0.3899096847 0.3908704519 0.0000000000
vt 0.3862734437 0.4452883601 0.0000000000
vt 0.3965393305 0.6624946594 0.0000000000
vt 0.3899029791 0.6090859175 0.0000000000
vt 0.7451689839 0.3299922347 0.0000000000
vt 0.7617150545 0.3855194449 0.0000000000
vt 0.7714837790 0.4424367845 0.0000000000
vt 0.7451581955 0.6699975133 0.0000000000
vt 0.7617102265 0.6144713163 0.0000000000
vt 0.7872208953 0.3015826046 0.0000000000
vt 0.8118874431 0.3644432724 0.0000000000
vt 0.8266359568 0.4313886166 0.0000000000
vt 0.7872099280 0.6984071732 0.0000000000
vt 0.8118807673 0.6355484128 0.0000000000
vt 0.8301516771 0.2738473713 0.0000000000
vt 0.8639320731 0.3438108265 0.0000000000
vt 0.8841534853 0.4205132127 0.0000000000
vt 0.8301366568 0.7261500359 0.0000000000
vt 0.8639211655 0.6561908722 0.0000000000
vt 0.8762281537 0.2456980199 0.0000000000
vt 0.9199655652 0.3230333328 0.0000000000
vt 0.9461150169 0.4095266163 0.0000000000
vt 0.8762081265 0.7543065548 0.0000000000
vt 0.9199549556 0.6769669652 0.0000000000
vt 0.2529564798 0.6699833870 0.0000000000
vt 0.2364080101 0.6144550443 0.0000000000
vt 0.2266400158 0.5575419664 0.0000000000
vt 0.2529669702 0.3299753070 0.0000000000
vt 0.2364137173 0.3855013251 0.0000000000
vt 0.2109026611 0.6983885765 0.0000000000
vt 0.1862351447 0.6355293393 0.0000000000
vt 0.1714890003 0.5685906410 0.0000000000
vt 0.2109164894 0.3015611470 0.0000000000
vt 0.1862446666 0.3644222915 0.0000000000
vt 0.1679768711 0.7261292338 0.0000000000
vt 0.1341947764 0.6561675072 0.0000000000
vt 0.1139726490 0.5794679523 0.0000000000
vt 0.1679907143 0.2738237977 0.0000000000
vt 0.1342043132 0.3437840939 0.0000000000
vt 0.1219034791 0.7542836666 0.0000000000
vt 0.0781608447 0.6769421697 0.0000000000
vt 0.0520123243 0.5904545784 0.0000000000
vt 0.1219154000 0.2456703484 0.0000000000
vt 0.0781742036 0.3230037689 0.0000000000
vt 0.0039275205 0.0039351876 0.0000000000
vt 0.0501947850 0.2364405990 0.0000000000
vt 0.0039291251 0.2415070832 0.0000000000
vt 0.9960408211 0.9960363507 0.0000000000
vt 0.9497745037 0.7635307908 0.0000000000
vt 0.9960408211 0.7584642172 0.0000000000
vt 0.0039362502 0.9960679412 0.0000000000
vt 0.2364411056 0.9498016238 0.0000000000
vt 0.2415086627 0.9960679412 0.0000000000
vt 0.9960903525 0.0039134729 0.0000000000
vt 0.7635849714 0.0501780994 0.0000000000
vt 0.7585185170 0.0039113848 0.0000000000
vt 0.2415000051 0.0039351722 0.0000000000
vt 0.2364329994 0.0502013937 0.0000000000
vt 0.2234130353 0.0948591605 0.0000000000
vt 0.2010395825 0.1356411278 0.0000000000
vt 0.1719165295 0.1719236970 0.0000000000
vt 0.1356345713 0.2010461390 0.0000000000
vt 0.0948500633 0.2234201729 0.0000000000
vt 0.7584688663 0.9960343242 0.0000000000
vt 0.7635353804 0.9497690201 0.0000000000
vt 0.7765557766 0.9051131606 0.0000000000
vt 0.7989302278 0.8643296957 0.0000000000
vt 0.8280511498 0.8280465603 0.0000000000
vt 0.8643336892 0.7989251614 0.0000000000
vt 0.9051187634 0.7765511274 0.0000000000
vt 0.0039346539 0.7584959269 0.0000000000
vt 0.0502002947 0.7635624409 0.0000000000
vt 0.0948586911 0.7765828371 0.0000000000
vt 0.1356426626 0.7989578247 0.0000000000
vt 0.1719220877 0.8280792236 0.0000000000
vt 0.2010445893 0.8643618226 0.0000000000
vt 0.2234155387 0.9051448703 0.0000000000
vt 0.9960903525 0.2414854616 0.0000000000
vt 0.9498252869 0.2364184558 0.0000000000
vt 0.9051684141 0.2233923227 0.0000000000
vt 0.8643850088 0.2010224313 0.0000000000
vt 0.8281030655 0.1718999296 0.0000000000
vt 0.7989798784 0.1356199831 0.0000000000
vt 0.7766054273 0.0948354900 0.0000000000
# 249 texture coords

g concrete_hemisphere_barrier_pack_1
s 1
f 1/1/1 2/2/2 3/3/3 4/4/4 
f 5/5/5 6/6/6 7/7/7 8/8/8 
f 6/6/6 9/9/9 10/10/10 7/7/7 
f 9/9/9 11/11/11 12/12/12 10/10/10 
f 11/11/11 1/1/1 4/4/4 12/12/12 
f 13/13/13 14/14/14 15/15/15 16/16/16 
f 14/14/14 17/17/17 18/18/18 15/15/15 
f 17/17/17 2/2/2 19/19/19 18/18/18 
f 20/20/20 21/21/21 22/22/22 23/23/23 
f 24/24/24 22/22/22 21/21/21 25/25/25 
f 26/26/26 24/24/24 25/25/25 27/27/27 
f 28/28/28 29/29/29 30/30/30 31/31/31 
f 32/32/32 30/30/30 29/29/29 33/33/33 
f 34/34/34 32/32/32 33/33/33 35/35/35 
f 36/36/36 37/37/37 38/38/38 39/39/39 
f 39/39/39 38/38/38 40/40/40 41/41/41 
f 41/41/41 40/40/40 26/26/26 42/42/42 
f 27/27/27 43/43/43 42/42/42 26/26/26 
f 44/44/44 5/5/5 45/45/45 46/46/46 
f 46/46/46 45/45/45 47/47/47 48/48/48 
f 48/48/48 47/47/47 49/49/49 50/50/50 
f 51/51/51 52/52/52 50/50/50 49/49/49 
f 53/53/53 54/54/54 55/55/55 56/56/56 
f 56/56/56 55/55/55 57/57/57 58/58/58 
f 58/58/58 57/57/57 34/34/34 59/59/59 
f 35/35/35 60/60/60 59/59/59 34/34/34 
f 61/61/61 13/13/13 62/62/62 63/63/63 
f 63/63/63 62/62/62 64/64/64 65/65/65 
f 65/65/65 64/64/64 66/66/66 67/67/67 
f 68/68/68 69/69/69 67/67/67 66/66/66 
f 70/70/70 71/71/71 72/72/72 73/73/73 
f 73/73/73 72/72/72 74/74/74 75/75/75 
f 75/75/75 74/74/74 76/76/76 77/77/77 
f 77/77/77 76/76/76 78/78/78 79/79/79 
f 71/71/71 80/80/80 81/81/81 72/72/72 
f 72/72/72 81/81/81 82/82/82 74/74/74 
f 74/74/74 82/82/82 83/83/83 76/76/76 
f 76/76/76 83/83/83 84/84/84 78/78/78 
f 80/80/80 85/85/85 86/86/86 81/81/81 
f 81/81/81 86/86/86 87/87/87 82/82/82 
f 82/82/82 87/87/87 88/88/88 83/83/83 
f 83/83/83 88/88/88 89/89/89 84/84/84 
f 85/85/85 36/36/36 39/39/39 86/86/86 
f 86/86/86 39/39/39 41/41/41 87/87/87 
f 87/87/87 41/41/41 42/42/42 88/88/88 
f 43/43/43 89/89/89 88/88/88 42/42/42 
f 90/90/90 91/91/91 92/92/92 93/93/93 
f 93/93/93 92/92/92 94/94/94 95/95/95 
f 95/95/95 94/94/94 23/23/23 22/22/22 
f 96/96/96 90/90/90 93/93/93 97/97/97 
f 97/97/97 93/93/93 95/95/95 98/98/98 
f 98/98/98 95/95/95 22/22/22 24/24/24 
f 37/37/37 96/96/96 97/97/97 38/38/38 
f 38/38/38 97/97/97 98/98/98 40/40/40 
f 40/40/40 98/98/98 24/24/24 26/26/26 
f 99/99/99 100/100/100 101/101/101 102/102/102 
f 102/102/102 101/101/101 103/103/103 104/104/104 
f 104/104/104 103/103/103 105/105/105 106/106/106 
f 106/106/106 105/105/105 107/107/107 108/108/108 
f 100/100/100 109/109/109 110/110/110 101/101/101 
f 101/101/101 110/110/110 111/111/111 103/103/103 
f 103/103/103 111/111/111 112/112/112 105/105/105 
f 105/105/105 112/112/112 113/113/113 107/107/107 
f 109/109/109 114/114/114 115/115/115 110/110/110 
f 110/110/110 115/115/115 116/116/116 111/111/111 
f 111/111/111 116/116/116 117/117/117 112/112/112 
f 112/112/112 117/117/117 118/118/118 113/113/113 
f 114/114/114 53/53/53 56/56/56 115/115/115 
f 115/115/115 56/56/56 58/58/58 116/116/116 
f 116/116/116 58/58/58 59/59/59 117/117/117 
f 60/60/60 118/118/118 117/117/117 59/59/59 
f 119/119/119 120/120/120 121/121/121 122/122/122 
f 122/122/122 121/121/121 123/123/123 124/124/124 
f 124/124/124 123/123/123 31/31/31 30/30/30 
f 125/125/125 119/119/119 122/122/122 126/126/126 
f 126/126/126 122/122/122 124/124/124 127/127/127 
f 127/127/127 124/124/124 30/30/30 32/32/32 
f 54/54/54 125/125/125 126/126/126 55/55/55 
f 55/55/55 126/126/126 127/127/127 57/57/57 
f 57/57/57 127/127/127 32/32/32 34/34/34 
f 53/53/53 114/114/114 128/128/128 129/129/129 
f 129/129/129 128/128/128 130/130/130 131/131/131 
f 131/131/131 130/130/130 19/19/19 132/132/132 
f 132/132/132 19/19/19 2/2/2 1/1/1 
f 37/37/37 36/36/36 133/133/133 134/134/134 
f 134/134/134 133/133/133 135/135/135 136/136/136 
f 136/136/136 135/135/135 4/4/4 3/3/3 
f 120/120/120 119/119/119 137/137/137 138/138/138 
f 138/138/138 137/137/137 139/139/139 140/140/140 
f 140/140/140 139/139/139 141/141/141 44/44/44 
f 44/44/44 141/141/141 6/6/6 5/5/5 
f 71/71/71 70/70/70 142/142/142 143/143/143 
f 143/143/143 142/142/142 144/144/144 145/145/145 
f 145/145/145 144/144/144 8/8/8 7/7/7 
f 119/119/119 125/125/125 146/146/146 137/137/137 
f 137/137/137 146/146/146 147/147/147 139/139/139 
f 139/139/139 147/147/147 148/148/148 141/141/141 
f 141/141/141 148/148/148 9/9/9 6/6/6 
f 80/80/80 71/71/71 143/143/143 149/149/149 
f 149/149/149 143/143/143 145/145/145 150/150/150 
f 150/150/150 145/145/145 7/7/7 10/10/10 
f 125/125/125 54/54/54 151/151/151 146/146/146 
f 146/146/146 151/151/151 152/152/152 147/147/147 
f 147/147/147 152/152/152 153/153/153 148/148/148 
f 148/148/148 153/153/153 11/11/11 9/9/9 
f 85/85/85 80/80/80 149/149/149 154/154/154 
f 154/154/154 149/149/149 150/150/150 155/155/155 
f 155/155/155 150/150/150 10/10/10 12/12/12 
f 54/54/54 53/53/53 129/129/129 151/151/151 
f 151/151/151 129/129/129 131/131/131 152/152/152 
f 152/152/152 131/131/131 132/132/132 153/153/153 
f 153/153/153 132/132/132 1/1/1 11/11/11 
f 36/36/36 85/85/85 154/154/154 133/133/133 
f 133/133/133 154/154/154 155/155/155 135/135/135 
f 135/135/135 155/155/155 12/12/12 4/4/4 
f 91/91/91 90/90/90 156/156/156 157/157/157 
f 157/157/157 156/156/156 158/158/158 159/159/159 
f 159/159/159 158/158/158 160/160/160 61/61/61 
f 61/61/61 160/160/160 14/14/14 13/13/13 
f 100/100/100 99/99/99 161/161/161 162/162/162 
f 162/162/162 161/161/161 163/163/163 164/164/164 
f 164/164/164 163/163/163 16/16/16 15/15/15 
f 90/90/90 96/96/96 165/165/165 156/156/156 
f 156/156/156 165/165/165 166/166/166 158/158/158 
f 158/158/158 166/166/166 167/167/167 160/160/160 
f 160/160/160 167/167/167 17/17/17 14/14/14 
f 109/109/109 100/100/100 162/162/162 168/168/168 
f 168/168/168 162/162/162 164/164/164 169/169/169 
f 169/169/169 164/164/164 15/15/15 18/18/18 
f 96/96/96 37/37/37 134/134/134 165/165/165 
f 165/165/165 134/134/134 136/136/136 166/166/166 
f 166/166/166 136/136/136 3/3/3 167/167/167 
f 167/167/167 3/3/3 2/2/2 17/17/17 
f 114/114/114 109/109/109 168/168/168 128/128/128 
f 128/128/128 168/168/168 169/169/169 130/130/130 
f 130/130/130 169/169/169 18/18/18 19/19/19 
f 142/142/142 70/70/70 73/73/73 170/170/170 
f 144/144/144 142/142/142 170/170/170 171/171/171 
f 8/8/8 144/144/144 171/171/171 172/172/172 
f 5/5/5 8/8/8 172/172/172 45/45/45 
f 173/173/173 121/121/121 120/120/120 138/138/138 
f 174/174/174 173/173/173 138/138/138 140/140/140 
f 46/46/46 174/174/174 140/140/140 44/44/44 
f 170/170/170 73/73/73 75/75/75 175/175/175 
f 171/171/171 170/170/170 175/175/175 176/176/176 
f 172/172/172 171/171/171 176/176/176 177/177/177 
f 45/45/45 172/172/172 177/177/177 47/47/47 
f 178/178/178 123/123/123 121/121/121 173/173/173 
f 179/179/179 178/178/178 173/173/173 174/174/174 
f 48/48/48 179/179/179 174/174/174 46/46/46 
f 175/175/175 75/75/75 77/77/77 180/180/180 
f 176/176/176 175/175/175 180/180/180 181/181/181 
f 177/177/177 176/176/176 181/181/181 182/182/182 
f 47/47/47 177/177/177 182/182/182 49/49/49 
f 183/183/183 31/31/31 123/123/123 178/178/178 
f 184/184/184 183/183/183 178/178/178 179/179/179 
f 50/50/50 184/184/184 179/179/179 48/48/48 
f 79/79/79 185/185/185 180/180/180 77/77/77 
f 185/185/185 186/186/186 181/181/181 180/180/180 
f 186/186/186 187/187/187 182/182/182 181/181/181 
f 187/187/187 51/51/51 49/49/49 182/182/182 
f 31/31/31 183/183/183 188/188/188 28/28/28 
f 183/183/183 184/184/184 189/189/189 188/188/188 
f 184/184/184 50/50/50 52/52/52 189/189/189 
f 161/161/161 99/99/99 102/102/102 190/190/190 
f 163/163/163 161/161/161 190/190/190 191/191/191 
f 16/16/16 163/163/163 191/191/191 192/192/192 
f 13/13/13 16/16/16 192/192/192 62/62/62 
f 193/193/193 92/92/92 91/91/91 157/157/157 
f 194/194/194 193/193/193 157/157/157 159/159/159 
f 63/63/63 194/194/194 159/159/159 61/61/61 
f 190/190/190 102/102/102 104/104/104 195/195/195 
f 191/191/191 190/190/190 195/195/195 196/196/196 
f 192/192/192 191/191/191 196/196/196 197/197/197 
f 62/62/62 192/192/192 197/197/197 64/64/64 
f 198/198/198 94/94/94 92/92/92 193/193/193 
f 199/199/199 198/198/198 193/193/193 194/194/194 
f 65/65/65 199/199/199 194/194/194 63/63/63 
f 195/195/195 104/104/104 106/106/106 200/200/200 
f 196/196/196 195/195/195 200/200/200 201/201/201 
f 197/197/197 196/196/196 201/201/201 202/202/202 
f 64/64/64 197/197/197 202/202/202 66/66/66 
f 203/203/203 23/23/23 94/94/94 198/198/198 
f 204/204/204 203/203/203 198/198/198 199/199/199 
f 67/67/67 204/204/204 199/199/199 65/65/65 
f 108/108/108 205/205/205 200/200/200 106/106/106 
f 205/205/205 206/206/206 201/201/201 200/200/200 
f 206/206/206 207/207/207 202/202/202 201/201/201 
f 207/207/207 68/68/68 66/66/66 202/202/202 
f 23/23/23 203/203/203 208/208/208 20/20/20 
f 203/203/203 204/204/204 209/209/209 208/208/208 
f 204/204/204 67/67/67 69/69/69 209/209/209 
s 2
f 210/210/210 69/211/210 68/212/210 
f 210/213/210 89/214/210 43/215/210 
f 210/216/210 118/217/210 60/218/210 
f 210/219/210 52/220/210 51/221/210 
f 210/210/210 43/222/210 27/223/210 
f 210/210/210 27/223/210 25/224/210 
f 210/210/210 25/224/210 21/225/210 
f 210/210/210 21/225/210 20/226/210 
f 210/210/210 20/226/210 208/227/210 
f 210/210/210 208/227/210 209/228/210 
f 210/210/210 209/228/210 69/211/210 
f 210/213/210 51/229/210 187/230/210 
f 210/213/210 187/230/210 186/231/210 
f 210/213/210 186/231/210 185/232/210 
f 210/213/210 185/232/210 79/233/210 
f 210/213/210 79/233/210 78/234/210 
f 210/213/210 78/234/210 84/235/210 
f 210/213/210 84/235/210 89/214/210 
f 210/216/210 68/236/210 207/237/210 
f 210/216/210 207/237/210 206/238/210 
f 210/216/210 206/238/210 205/239/210 
f 210/216/210 205/239/210 108/240/210 
f 210/216/210 108/240/210 107/241/210 
f 210/216/210 107/241/210 113/242/210 
f 210/216/210 113/242/210 118/217/210 
f 210/219/210 60/243/210 35/244/210 
f 210/219/210 35/244/210 33/245/210 
f 210/219/210 33/245/210 29/246/210 
f 210/219/210 29/246/210 28/247/210 
f 210/219/210 28/247/210 188/248/210 
f 210/219/210 188/248/210 189/249/210 
f 210/219/210 189/249/210 52/220/210 
# 192 polygons - 32 triangles

