%YAML 1.1
%TAG !u! tag:unity3d.com,2011:
--- !u!29 &1
OcclusionCullingSettings:
  m_ObjectHideFlags: 0
  serializedVersion: 2
  m_OcclusionBakeSettings:
    smallestOccluder: 5
    smallestHole: 0.25
    backfaceThreshold: 100
  m_SceneGUID: 00000000000000000000000000000000
  m_OcclusionCullingData: {fileID: 0}
--- !u!104 &2
RenderSettings:
  m_ObjectHideFlags: 0
  serializedVersion: 9
  m_Fog: 0
  m_FogColor: {r: 0.5, g: 0.5, b: 0.5, a: 1}
  m_FogMode: 1
  m_FogDensity: 0.01
  m_LinearFogStart: 0
  m_LinearFogEnd: 300
  m_AmbientSkyColor: {r: 0.3764706, g: 0.3764706, b: 0.3764706, a: 1}
  m_AmbientEquatorColor: {r: 0.114, g: 0.125, b: 0.133, a: 1}
  m_AmbientGroundColor: {r: 0.047, g: 0.043, b: 0.035, a: 1}
  m_AmbientIntensity: 1
  m_AmbientMode: 3
  m_SubtractiveShadowColor: {r: 0.42, g: 0.478, b: 0.627, a: 1}
  m_SkyboxMaterial: {fileID: 2100000, guid: 05376d8896aee4fd6a9805b8721b0bd5, type: 2}
  m_HaloStrength: 0.5
  m_FlareStrength: 1
  m_FlareFadeSpeed: 3
  m_HaloTexture: {fileID: 0}
  m_SpotCookie: {fileID: 10001, guid: 0000000000000000e000000000000000, type: 0}
  m_DefaultReflectionMode: 0
  m_DefaultReflectionResolution: 128
  m_ReflectionBounces: 1
  m_ReflectionIntensity: 1
  m_CustomReflection: {fileID: 0}
  m_Sun: {fileID: 0}
  m_IndirectSpecularColor: {r: 0, g: 0, b: 0, a: 1}
  m_UseRadianceAmbientProbe: 0
--- !u!157 &4
LightmapSettings:
  m_ObjectHideFlags: 0
  serializedVersion: 11
  m_GIWorkflowMode: 0
  m_GISettings:
    serializedVersion: 2
    m_BounceScale: 1
    m_IndirectOutputScale: 1
    m_AlbedoBoost: 1
    m_EnvironmentLightingMode: 0
    m_EnableBakedLightmaps: 1
    m_EnableRealtimeLightmaps: 1
  m_LightmapEditorSettings:
    serializedVersion: 10
    m_Resolution: 2
    m_BakeResolution: 40
    m_AtlasSize: 1024
    m_AO: 1
    m_AOMaxDistance: 1
    m_CompAOExponent: 1
    m_CompAOExponentDirect: 0
    m_Padding: 2
    m_LightmapParameters: {fileID: 0}
    m_LightmapsBakeMode: 1
    m_TextureCompression: 0
    m_FinalGather: 0
    m_FinalGatherFiltering: 1
    m_FinalGatherRayCount: 1024
    m_ReflectionCompression: 2
    m_MixedBakeMode: 1
    m_BakeBackend: 0
    m_PVRSampling: 1
    m_PVRDirectSampleCount: 32
    m_PVRSampleCount: 500
    m_PVRBounces: 2
    m_PVRFilterTypeDirect: 0
    m_PVRFilterTypeIndirect: 0
    m_PVRFilterTypeAO: 0
    m_PVRFilteringMode: 0
    m_PVRCulling: 1
    m_PVRFilteringGaussRadiusDirect: 1
    m_PVRFilteringGaussRadiusIndirect: 5
    m_PVRFilteringGaussRadiusAO: 2
    m_PVRFilteringAtrousPositionSigmaDirect: 0.5
    m_PVRFilteringAtrousPositionSigmaIndirect: 2
    m_PVRFilteringAtrousPositionSigmaAO: 1
    m_ShowResolutionOverlay: 1
  m_LightingDataAsset: {fileID: 112000000, guid: 7f33cebafd2a04f3db92f56d103ddbfa,
    type: 2}
  m_UseShadowmask: 0
--- !u!196 &5
NavMeshSettings:
  serializedVersion: 2
  m_ObjectHideFlags: 0
  m_BuildSettings:
    serializedVersion: 2
    agentTypeID: 0
    agentRadius: 0.5
    agentHeight: 2
    agentSlope: 45
    agentClimb: 0.4
    ledgeDropHeight: 0
    maxJumpAcrossDistance: 0
    minRegionArea: 2
    manualCellSize: 0
    cellSize: 0.16666667
    manualTileSize: 0
    tileSize: 256
    accuratePlacement: 0
    debug:
      m_Flags: 0
  m_NavMeshData: {fileID: 0}
--- !u!1 &18361726
GameObject:
  m_ObjectHideFlags: 0
  m_CorrespondingSourceObject: {fileID: 116208, guid: de6ff48ddabd14394af4c33b4de195f9,
    type: 3}
  m_PrefabInstance: {fileID: 0}
  m_PrefabAsset: {fileID: 0}
  serializedVersion: 6
  m_Component:
  - component: {fileID: 18361731}
  - component: {fileID: 18361730}
  - component: {fileID: 18361729}
  - component: {fileID: 18361728}
  - component: {fileID: 18361727}
  m_Layer: 0
  m_Name: CubeFlaskMini
  m_TagString: Untagged
  m_Icon: {fileID: 0}
  m_NavMeshLayer: 0
  m_StaticEditorFlags: 0
  m_IsActive: 1
--- !u!114 &18361727
MonoBehaviour:
  m_ObjectHideFlags: 0
  m_CorrespondingSourceObject: {fileID: 0}
  m_PrefabInstance: {fileID: 0}
  m_PrefabAsset: {fileID: 0}
  m_GameObject: {fileID: 18361726}
  m_Enabled: 1
  m_EditorHideFlags: 0
  m_Script: {fileID: 11500000, guid: 37669b04ea4a745ebb15015dbf1d0e59, type: 3}
  m_Name: 
  m_EditorClassIdentifier: 
  speed: 0.01
  initialPosition: {x: -2.1, y: -0.5, z: -2.1}
  finalPosition: {x: -2.1, y: -0.1, z: -2.1}
  duration: 11
  delay: 4
  level: 0
  minRange: 0.05
  maxRange: 0.95
  acceleration: 0.089
  rotationSpeed: 0
  alphaDuration: 2
  finalRefractionBlur: 0.75
--- !u!114 &18361728
MonoBehaviour:
  m_ObjectHideFlags: 0
  m_CorrespondingSourceObject: {fileID: 11431786, guid: de6ff48ddabd14394af4c33b4de195f9,
    type: 3}
  m_PrefabInstance: {fileID: 0}
  m_PrefabAsset: {fileID: 0}
  m_GameObject: {fileID: 18361726}
  m_Enabled: 1
  m_EditorHideFlags: 0
  m_Script: {fileID: 11500000, guid: 4f61dcfd7077c46509132f92d2df65fe, type: 3}
  m_Name: 
  m_EditorClassIdentifier: 
  _topology: 2
  _detail: 10
  _level: 0.5
  _liquidColor1: {r: 0, g: 0, b: 0, a: 0.503}
  _liquidScale1: 1
  _liquidColor2: {r: 0.04482756, g: 0.04482756, b: 0.04482756, a: 0.3}
  _liquidScale2: 5
  _alpha: 1
  _emissionColor: {r: 0, g: 0, b: 0, a: 1}
  _emissionBrightness: 0
  _ditherShadows: 1
  _murkiness: 1
  _turbulence1: 0.5
  _turbulence2: 0.2
  _frecuency: 1
  _speed: 1
  _sparklingIntensity: 0.1
  _sparklingAmount: 0.354
  _deepObscurance: 0.3
  _foamColor: {r: 1, g: 1, b: 1, a: 0.803}
  _foamScale: 0.2
  _foamThickness: 0.04
  _foamDensity: 0.91
  _foamWeight: 65.1
  _foamTurbulence: 1
  _foamVisibleFromBottom: 1
  _smokeEnabled: 1
  _smokeColor: {r: 0.7, g: 0.7, b: 0.7, a: 0.25}
  _smokeScale: 0.25
  _smokeBaseObscurance: 2
  _smokeSpeed: 5
  _fixMesh: 0
  originalMesh: {fileID: 0}
  originalPivotOffset: {x: 0, y: 0, z: 0}
  _pivotOffset: {x: 0, y: 0, z: 0}
  _upperLimit: 1
  _lowerLimit: -1.5
  _subMeshIndex: 0
  _flaskTint: {r: 0, g: 0, b: 0, a: 1}
  _flaskThickness: 0.03
  _flaskGlossinessExternal: 0.92
  _flaskGlossinessInternal: 0.5
  _scatteringEnabled: 0
  _scatteringPower: 5
  _scatteringAmount: 0.3
  _refractionBlur: 1
  _blurIntensity: 0.75
  _liquidRaySteps: 10
  _foamRaySteps: 7
  _smokeRaySteps: 5
  _bumpMap: {fileID: 0}
  _bumpDistortionScale: 1
  _bumpDistortionOffset: {x: 0, y: 0}
  _distortionMap: {fileID: 0}
  _texture: {fileID: 0}
  _textureScale: {x: 1, y: 1}
  _textureOffset: {x: 0, y: 0}
  _distortionAmount: 1
  _depthAware: 0
  _depthAwareOffset: 0
  _depthAwareCustomPass: 0
  _doubleSidedBias: 0.05
  _rotationLevelBias: 0
  _ignoreGravity: 0
  _reactToForces: 0
  _textureAlpha: 1
  _extentsScale: {x: 1, y: 1, z: 1}
  _noiseVariation: 1
  _allowViewFromInside: 0
  _debugSpillPoint: 0
  _renderQueue: 3001
  _reflectionTexture: {fileID: 0}
  _physicsMass: 1
  _physicsAngularDamp: 0.02
  liqMat: {fileID: 1392344323}
--- !u!23 &18361729
MeshRenderer:
  m_ObjectHideFlags: 0
  m_CorrespondingSourceObject: {fileID: 2358772, guid: de6ff48ddabd14394af4c33b4de195f9,
    type: 3}
  m_PrefabInstance: {fileID: 0}
  m_PrefabAsset: {fileID: 0}
  m_GameObject: {fileID: 18361726}
  m_Enabled: 1
  m_CastShadows: 1
  m_ReceiveShadows: 1
  m_DynamicOccludee: 1
  m_MotionVectors: 1
  m_LightProbeUsage: 1
  m_ReflectionProbeUsage: 1
  m_RenderingLayerMask: 1
  m_RendererPriority: 0
  m_Materials:
  - {fileID: 1392344323}
  m_StaticBatchInfo:
    firstSubMesh: 0
    subMeshCount: 0
  m_StaticBatchRoot: {fileID: 0}
  m_ProbeAnchor: {fileID: 0}
  m_LightProbeVolumeOverride: {fileID: 0}
  m_ScaleInLightmap: 1
  m_PreserveUVs: 1
  m_IgnoreNormalsForChartDetection: 0
  m_ImportantGI: 0
  m_StitchLightmapSeams: 0
  m_SelectedEditorRenderState: 3
  m_MinimumChartSize: 4
  m_AutoUVMaxDistance: 0.5
  m_AutoUVMaxAngle: 89
  m_LightmapParameters: {fileID: 0}
  m_SortingLayerID: 0
  m_SortingLayer: 0
  m_SortingOrder: 0
--- !u!33 &18361730
MeshFilter:
  m_ObjectHideFlags: 0
  m_CorrespondingSourceObject: {fileID: 3395876, guid: de6ff48ddabd14394af4c33b4de195f9,
    type: 3}
  m_PrefabInstance: {fileID: 0}
  m_PrefabAsset: {fileID: 0}
  m_GameObject: {fileID: 18361726}
  m_Mesh: {fileID: 10202, guid: 0000000000000000e000000000000000, type: 0}
--- !u!4 &18361731
Transform:
  m_ObjectHideFlags: 0
  m_CorrespondingSourceObject: {fileID: 408016, guid: de6ff48ddabd14394af4c33b4de195f9,
    type: 3}
  m_PrefabInstance: {fileID: 0}
  m_PrefabAsset: {fileID: 0}
  m_GameObject: {fileID: 18361726}
  m_LocalRotation: {x: 0, y: 0, z: 0, w: 1}
  m_LocalPosition: {x: -2.1, y: -0.5, z: -2.1}
  m_LocalScale: {x: 0.245, y: 0.245, z: 0.245}
  m_Children:
  - {fileID: 740049735}
  m_Father: {fileID: 0}
  m_RootOrder: 3
  m_LocalEulerAnglesHint: {x: 0, y: 0, z: 0}
--- !u!1 &119475629
GameObject:
  m_ObjectHideFlags: 0
  m_CorrespondingSourceObject: {fileID: 0}
  m_PrefabInstance: {fileID: 0}
  m_PrefabAsset: {fileID: 0}
  serializedVersion: 6
  m_Component:
  - component: {fileID: 119475631}
  - component: {fileID: 119475630}
  m_Layer: 0
  m_Name: Reflection Probe
  m_TagString: Untagged
  m_Icon: {fileID: 0}
  m_NavMeshLayer: 0
  m_StaticEditorFlags: 0
  m_IsActive: 1
--- !u!215 &119475630
ReflectionProbe:
  m_ObjectHideFlags: 0
  m_CorrespondingSourceObject: {fileID: 0}
  m_PrefabInstance: {fileID: 0}
  m_PrefabAsset: {fileID: 0}
  m_GameObject: {fileID: 119475629}
  m_Enabled: 1
  serializedVersion: 2
  m_Type: 0
  m_Mode: 0
  m_RefreshMode: 1
  m_TimeSlicingMode: 1
  m_Resolution: 128
  m_UpdateFrequency: 0
  m_BoxSize: {x: 10, y: 10, z: 10}
  m_BoxOffset: {x: 0, y: 0, z: 0}
  m_NearClip: 0.3
  m_FarClip: 1000
  m_ShadowDistance: 100
  m_ClearFlags: 1
  m_BackGroundColor: {r: 0.19215687, g: 0.3019608, b: 0.4745098, a: 0}
  m_CullingMask:
    serializedVersion: 2
    m_Bits: 4294967295
  m_IntensityMultiplier: 1
  m_BlendDistance: 1
  m_HDR: 1
  m_BoxProjection: 0
  m_RenderDynamicObjects: 0
  m_UseOcclusionCulling: 1
  m_Importance: 1
  m_CustomBakedTexture: {fileID: 0}
--- !u!4 &119475631
Transform:
  m_ObjectHideFlags: 0
  m_CorrespondingSourceObject: {fileID: 0}
  m_PrefabInstance: {fileID: 0}
  m_PrefabAsset: {fileID: 0}
  m_GameObject: {fileID: 119475629}
  m_LocalRotation: {x: 0, y: 0, z: 0, w: 1}
  m_LocalPosition: {x: 0, y: 2, z: 0}
  m_LocalScale: {x: 1, y: 1, z: 1}
  m_Children: []
  m_Father: {fileID: 0}
  m_RootOrder: 8
  m_LocalEulerAnglesHint: {x: 0, y: 0, z: 0}
--- !u!21 &236375638
Material:
  serializedVersion: 6
  m_ObjectHideFlags: 0
  m_CorrespondingSourceObject: {fileID: 0}
  m_PrefabInstance: {fileID: 0}
  m_PrefabAsset: {fileID: 0}
  m_Name: LiquidVolumeDefault(Clone)
  m_Shader: {fileID: 4800000, guid: be9d7fbb2c1ef43308f35fb0a12bbb88, type: 3}
  m_ShaderKeywords: LIQUID_VOLUME_CUBE
  m_LightmapFlags: 5
  m_EnableInstancingVariants: 0
  m_DoubleSidedGI: 0
  m_CustomRenderQueue: 3001
  stringTagMap: {}
  disabledShaderPasses: []
  m_SavedProperties:
    serializedVersion: 3
    m_TexEnvs:
    - _MainTex:
        m_Texture: {fileID: 0}
        m_Scale: {x: 1, y: 1}
        m_Offset: {x: 0, y: 0}
    - _NoiseTex:
        m_Texture: {fileID: 11700000, guid: 41974beaaddc547889b39d0022cb1d07, type: 2}
        m_Scale: {x: 1, y: 1}
        m_Offset: {x: 0, y: 0}
    - _NoiseTex2D:
        m_Texture: {fileID: 2800000, guid: 2e25f51e1f31e4da8bdac5d08b0f578f, type: 3}
        m_Scale: {x: 1, y: 1}
        m_Offset: {x: 0, y: 0}
    m_Floats:
    - _Alpha: 1
    - _AlphaCombined: 1
    - _BasePos: -1
    - _CullMode: 2
    - _DeepAtten: 0.3
    - _DoubleSidedBias: 0.05
    - _FlaskBlurIntensity: 0.75
    - _FlaskThickness: 0.05
    - _FoamBottom: 1
    - _FoamDensity: 0.91
    - _FoamMaxPos: -0.490494
    - _FoamRaySteps: 7
    - _FoamTurbulence: 1
    - _FoamWeight: 65.1
    - _Glossiness: 0.92
    - _GlossinessInt: 0.5
    - _Level: 1
    - _LevelPos: -0.5
    - _LiquidRaySteps: 10
    - _LowerLimit: -0.75
    - _Metallic: 0
    - _Muddy: 1
    - _Radius: 0.5
    - _SmokeAtten: 2
    - _SmokeRaySteps: 5
    - _SmokeSpeed: 5
    - _Sparkling: 1
    - _SparklingIntensity: 25
    - _SparklingThreshold: 0.646
    - _Topology: 0
    - _Turbulence: 1
    - _Turbulence2: 1
    - _TurbulenceSpeed: 1
    - _UpperLimit: 0.5
    - _ZTestMode: 4
    m_Colors:
    - _Bounds: {r: 1, g: 1, b: 1, a: 1}
    - _Center: {r: -2.1, g: -0.5, b: 2.1, a: 0}
    - _Color: {r: 1, g: 1, b: 1, a: 1}
    - _Color1: {r: 0.7689655, g: 0.050887424, b: 0.050887424, a: 0.437}
    - _Color2: {r: 1, g: 0.27971607, b: 0.27971607, a: 0.3}
    - _EmissionColor: {r: 0, g: 0, b: 0, a: 0}
    - _FlaskColor: {r: 0, g: 0, b: 0, a: 1}
    - _FlaskThickness: {r: 0.97, g: 0.97, b: 0.97, a: 0}
    - _FoamColor: {r: 1, g: 1, b: 1, a: 0.65}
    - _GlossinessInt: {r: 49, g: 1, b: 0, a: 0}
    - _Scale: {r: 2.1039343, g: 1.6831474, b: 8.415737, a: 42.078686}
    - _Size: {r: 0.42435232, g: 0.245, b: 0.245, a: 0.118825}
    - _SmokeColor: {r: 0.7, g: 0.7, b: 0.7, a: 0.25}
    - _Turbulence: {r: 0.5, g: 0.2, b: 12.566371, a: 0}
    - _ViewDir: {r: 0, g: 0, b: 1, a: 1}
--- !u!1 &284415122
GameObject:
  m_ObjectHideFlags: 0
  m_CorrespondingSourceObject: {fileID: 0}
  m_PrefabInstance: {fileID: 0}
  m_PrefabAsset: {fileID: 0}
  serializedVersion: 6
  m_Component:
  - component: {fileID: 284415124}
  - component: {fileID: 284415123}
  m_Layer: 0
  m_Name: CylindersManager
  m_TagString: Untagged
  m_Icon: {fileID: 0}
  m_NavMeshLayer: 0
  m_StaticEditorFlags: 0
  m_IsActive: 1
--- !u!114 &284415123
MonoBehaviour:
  m_ObjectHideFlags: 0
  m_CorrespondingSourceObject: {fileID: 0}
  m_PrefabInstance: {fileID: 0}
  m_PrefabAsset: {fileID: 0}
  m_GameObject: {fileID: 284415122}
  m_Enabled: 1
  m_EditorHideFlags: 0
  m_Script: {fileID: 11500000, guid: 9a7adf71d3b37465297ca0b20c65f583, type: 3}
  m_Name: 
  m_EditorClassIdentifier: 
  startingDelay: 3
  numCylinders: 16
  scale: 0.2
  heightMultiplier: 2
  circleRadius: 1.5
--- !u!4 &284415124
Transform:
  m_ObjectHideFlags: 0
  m_CorrespondingSourceObject: {fileID: 0}
  m_PrefabInstance: {fileID: 0}
  m_PrefabAsset: {fileID: 0}
  m_GameObject: {fileID: 284415122}
  m_LocalRotation: {x: 0, y: 0, z: 0, w: 1}
  m_LocalPosition: {x: 14.9801445, y: -8.478863, z: 1.6142648}
  m_LocalScale: {x: 1, y: 1, z: 1}
  m_Children: []
  m_Father: {fileID: 0}
  m_RootOrder: 10
  m_LocalEulerAnglesHint: {x: 0, y: 0, z: 0}
--- !u!1 &344072123
GameObject:
  m_ObjectHideFlags: 0
  m_CorrespondingSourceObject: {fileID: 0}
  m_PrefabInstance: {fileID: 0}
  m_PrefabAsset: {fileID: 0}
  serializedVersion: 6
  m_Component:
  - component: {fileID: 344072124}
  - component: {fileID: 344072125}
  m_Layer: 0
  m_Name: Spotlight (1)
  m_TagString: Untagged
  m_Icon: {fileID: 0}
  m_NavMeshLayer: 0
  m_StaticEditorFlags: 0
  m_IsActive: 1
--- !u!4 &344072124
Transform:
  m_ObjectHideFlags: 0
  m_CorrespondingSourceObject: {fileID: 0}
  m_PrefabInstance: {fileID: 0}
  m_PrefabAsset: {fileID: 0}
  m_GameObject: {fileID: 344072123}
  m_LocalRotation: {x: 0.7071068, y: 0, z: 0, w: 0.7071067}
  m_LocalPosition: {x: 0, y: 5, z: 0}
  m_LocalScale: {x: 1, y: 1, z: 1}
  m_Children: []
  m_Father: {fileID: 1183944418}
  m_RootOrder: 0
  m_LocalEulerAnglesHint: {x: 0, y: 0, z: 0}
--- !u!108 &344072125
Light:
  m_ObjectHideFlags: 0
  m_CorrespondingSourceObject: {fileID: 0}
  m_PrefabInstance: {fileID: 0}
  m_PrefabAsset: {fileID: 0}
  m_GameObject: {fileID: 344072123}
  m_Enabled: 1
  serializedVersion: 8
  m_Type: 0
  m_Color: {r: 1, g: 1, b: 1, a: 1}
  m_Intensity: 1
  m_Range: 3
  m_SpotAngle: 20
  m_CookieSize: 10
  m_Shadows:
    m_Type: 0
    m_Resolution: -1
    m_CustomResolution: -1
    m_Strength: 1
    m_Bias: 0.05
    m_NormalBias: 0.4
    m_NearPlane: 0.2
  m_Cookie: {fileID: 0}
  m_DrawHalo: 0
  m_Flare: {fileID: 0}
  m_RenderMode: 0
  m_CullingMask:
    serializedVersion: 2
    m_Bits: 4294967295
  m_Lightmapping: 4
  m_LightShadowCasterMode: 0
  m_AreaSize: {x: 1, y: 1}
  m_BounceIntensity: 1
  m_ColorTemperature: 6570
  m_UseColorTemperature: 0
  m_ShadowRadius: 0
  m_ShadowAngle: 0
--- !u!1 &530992187
GameObject:
  m_ObjectHideFlags: 0
  m_CorrespondingSourceObject: {fileID: 104468, guid: 8fb3550a3fd3348b786f5c6ea49318ce,
    type: 3}
  m_PrefabInstance: {fileID: 0}
  m_PrefabAsset: {fileID: 0}
  serializedVersion: 6
  m_Component:
  - component: {fileID: 530992190}
  - component: {fileID: 530992189}
  - component: {fileID: 530992188}
  - component: {fileID: 530992191}
  m_Layer: 0
  m_Name: Portal
  m_TagString: Untagged
  m_Icon: {fileID: 0}
  m_NavMeshLayer: 0
  m_StaticEditorFlags: 0
  m_IsActive: 1
--- !u!23 &530992188
MeshRenderer:
  m_ObjectHideFlags: 0
  m_CorrespondingSourceObject: {fileID: 2341052, guid: 8fb3550a3fd3348b786f5c6ea49318ce,
    type: 3}
  m_PrefabInstance: {fileID: 0}
  m_PrefabAsset: {fileID: 0}
  m_GameObject: {fileID: 530992187}
  m_Enabled: 1
  m_CastShadows: 1
  m_ReceiveShadows: 1
  m_DynamicOccludee: 1
  m_MotionVectors: 1
  m_LightProbeUsage: 1
  m_ReflectionProbeUsage: 1
  m_RenderingLayerMask: 1
  m_RendererPriority: 0
  m_Materials:
  - {fileID: 2100000, guid: 3ff5992bbad694f4ab4a3d87468b2761, type: 2}
  m_StaticBatchInfo:
    firstSubMesh: 0
    subMeshCount: 0
  m_StaticBatchRoot: {fileID: 0}
  m_ProbeAnchor: {fileID: 0}
  m_LightProbeVolumeOverride: {fileID: 0}
  m_ScaleInLightmap: 1
  m_PreserveUVs: 0
  m_IgnoreNormalsForChartDetection: 0
  m_ImportantGI: 0
  m_StitchLightmapSeams: 0
  m_SelectedEditorRenderState: 3
  m_MinimumChartSize: 4
  m_AutoUVMaxDistance: 0.5
  m_AutoUVMaxAngle: 89
  m_LightmapParameters: {fileID: 0}
  m_SortingLayerID: 0
  m_SortingLayer: 0
  m_SortingOrder: 0
--- !u!33 &530992189
MeshFilter:
  m_ObjectHideFlags: 0
  m_CorrespondingSourceObject: {fileID: 3310396, guid: 8fb3550a3fd3348b786f5c6ea49318ce,
    type: 3}
  m_PrefabInstance: {fileID: 0}
  m_PrefabAsset: {fileID: 0}
  m_GameObject: {fileID: 530992187}
  m_Mesh: {fileID: 4300000, guid: efe3af71140af4efea659e59b6b6f74b, type: 3}
--- !u!4 &530992190
Transform:
  m_ObjectHideFlags: 0
  m_CorrespondingSourceObject: {fileID: 421658, guid: 8fb3550a3fd3348b786f5c6ea49318ce,
    type: 3}
  m_PrefabInstance: {fileID: 0}
  m_PrefabAsset: {fileID: 0}
  m_GameObject: {fileID: 530992187}
  m_LocalRotation: {x: 0, y: 0, z: 0, w: 1}
  m_LocalPosition: {x: 0, y: -1.3, z: 0}
  m_LocalScale: {x: 2.5, y: 0.1, z: 2.5}
  m_Children: []
  m_Father: {fileID: 0}
  m_RootOrder: 11
  m_LocalEulerAnglesHint: {x: 0, y: 0, z: 0}
--- !u!114 &530992191
MonoBehaviour:
  m_ObjectHideFlags: 0
  m_CorrespondingSourceObject: {fileID: 0}
  m_PrefabInstance: {fileID: 0}
  m_PrefabAsset: {fileID: 0}
  m_GameObject: {fileID: 530992187}
  m_Enabled: 1
  m_EditorHideFlags: 0
  m_Script: {fileID: 11500000, guid: 4c5fc950c259a44efa438d89a3143a71, type: 3}
  m_Name: 
  m_EditorClassIdentifier: 
  delay: 3
  duration: 1
  delayFadeOut: 6
--- !u!1 &548313186
GameObject:
  m_ObjectHideFlags: 0
  m_CorrespondingSourceObject: {fileID: 0}
  m_PrefabInstance: {fileID: 0}
  m_PrefabAsset: {fileID: 0}
  serializedVersion: 6
  m_Component:
  - component: {fileID: 548313188}
  - component: {fileID: 548313187}
  m_Layer: 0
  m_Name: Spotlight (3)
  m_TagString: Untagged
  m_Icon: {fileID: 0}
  m_NavMeshLayer: 0
  m_StaticEditorFlags: 0
  m_IsActive: 1
--- !u!108 &548313187
Light:
  m_ObjectHideFlags: 0
  m_CorrespondingSourceObject: {fileID: 0}
  m_PrefabInstance: {fileID: 0}
  m_PrefabAsset: {fileID: 0}
  m_GameObject: {fileID: 548313186}
  m_Enabled: 1
  serializedVersion: 8
  m_Type: 0
  m_Color: {r: 1, g: 1, b: 1, a: 1}
  m_Intensity: 1
  m_Range: 3
  m_SpotAngle: 20
  m_CookieSize: 10
  m_Shadows:
    m_Type: 0
    m_Resolution: -1
    m_CustomResolution: -1
    m_Strength: 1
    m_Bias: 0.05
    m_NormalBias: 0.4
    m_NearPlane: 0.2
  m_Cookie: {fileID: 0}
  m_DrawHalo: 0
  m_Flare: {fileID: 0}
  m_RenderMode: 0
  m_CullingMask:
    serializedVersion: 2
    m_Bits: 4294967295
  m_Lightmapping: 4
  m_LightShadowCasterMode: 0
  m_AreaSize: {x: 1, y: 1}
  m_BounceIntensity: 1
  m_ColorTemperature: 6570
  m_UseColorTemperature: 0
  m_ShadowRadius: 0
  m_ShadowAngle: 0
--- !u!4 &548313188
Transform:
  m_ObjectHideFlags: 0
  m_CorrespondingSourceObject: {fileID: 0}
  m_PrefabInstance: {fileID: 0}
  m_PrefabAsset: {fileID: 0}
  m_GameObject: {fileID: 548313186}
  m_LocalRotation: {x: 0.7071068, y: 0, z: 0, w: 0.7071067}
  m_LocalPosition: {x: 0, y: 5, z: 0}
  m_LocalScale: {x: 1, y: 1, z: 1}
  m_Children: []
  m_Father: {fileID: 1918731452}
  m_RootOrder: 0
  m_LocalEulerAnglesHint: {x: 0, y: 0, z: 0}
--- !u!1 &583845977
GameObject:
  m_ObjectHideFlags: 0
  m_CorrespondingSourceObject: {fileID: 0}
  m_PrefabInstance: {fileID: 0}
  m_PrefabAsset: {fileID: 0}
  serializedVersion: 6
  m_Component:
  - component: {fileID: 583845982}
  - component: {fileID: 583845981}
  - component: {fileID: 583845980}
  - component: {fileID: 583845979}
  - component: {fileID: 583845978}
  - component: {fileID: 583845983}
  m_Layer: 0
  m_Name: Main Camera
  m_TagString: MainCamera
  m_Icon: {fileID: 0}
  m_NavMeshLayer: 0
  m_StaticEditorFlags: 0
  m_IsActive: 1
--- !u!81 &583845978
AudioListener:
  m_ObjectHideFlags: 0
  m_CorrespondingSourceObject: {fileID: 0}
  m_PrefabInstance: {fileID: 0}
  m_PrefabAsset: {fileID: 0}
  m_GameObject: {fileID: 583845977}
  m_Enabled: 1
--- !u!124 &583845979
Behaviour:
  m_ObjectHideFlags: 0
  m_CorrespondingSourceObject: {fileID: 0}
  m_PrefabInstance: {fileID: 0}
  m_PrefabAsset: {fileID: 0}
  m_GameObject: {fileID: 583845977}
  m_Enabled: 1
--- !u!92 &583845980
Behaviour:
  m_ObjectHideFlags: 0
  m_CorrespondingSourceObject: {fileID: 0}
  m_PrefabInstance: {fileID: 0}
  m_PrefabAsset: {fileID: 0}
  m_GameObject: {fileID: 583845977}
  m_Enabled: 1
--- !u!20 &583845981
Camera:
  m_ObjectHideFlags: 0
  m_CorrespondingSourceObject: {fileID: 0}
  m_PrefabInstance: {fileID: 0}
  m_PrefabAsset: {fileID: 0}
  m_GameObject: {fileID: 583845977}
  m_Enabled: 1
  serializedVersion: 2
  m_ClearFlags: 1
  m_BackGroundColor: {r: 1, g: 1, b: 1, a: 1}
  m_projectionMatrixMode: 1
  m_SensorSize: {x: 36, y: 24}
  m_LensShift: {x: 0, y: 0}
  m_GateFitMode: 2
  m_FocalLength: 50
  m_NormalizedViewPortRect:
    serializedVersion: 2
    x: 0
    y: 0
    width: 1
    height: 1
  near clip plane: 0.3
  far clip plane: 1000
  field of view: 60
  orthographic: 0
  orthographic size: 5
  m_Depth: -1
  m_CullingMask:
    serializedVersion: 2
    m_Bits: 4294967295
  m_RenderingPath: -1
  m_TargetTexture: {fileID: 0}
  m_TargetDisplay: 0
  m_TargetEye: 3
  m_HDR: 0
  m_AllowMSAA: 1
  m_AllowDynamicResolution: 0
  m_ForceIntoRT: 0
  m_OcclusionCulling: 1
  m_StereoConvergence: 10
  m_StereoSeparation: 0.022
--- !u!4 &583845982
Transform:
  m_ObjectHideFlags: 0
  m_CorrespondingSourceObject: {fileID: 0}
  m_PrefabInstance: {fileID: 0}
  m_PrefabAsset: {fileID: 0}
  m_GameObject: {fileID: 583845977}
  m_LocalRotation: {x: -0.17123792, y: 0.40423188, z: -0.07732827, w: -0.89515054}
  m_LocalPosition: {x: 3.9381895, y: 2.6166914, z: -3.855317}
  m_LocalScale: {x: 1, y: 1, z: 1}
  m_Children: []
  m_Father: {fileID: 0}
  m_RootOrder: 4
  m_LocalEulerAnglesHint: {x: 0, y: 0, z: 0}
--- !u!114 &583845983
MonoBehaviour:
  m_ObjectHideFlags: 0
  m_CorrespondingSourceObject: {fileID: 0}
  m_PrefabInstance: {fileID: 0}
  m_PrefabAsset: {fileID: 0}
  m_GameObject: {fileID: 583845977}
  m_Enabled: 1
  m_EditorHideFlags: 0
  m_Script: {fileID: 11500000, guid: 208d975344ed54247a82ac62c18b9214, type: 3}
  m_Name: 
  m_EditorClassIdentifier: 
  baseHeight: 0.6
  speedY: 0.001
  speedX: 7
  distAcceleration: 0.0001
  distSpeed: 0.0001
  lookAt: {x: 0, y: 0, z: 0}
--- !u!1 &679193199
GameObject:
  m_ObjectHideFlags: 0
  m_CorrespondingSourceObject: {fileID: 0}
  m_PrefabInstance: {fileID: 0}
  m_PrefabAsset: {fileID: 0}
  serializedVersion: 6
  m_Component:
  - component: {fileID: 679193201}
  - component: {fileID: 679193200}
  m_Layer: 0
  m_Name: Spotlight (2)
  m_TagString: Untagged
  m_Icon: {fileID: 0}
  m_NavMeshLayer: 0
  m_StaticEditorFlags: 0
  m_IsActive: 1
--- !u!108 &679193200
Light:
  m_ObjectHideFlags: 0
  m_CorrespondingSourceObject: {fileID: 0}
  m_PrefabInstance: {fileID: 0}
  m_PrefabAsset: {fileID: 0}
  m_GameObject: {fileID: 679193199}
  m_Enabled: 1
  serializedVersion: 8
  m_Type: 0
  m_Color: {r: 1, g: 1, b: 1, a: 1}
  m_Intensity: 1
  m_Range: 3
  m_SpotAngle: 20
  m_CookieSize: 10
  m_Shadows:
    m_Type: 0
    m_Resolution: -1
    m_CustomResolution: -1
    m_Strength: 1
    m_Bias: 0.05
    m_NormalBias: 0.4
    m_NearPlane: 0.2
  m_Cookie: {fileID: 0}
  m_DrawHalo: 0
  m_Flare: {fileID: 0}
  m_RenderMode: 0
  m_CullingMask:
    serializedVersion: 2
    m_Bits: 4294967295
  m_Lightmapping: 4
  m_LightShadowCasterMode: 0
  m_AreaSize: {x: 1, y: 1}
  m_BounceIntensity: 1
  m_ColorTemperature: 6570
  m_UseColorTemperature: 0
  m_ShadowRadius: 0
  m_ShadowAngle: 0
--- !u!4 &679193201
Transform:
  m_ObjectHideFlags: 0
  m_CorrespondingSourceObject: {fileID: 0}
  m_PrefabInstance: {fileID: 0}
  m_PrefabAsset: {fileID: 0}
  m_GameObject: {fileID: 679193199}
  m_LocalRotation: {x: 0.7071068, y: 0, z: 0, w: 0.7071067}
  m_LocalPosition: {x: 0, y: 5, z: 0}
  m_LocalScale: {x: 1, y: 1, z: 1}
  m_Children: []
  m_Father: {fileID: 1943623910}
  m_RootOrder: 0
  m_LocalEulerAnglesHint: {x: 0, y: 0, z: 0}
--- !u!1 &740049734
GameObject:
  m_ObjectHideFlags: 0
  m_CorrespondingSourceObject: {fileID: 0}
  m_PrefabInstance: {fileID: 0}
  m_PrefabAsset: {fileID: 0}
  serializedVersion: 6
  m_Component:
  - component: {fileID: 740049735}
  - component: {fileID: 740049736}
  m_Layer: 0
  m_Name: Spotlight
  m_TagString: Untagged
  m_Icon: {fileID: 0}
  m_NavMeshLayer: 0
  m_StaticEditorFlags: 0
  m_IsActive: 1
--- !u!4 &740049735
Transform:
  m_ObjectHideFlags: 0
  m_CorrespondingSourceObject: {fileID: 0}
  m_PrefabInstance: {fileID: 0}
  m_PrefabAsset: {fileID: 0}
  m_GameObject: {fileID: 740049734}
  m_LocalRotation: {x: 0.7071068, y: 0, z: 0, w: 0.7071067}
  m_LocalPosition: {x: 0, y: 5, z: 0}
  m_LocalScale: {x: 1, y: 1, z: 1}
  m_Children: []
  m_Father: {fileID: 18361731}
  m_RootOrder: 0
  m_LocalEulerAnglesHint: {x: 0, y: 0, z: 0}
--- !u!108 &740049736
Light:
  m_ObjectHideFlags: 0
  m_CorrespondingSourceObject: {fileID: 0}
  m_PrefabInstance: {fileID: 0}
  m_PrefabAsset: {fileID: 0}
  m_GameObject: {fileID: 740049734}
  m_Enabled: 1
  serializedVersion: 8
  m_Type: 0
  m_Color: {r: 1, g: 1, b: 1, a: 1}
  m_Intensity: 1
  m_Range: 3
  m_SpotAngle: 20
  m_CookieSize: 10
  m_Shadows:
    m_Type: 0
    m_Resolution: -1
    m_CustomResolution: -1
    m_Strength: 1
    m_Bias: 0.05
    m_NormalBias: 0.4
    m_NearPlane: 0.2
  m_Cookie: {fileID: 0}
  m_DrawHalo: 0
  m_Flare: {fileID: 0}
  m_RenderMode: 0
  m_CullingMask:
    serializedVersion: 2
    m_Bits: 4294967295
  m_Lightmapping: 4
  m_LightShadowCasterMode: 0
  m_AreaSize: {x: 1, y: 1}
  m_BounceIntensity: 1
  m_ColorTemperature: 6570
  m_UseColorTemperature: 0
  m_ShadowRadius: 0
  m_ShadowAngle: 0
--- !u!1 &774311605
GameObject:
  m_ObjectHideFlags: 0
  m_CorrespondingSourceObject: {fileID: 0}
  m_PrefabInstance: {fileID: 0}
  m_PrefabAsset: {fileID: 0}
  serializedVersion: 6
  m_Component:
  - component: {fileID: 774311606}
  m_Layer: 0
  m_Name: Stand
  m_TagString: Untagged
  m_Icon: {fileID: 0}
  m_NavMeshLayer: 0
  m_StaticEditorFlags: 4294967295
  m_IsActive: 1
--- !u!4 &774311606
Transform:
  m_ObjectHideFlags: 0
  m_CorrespondingSourceObject: {fileID: 0}
  m_PrefabInstance: {fileID: 0}
  m_PrefabAsset: {fileID: 0}
  m_GameObject: {fileID: 774311605}
  m_LocalRotation: {x: 0, y: 0, z: 0, w: 1}
  m_LocalPosition: {x: 0, y: 0, z: 0}
  m_LocalScale: {x: 1, y: 1, z: 1}
  m_Children:
  - {fileID: 1068003455}
  - {fileID: 1971356134}
  - {fileID: 1208113695}
  - {fileID: 996855351}
  - {fileID: 1823878599}
  - {fileID: 1137788437}
  m_Father: {fileID: 0}
  m_RootOrder: 9
  m_LocalEulerAnglesHint: {x: 0, y: 0, z: 0}
--- !u!1 &996855347
GameObject:
  m_ObjectHideFlags: 0
  m_CorrespondingSourceObject: {fileID: 0}
  m_PrefabInstance: {fileID: 0}
  m_PrefabAsset: {fileID: 0}
  serializedVersion: 6
  m_Component:
  - component: {fileID: 996855351}
  - component: {fileID: 996855350}
  - component: {fileID: 996855348}
  m_Layer: 0
  m_Name: Corner (1)
  m_TagString: Untagged
  m_Icon: {fileID: 0}
  m_NavMeshLayer: 0
  m_StaticEditorFlags: 4294967295
  m_IsActive: 1
--- !u!23 &996855348
MeshRenderer:
  m_ObjectHideFlags: 0
  m_CorrespondingSourceObject: {fileID: 0}
  m_PrefabInstance: {fileID: 0}
  m_PrefabAsset: {fileID: 0}
  m_GameObject: {fileID: 996855347}
  m_Enabled: 1
  m_CastShadows: 1
  m_ReceiveShadows: 1
  m_DynamicOccludee: 1
  m_MotionVectors: 1
  m_LightProbeUsage: 1
  m_ReflectionProbeUsage: 1
  m_RenderingLayerMask: 1
  m_RendererPriority: 0
  m_Materials:
  - {fileID: 2100000, guid: 5bd1daf9bf3e64109a30098f8697f2e7, type: 2}
  m_StaticBatchInfo:
    firstSubMesh: 0
    subMeshCount: 0
  m_StaticBatchRoot: {fileID: 0}
  m_ProbeAnchor: {fileID: 0}
  m_LightProbeVolumeOverride: {fileID: 0}
  m_ScaleInLightmap: 1
  m_PreserveUVs: 1
  m_IgnoreNormalsForChartDetection: 0
  m_ImportantGI: 0
  m_StitchLightmapSeams: 0
  m_SelectedEditorRenderState: 3
  m_MinimumChartSize: 4
  m_AutoUVMaxDistance: 0.5
  m_AutoUVMaxAngle: 89
  m_LightmapParameters: {fileID: 0}
  m_SortingLayerID: 0
  m_SortingLayer: 0
  m_SortingOrder: 0
--- !u!33 &996855350
MeshFilter:
  m_ObjectHideFlags: 0
  m_CorrespondingSourceObject: {fileID: 0}
  m_PrefabInstance: {fileID: 0}
  m_PrefabAsset: {fileID: 0}
  m_GameObject: {fileID: 996855347}
  m_Mesh: {fileID: 10202, guid: 0000000000000000e000000000000000, type: 0}
--- !u!4 &996855351
Transform:
  m_ObjectHideFlags: 0
  m_CorrespondingSourceObject: {fileID: 0}
  m_PrefabInstance: {fileID: 0}
  m_PrefabAsset: {fileID: 0}
  m_GameObject: {fileID: 996855347}
  m_LocalRotation: {x: 0, y: 0, z: 0, w: 1}
  m_LocalPosition: {x: 2.1, y: -1.5, z: -2.1}
  m_LocalScale: {x: 0.25, y: 2.55, z: 0.25}
  m_Children: []
  m_Father: {fileID: 774311606}
  m_RootOrder: 3
  m_LocalEulerAnglesHint: {x: 0, y: 0, z: 0}
--- !u!1 &998198703
GameObject:
  m_ObjectHideFlags: 0
  m_CorrespondingSourceObject: {fileID: 0}
  m_PrefabInstance: {fileID: 0}
  m_PrefabAsset: {fileID: 0}
  serializedVersion: 6
  m_Component:
  - component: {fileID: 998198705}
  - component: {fileID: 998198704}
  m_Layer: 0
  m_Name: Directional Light
  m_TagString: Untagged
  m_Icon: {fileID: 0}
  m_NavMeshLayer: 0
  m_StaticEditorFlags: 4294967295
  m_IsActive: 1
--- !u!108 &998198704
Light:
  m_ObjectHideFlags: 0
  m_CorrespondingSourceObject: {fileID: 0}
  m_PrefabInstance: {fileID: 0}
  m_PrefabAsset: {fileID: 0}
  m_GameObject: {fileID: 998198703}
  m_Enabled: 1
  serializedVersion: 8
  m_Type: 1
  m_Color: {r: 1, g: 1, b: 1, a: 1}
  m_Intensity: 0.75
  m_Range: 10
  m_SpotAngle: 30
  m_CookieSize: 10
  m_Shadows:
    m_Type: 2
    m_Resolution: 2
    m_CustomResolution: -1
    m_Strength: 1
    m_Bias: 0
    m_NormalBias: 0.4
    m_NearPlane: 0.2
  m_Cookie: {fileID: 0}
  m_DrawHalo: 0
  m_Flare: {fileID: 0}
  m_RenderMode: 0
  m_CullingMask:
    serializedVersion: 2
    m_Bits: 4294967295
  m_Lightmapping: 4
  m_LightShadowCasterMode: 0
  m_AreaSize: {x: 1, y: 1}
  m_BounceIntensity: 1
  m_ColorTemperature: 6570
  m_UseColorTemperature: 0
  m_ShadowRadius: 0
  m_ShadowAngle: 0
--- !u!4 &998198705
Transform:
  m_ObjectHideFlags: 0
  m_CorrespondingSourceObject: {fileID: 0}
  m_PrefabInstance: {fileID: 0}
  m_PrefabAsset: {fileID: 0}
  m_GameObject: {fileID: 998198703}
  m_LocalRotation: {x: -0.27671596, y: -0.36587143, z: 0.11490266, w: -0.8811151}
  m_LocalPosition: {x: 0, y: 3, z: 0}
  m_LocalScale: {x: 1, y: 1, z: 1}
  m_Children: []
  m_Father: {fileID: 0}
  m_RootOrder: 5
  m_LocalEulerAnglesHint: {x: 0, y: 0, z: 0}
--- !u!1 &1068003451
GameObject:
  m_ObjectHideFlags: 0
  m_CorrespondingSourceObject: {fileID: 0}
  m_PrefabInstance: {fileID: 0}
  m_PrefabAsset: {fileID: 0}
  serializedVersion: 6
  m_Component:
  - component: {fileID: 1068003455}
  - component: {fileID: 1068003454}
  - component: {fileID: 1068003452}
  m_Layer: 0
  m_Name: Pilar
  m_TagString: Untagged
  m_Icon: {fileID: 0}
  m_NavMeshLayer: 0
  m_StaticEditorFlags: 4294967295
  m_IsActive: 1
--- !u!23 &1068003452
MeshRenderer:
  m_ObjectHideFlags: 0
  m_CorrespondingSourceObject: {fileID: 0}
  m_PrefabInstance: {fileID: 0}
  m_PrefabAsset: {fileID: 0}
  m_GameObject: {fileID: 1068003451}
  m_Enabled: 1
  m_CastShadows: 1
  m_ReceiveShadows: 1
  m_DynamicOccludee: 1
  m_MotionVectors: 1
  m_LightProbeUsage: 1
  m_ReflectionProbeUsage: 1
  m_RenderingLayerMask: 1
  m_RendererPriority: 0
  m_Materials:
  - {fileID: 2100000, guid: 5bd1daf9bf3e64109a30098f8697f2e7, type: 2}
  m_StaticBatchInfo:
    firstSubMesh: 0
    subMeshCount: 0
  m_StaticBatchRoot: {fileID: 0}
  m_ProbeAnchor: {fileID: 0}
  m_LightProbeVolumeOverride: {fileID: 0}
  m_ScaleInLightmap: 1
  m_PreserveUVs: 1
  m_IgnoreNormalsForChartDetection: 0
  m_ImportantGI: 0
  m_StitchLightmapSeams: 0
  m_SelectedEditorRenderState: 3
  m_MinimumChartSize: 4
  m_AutoUVMaxDistance: 0.5
  m_AutoUVMaxAngle: 89
  m_LightmapParameters: {fileID: 0}
  m_SortingLayerID: 0
  m_SortingLayer: 0
  m_SortingOrder: 0
--- !u!33 &1068003454
MeshFilter:
  m_ObjectHideFlags: 0
  m_CorrespondingSourceObject: {fileID: 0}
  m_PrefabInstance: {fileID: 0}
  m_PrefabAsset: {fileID: 0}
  m_GameObject: {fileID: 1068003451}
  m_Mesh: {fileID: 10202, guid: 0000000000000000e000000000000000, type: 0}
--- !u!4 &1068003455
Transform:
  m_ObjectHideFlags: 0
  m_CorrespondingSourceObject: {fileID: 0}
  m_PrefabInstance: {fileID: 0}
  m_PrefabAsset: {fileID: 0}
  m_GameObject: {fileID: 1068003451}
  m_LocalRotation: {x: 0, y: 0, z: 0, w: 1}
  m_LocalPosition: {x: 0, y: -6.3, z: 0}
  m_LocalScale: {x: 4.9, y: 10, z: 4.9}
  m_Children: []
  m_Father: {fileID: 774311606}
  m_RootOrder: 0
  m_LocalEulerAnglesHint: {x: 0, y: 0, z: 0}
--- !u!21 &1108739323
Material:
  serializedVersion: 6
  m_ObjectHideFlags: 0
  m_CorrespondingSourceObject: {fileID: 0}
  m_PrefabInstance: {fileID: 0}
  m_PrefabAsset: {fileID: 0}
  m_Name: LiquidVolumeDefault(Clone)
  m_Shader: {fileID: 4800000, guid: be9d7fbb2c1ef43308f35fb0a12bbb88, type: 3}
  m_ShaderKeywords: LIQUID_VOLUME_DEPTH_AWARE LIQUID_VOLUME_SPHERE
  m_LightmapFlags: 5
  m_EnableInstancingVariants: 0
  m_DoubleSidedGI: 0
  m_CustomRenderQueue: 3001
  stringTagMap: {}
  disabledShaderPasses: []
  m_SavedProperties:
    serializedVersion: 3
    m_TexEnvs:
    - _MainTex:
        m_Texture: {fileID: 0}
        m_Scale: {x: 1, y: 1}
        m_Offset: {x: 0, y: 0}
    - _NoiseTex:
        m_Texture: {fileID: 11700000, guid: 41974beaaddc547889b39d0022cb1d07, type: 2}
        m_Scale: {x: 1, y: 1}
        m_Offset: {x: 0, y: 0}
    - _NoiseTex2D:
        m_Texture: {fileID: 2800000, guid: 2e25f51e1f31e4da8bdac5d08b0f578f, type: 3}
        m_Scale: {x: 1, y: 1}
        m_Offset: {x: 0, y: 0}
    m_Floats:
    - _Alpha: 1
    - _AlphaCombined: 0.96000004
    - _BasePos: -1
    - _CullMode: 2
    - _DeepAtten: 2
    - _DoubleSidedBias: 0.05
    - _FlaskBlurIntensity: 0
    - _FlaskThickness: 0.05
    - _FoamBottom: 1
    - _FoamDensity: 0.2
    - _FoamMaxPos: 0.4011547
    - _FoamRaySteps: 7
    - _FoamTurbulence: 1
    - _FoamWeight: 10
    - _Glossiness: 0.92
    - _GlossinessInt: 0.5
    - _Level: 1
    - _LevelPos: 0.3235547
    - _LiquidRaySteps: 10
    - _LowerLimit: -0.75
    - _Metallic: 0
    - _Muddy: 1
    - _Radius: 0.5
    - _SmokeAtten: 2
    - _SmokeRaySteps: 5
    - _SmokeSpeed: 5
    - _Sparkling: 1
    - _SparklingIntensity: 135
    - _SparklingThreshold: 0.8
    - _Topology: 0
    - _Turbulence: 1
    - _Turbulence2: 1
    - _TurbulenceSpeed: 1
    - _UpperLimit: 0.5
    - _ZTestMode: 4
    m_Colors:
    - _Bounds: {r: 1, g: 1, b: 1, a: 1}
    - _Center: {r: 0, g: 0, b: 0, a: 0}
    - _Color: {r: 1, g: 1, b: 1, a: 1}
    - _Color1: {r: 0.777, g: 0.743, b: 1, a: 0.077}
    - _Color2: {r: 0.39, g: 0.39, b: 1, a: 0.163}
    - _EmissionColor: {r: 0, g: 0, b: 0, a: 0}
    - _FlaskColor: {r: 0, g: 0, b: 0, a: 1}
    - _FlaskThickness: {r: 0.97, g: 0.97, b: 0.97, a: 0}
    - _FoamColor: {r: 1, g: 1, b: 1, a: 0.77}
    - _GlossinessInt: {r: 49, g: 1, b: 0, a: 0}
    - _Scale: {r: 0.25773194, g: 0.20618556, b: 1.0309278, a: 5.1546392}
    - _Size: {r: 3.4641016, g: 2, b: 2, a: 0.97}
    - _SmokeColor: {r: 0.7, g: 0.7, b: 0.7, a: 0.25}
    - _Turbulence: {r: 0.55, g: 0.25, b: 12.566371, a: 0}
    - _ViewDir: {r: 0, g: 0, b: 1, a: 1}
--- !u!1 &1137788436
GameObject:
  m_ObjectHideFlags: 0
  m_CorrespondingSourceObject: {fileID: 0}
  m_PrefabInstance: {fileID: 0}
  m_PrefabAsset: {fileID: 0}
  serializedVersion: 6
  m_Component:
  - component: {fileID: 1137788437}
  - component: {fileID: 1137788440}
  - component: {fileID: 1137788438}
  m_Layer: 0
  m_Name: Corner (3)
  m_TagString: Untagged
  m_Icon: {fileID: 0}
  m_NavMeshLayer: 0
  m_StaticEditorFlags: 4294967295
  m_IsActive: 1
--- !u!4 &1137788437
Transform:
  m_ObjectHideFlags: 0
  m_CorrespondingSourceObject: {fileID: 0}
  m_PrefabInstance: {fileID: 0}
  m_PrefabAsset: {fileID: 0}
  m_GameObject: {fileID: 1137788436}
  m_LocalRotation: {x: 0, y: 0, z: 0, w: 1}
  m_LocalPosition: {x: 2.1, y: -1.5, z: 2.1}
  m_LocalScale: {x: 0.25, y: 2.55, z: 0.25}
  m_Children: []
  m_Father: {fileID: 774311606}
  m_RootOrder: 5
  m_LocalEulerAnglesHint: {x: 0, y: 0, z: 0}
--- !u!23 &1137788438
MeshRenderer:
  m_ObjectHideFlags: 0
  m_CorrespondingSourceObject: {fileID: 0}
  m_PrefabInstance: {fileID: 0}
  m_PrefabAsset: {fileID: 0}
  m_GameObject: {fileID: 1137788436}
  m_Enabled: 1
  m_CastShadows: 1
  m_ReceiveShadows: 1
  m_DynamicOccludee: 1
  m_MotionVectors: 1
  m_LightProbeUsage: 1
  m_ReflectionProbeUsage: 1
  m_RenderingLayerMask: 1
  m_RendererPriority: 0
  m_Materials:
  - {fileID: 2100000, guid: 5bd1daf9bf3e64109a30098f8697f2e7, type: 2}
  m_StaticBatchInfo:
    firstSubMesh: 0
    subMeshCount: 0
  m_StaticBatchRoot: {fileID: 0}
  m_ProbeAnchor: {fileID: 0}
  m_LightProbeVolumeOverride: {fileID: 0}
  m_ScaleInLightmap: 1
  m_PreserveUVs: 1
  m_IgnoreNormalsForChartDetection: 0
  m_ImportantGI: 0
  m_StitchLightmapSeams: 0
  m_SelectedEditorRenderState: 3
  m_MinimumChartSize: 4
  m_AutoUVMaxDistance: 0.5
  m_AutoUVMaxAngle: 89
  m_LightmapParameters: {fileID: 0}
  m_SortingLayerID: 0
  m_SortingLayer: 0
  m_SortingOrder: 0
--- !u!33 &1137788440
MeshFilter:
  m_ObjectHideFlags: 0
  m_CorrespondingSourceObject: {fileID: 0}
  m_PrefabInstance: {fileID: 0}
  m_PrefabAsset: {fileID: 0}
  m_GameObject: {fileID: 1137788436}
  m_Mesh: {fileID: 10202, guid: 0000000000000000e000000000000000, type: 0}
--- !u!1 &1183944413
GameObject:
  m_ObjectHideFlags: 0
  m_CorrespondingSourceObject: {fileID: 116208, guid: de6ff48ddabd14394af4c33b4de195f9,
    type: 3}
  m_PrefabInstance: {fileID: 0}
  m_PrefabAsset: {fileID: 0}
  serializedVersion: 6
  m_Component:
  - component: {fileID: 1183944418}
  - component: {fileID: 1183944417}
  - component: {fileID: 1183944416}
  - component: {fileID: 1183944415}
  - component: {fileID: 1183944414}
  m_Layer: 0
  m_Name: CubeFlaskMini (1)
  m_TagString: Untagged
  m_Icon: {fileID: 0}
  m_NavMeshLayer: 0
  m_StaticEditorFlags: 0
  m_IsActive: 1
--- !u!114 &1183944414
MonoBehaviour:
  m_ObjectHideFlags: 0
  m_CorrespondingSourceObject: {fileID: 0}
  m_PrefabInstance: {fileID: 0}
  m_PrefabAsset: {fileID: 0}
  m_GameObject: {fileID: 1183944413}
  m_Enabled: 1
  m_EditorHideFlags: 0
  m_Script: {fileID: 11500000, guid: 37669b04ea4a745ebb15015dbf1d0e59, type: 3}
  m_Name: 
  m_EditorClassIdentifier: 
  speed: 0.01
  initialPosition: {x: 2.1, y: -0.5, z: -2.1}
  finalPosition: {x: 2.1, y: -0.1, z: -2.1}
  duration: 10
  delay: 4
  level: 0
  minRange: 0.05
  maxRange: 0.95
  acceleration: 0.175
  rotationSpeed: 0
  alphaDuration: 2
  finalRefractionBlur: 0.75
--- !u!114 &1183944415
MonoBehaviour:
  m_ObjectHideFlags: 0
  m_CorrespondingSourceObject: {fileID: 11431786, guid: de6ff48ddabd14394af4c33b4de195f9,
    type: 3}
  m_PrefabInstance: {fileID: 0}
  m_PrefabAsset: {fileID: 0}
  m_GameObject: {fileID: 1183944413}
  m_Enabled: 1
  m_EditorHideFlags: 0
  m_Script: {fileID: 11500000, guid: 4f61dcfd7077c46509132f92d2df65fe, type: 3}
  m_Name: 
  m_EditorClassIdentifier: 
  _topology: 2
  _detail: 10
  _level: 0.5
  _liquidColor1: {r: 0.923, g: 0.883, b: 0.977, a: 0.557}
  _liquidScale1: 1
  _liquidColor2: {r: 1, g: 1, b: 1, a: 0.3}
  _liquidScale2: 5
  _alpha: 1
  _emissionColor: {r: 0, g: 0, b: 0, a: 1}
  _emissionBrightness: 0
  _ditherShadows: 1
  _murkiness: 1
  _turbulence1: 0.5
  _turbulence2: 0.2
  _frecuency: 1
  _speed: 1
  _sparklingIntensity: 0.1
  _sparklingAmount: 0.354
  _deepObscurance: 0.3
  _foamColor: {r: 1, g: 1, b: 1, a: 0.65}
  _foamScale: 0.2
  _foamThickness: 0.04
  _foamDensity: 0.91
  _foamWeight: 65.1
  _foamTurbulence: 1
  _foamVisibleFromBottom: 1
  _smokeEnabled: 1
  _smokeColor: {r: 0.7, g: 0.7, b: 0.7, a: 0.25}
  _smokeScale: 0.25
  _smokeBaseObscurance: 2
  _smokeSpeed: 5
  _fixMesh: 0
  originalMesh: {fileID: 0}
  originalPivotOffset: {x: 0, y: 0, z: 0}
  _pivotOffset: {x: 0, y: 0, z: 0}
  _upperLimit: 1
  _lowerLimit: -1.5
  _subMeshIndex: 0
  _flaskTint: {r: 0, g: 0, b: 0, a: 1}
  _flaskThickness: 0.03
  _flaskGlossinessExternal: 0.92
  _flaskGlossinessInternal: 0.5
  _scatteringEnabled: 0
  _scatteringPower: 5
  _scatteringAmount: 0.3
  _refractionBlur: 1
  _blurIntensity: 0.75
  _liquidRaySteps: 10
  _foamRaySteps: 7
  _smokeRaySteps: 5
  _bumpMap: {fileID: 0}
  _bumpDistortionScale: 1
  _bumpDistortionOffset: {x: 0, y: 0}
  _distortionMap: {fileID: 0}
  _texture: {fileID: 0}
  _textureScale: {x: 1, y: 1}
  _textureOffset: {x: 0, y: 0}
  _distortionAmount: 1
  _depthAware: 0
  _depthAwareOffset: 0
  _depthAwareCustomPass: 0
  _doubleSidedBias: 0.05
  _rotationLevelBias: 0
  _ignoreGravity: 0
  _reactToForces: 0
  _textureAlpha: 1
  _extentsScale: {x: 1, y: 1, z: 1}
  _noiseVariation: 1
  _allowViewFromInside: 0
  _debugSpillPoint: 0
  _renderQueue: 3001
  _reflectionTexture: {fileID: 0}
  _physicsMass: 1
  _physicsAngularDamp: 0.02
  liqMat: {fileID: 1328892450}
--- !u!23 &1183944416
MeshRenderer:
  m_ObjectHideFlags: 0
  m_CorrespondingSourceObject: {fileID: 2358772, guid: de6ff48ddabd14394af4c33b4de195f9,
    type: 3}
  m_PrefabInstance: {fileID: 0}
  m_PrefabAsset: {fileID: 0}
  m_GameObject: {fileID: 1183944413}
  m_Enabled: 1
  m_CastShadows: 1
  m_ReceiveShadows: 1
  m_DynamicOccludee: 1
  m_MotionVectors: 1
  m_LightProbeUsage: 1
  m_ReflectionProbeUsage: 1
  m_RenderingLayerMask: 1
  m_RendererPriority: 0
  m_Materials:
  - {fileID: 1328892450}
  m_StaticBatchInfo:
    firstSubMesh: 0
    subMeshCount: 0
  m_StaticBatchRoot: {fileID: 0}
  m_ProbeAnchor: {fileID: 0}
  m_LightProbeVolumeOverride: {fileID: 0}
  m_ScaleInLightmap: 1
  m_PreserveUVs: 1
  m_IgnoreNormalsForChartDetection: 0
  m_ImportantGI: 0
  m_StitchLightmapSeams: 0
  m_SelectedEditorRenderState: 3
  m_MinimumChartSize: 4
  m_AutoUVMaxDistance: 0.5
  m_AutoUVMaxAngle: 89
  m_LightmapParameters: {fileID: 0}
  m_SortingLayerID: 0
  m_SortingLayer: 0
  m_SortingOrder: 0
--- !u!33 &1183944417
MeshFilter:
  m_ObjectHideFlags: 0
  m_CorrespondingSourceObject: {fileID: 3395876, guid: de6ff48ddabd14394af4c33b4de195f9,
    type: 3}
  m_PrefabInstance: {fileID: 0}
  m_PrefabAsset: {fileID: 0}
  m_GameObject: {fileID: 1183944413}
  m_Mesh: {fileID: 10202, guid: 0000000000000000e000000000000000, type: 0}
--- !u!4 &1183944418
Transform:
  m_ObjectHideFlags: 0
  m_CorrespondingSourceObject: {fileID: 408016, guid: de6ff48ddabd14394af4c33b4de195f9,
    type: 3}
  m_PrefabInstance: {fileID: 0}
  m_PrefabAsset: {fileID: 0}
  m_GameObject: {fileID: 1183944413}
  m_LocalRotation: {x: 0, y: 0, z: 0, w: 1}
  m_LocalPosition: {x: 2.1, y: -0.5, z: -2.1}
  m_LocalScale: {x: 0.245, y: 0.245, z: 0.245}
  m_Children:
  - {fileID: 344072124}
  m_Father: {fileID: 0}
  m_RootOrder: 2
  m_LocalEulerAnglesHint: {x: 0, y: 0, z: 0}
--- !u!1 &1208113694
GameObject:
  m_ObjectHideFlags: 0
  m_CorrespondingSourceObject: {fileID: 0}
  m_PrefabInstance: {fileID: 0}
  m_PrefabAsset: {fileID: 0}
  serializedVersion: 6
  m_Component:
  - component: {fileID: 1208113695}
  - component: {fileID: 1208113698}
  - component: {fileID: 1208113696}
  m_Layer: 0
  m_Name: Corner
  m_TagString: Untagged
  m_Icon: {fileID: 0}
  m_NavMeshLayer: 0
  m_StaticEditorFlags: 4294967295
  m_IsActive: 1
--- !u!4 &1208113695
Transform:
  m_ObjectHideFlags: 0
  m_CorrespondingSourceObject: {fileID: 0}
  m_PrefabInstance: {fileID: 0}
  m_PrefabAsset: {fileID: 0}
  m_GameObject: {fileID: 1208113694}
  m_LocalRotation: {x: 0, y: 0, z: 0, w: 1}
  m_LocalPosition: {x: -2.1, y: -1.5, z: -2.1}
  m_LocalScale: {x: 0.25, y: 2.55, z: 0.25}
  m_Children: []
  m_Father: {fileID: 774311606}
  m_RootOrder: 2
  m_LocalEulerAnglesHint: {x: 0, y: 0, z: 0}
--- !u!23 &1208113696
MeshRenderer:
  m_ObjectHideFlags: 0
  m_CorrespondingSourceObject: {fileID: 0}
  m_PrefabInstance: {fileID: 0}
  m_PrefabAsset: {fileID: 0}
  m_GameObject: {fileID: 1208113694}
  m_Enabled: 1
  m_CastShadows: 1
  m_ReceiveShadows: 1
  m_DynamicOccludee: 1
  m_MotionVectors: 1
  m_LightProbeUsage: 1
  m_ReflectionProbeUsage: 1
  m_RenderingLayerMask: 1
  m_RendererPriority: 0
  m_Materials:
  - {fileID: 2100000, guid: 5bd1daf9bf3e64109a30098f8697f2e7, type: 2}
  m_StaticBatchInfo:
    firstSubMesh: 0
    subMeshCount: 0
  m_StaticBatchRoot: {fileID: 0}
  m_ProbeAnchor: {fileID: 0}
  m_LightProbeVolumeOverride: {fileID: 0}
  m_ScaleInLightmap: 1
  m_PreserveUVs: 1
  m_IgnoreNormalsForChartDetection: 0
  m_ImportantGI: 0
  m_StitchLightmapSeams: 0
  m_SelectedEditorRenderState: 3
  m_MinimumChartSize: 4
  m_AutoUVMaxDistance: 0.5
  m_AutoUVMaxAngle: 89
  m_LightmapParameters: {fileID: 0}
  m_SortingLayerID: 0
  m_SortingLayer: 0
  m_SortingOrder: 0
--- !u!33 &1208113698
MeshFilter:
  m_ObjectHideFlags: 0
  m_CorrespondingSourceObject: {fileID: 0}
  m_PrefabInstance: {fileID: 0}
  m_PrefabAsset: {fileID: 0}
  m_GameObject: {fileID: 1208113694}
  m_Mesh: {fileID: 10202, guid: 0000000000000000e000000000000000, type: 0}
--- !u!21 &1328892450
Material:
  serializedVersion: 6
  m_ObjectHideFlags: 0
  m_CorrespondingSourceObject: {fileID: 0}
  m_PrefabInstance: {fileID: 0}
  m_PrefabAsset: {fileID: 0}
  m_Name: LiquidVolumeDefault(Clone)
  m_Shader: {fileID: 4800000, guid: be9d7fbb2c1ef43308f35fb0a12bbb88, type: 3}
  m_ShaderKeywords: LIQUID_VOLUME_CUBE
  m_LightmapFlags: 5
  m_EnableInstancingVariants: 0
  m_DoubleSidedGI: 0
  m_CustomRenderQueue: 3001
  stringTagMap: {}
  disabledShaderPasses: []
  m_SavedProperties:
    serializedVersion: 3
    m_TexEnvs:
    - _MainTex:
        m_Texture: {fileID: 0}
        m_Scale: {x: 1, y: 1}
        m_Offset: {x: 0, y: 0}
    - _NoiseTex:
        m_Texture: {fileID: 11700000, guid: 41974beaaddc547889b39d0022cb1d07, type: 2}
        m_Scale: {x: 1, y: 1}
        m_Offset: {x: 0, y: 0}
    - _NoiseTex2D:
        m_Texture: {fileID: 2800000, guid: 2e25f51e1f31e4da8bdac5d08b0f578f, type: 3}
        m_Scale: {x: 1, y: 1}
        m_Offset: {x: 0, y: 0}
    m_Floats:
    - _Alpha: 1
    - _AlphaCombined: 1
    - _BasePos: -1
    - _CullMode: 2
    - _DeepAtten: 0.3
    - _DoubleSidedBias: 0.05
    - _FlaskBlurIntensity: 0.75
    - _FlaskThickness: 0.05
    - _FoamBottom: 1
    - _FoamDensity: 0.91
    - _FoamMaxPos: -0.490494
    - _FoamRaySteps: 7
    - _FoamTurbulence: 1
    - _FoamWeight: 65.1
    - _Glossiness: 0.92
    - _GlossinessInt: 0.5
    - _Level: 1
    - _LevelPos: -0.5
    - _LiquidRaySteps: 10
    - _LowerLimit: -0.75
    - _Metallic: 0
    - _Muddy: 1
    - _Radius: 0.5
    - _SmokeAtten: 2
    - _SmokeRaySteps: 5
    - _SmokeSpeed: 5
    - _Sparkling: 1
    - _SparklingIntensity: 25
    - _SparklingThreshold: 0.646
    - _Topology: 0
    - _Turbulence: 1
    - _Turbulence2: 1
    - _TurbulenceSpeed: 1
    - _UpperLimit: 0.5
    - _ZTestMode: 4
    m_Colors:
    - _Bounds: {r: 1, g: 1, b: 1, a: 1}
    - _Center: {r: 2.1, g: -0.5, b: -2.1, a: 0}
    - _Color: {r: 1, g: 1, b: 1, a: 1}
    - _Color1: {r: 0.923, g: 0.883, b: 0.977, a: 0.557}
    - _Color2: {r: 1, g: 1, b: 1, a: 0.3}
    - _EmissionColor: {r: 0, g: 0, b: 0, a: 0}
    - _FlaskColor: {r: 0, g: 0, b: 0, a: 1}
    - _FlaskThickness: {r: 0.97, g: 0.97, b: 0.97, a: 0}
    - _FoamColor: {r: 1, g: 1, b: 1, a: 0.65}
    - _GlossinessInt: {r: 49, g: 1, b: 0, a: 0}
    - _Scale: {r: 2.1039343, g: 1.6831474, b: 8.415737, a: 42.078686}
    - _Size: {r: 0.42435232, g: 0.245, b: 0.245, a: 0.118825}
    - _SmokeColor: {r: 0.7, g: 0.7, b: 0.7, a: 0.25}
    - _Turbulence: {r: 0.5, g: 0.2, b: 12.566371, a: 0}
    - _ViewDir: {r: 0, g: 0, b: 1, a: 1}
--- !u!21 &1392344323
Material:
  serializedVersion: 6
  m_ObjectHideFlags: 0
  m_CorrespondingSourceObject: {fileID: 0}
  m_PrefabInstance: {fileID: 0}
  m_PrefabAsset: {fileID: 0}
  m_Name: LiquidVolumeDefault(Clone)
  m_Shader: {fileID: 4800000, guid: be9d7fbb2c1ef43308f35fb0a12bbb88, type: 3}
  m_ShaderKeywords: LIQUID_VOLUME_CUBE
  m_LightmapFlags: 5
  m_EnableInstancingVariants: 0
  m_DoubleSidedGI: 0
  m_CustomRenderQueue: 3001
  stringTagMap: {}
  disabledShaderPasses: []
  m_SavedProperties:
    serializedVersion: 3
    m_TexEnvs:
    - _MainTex:
        m_Texture: {fileID: 0}
        m_Scale: {x: 1, y: 1}
        m_Offset: {x: 0, y: 0}
    - _NoiseTex:
        m_Texture: {fileID: 11700000, guid: 41974beaaddc547889b39d0022cb1d07, type: 2}
        m_Scale: {x: 1, y: 1}
        m_Offset: {x: 0, y: 0}
    - _NoiseTex2D:
        m_Texture: {fileID: 2800000, guid: 2e25f51e1f31e4da8bdac5d08b0f578f, type: 3}
        m_Scale: {x: 1, y: 1}
        m_Offset: {x: 0, y: 0}
    m_Floats:
    - _Alpha: 1
    - _AlphaCombined: 1
    - _BasePos: -1
    - _CullMode: 2
    - _DeepAtten: 0.3
    - _DoubleSidedBias: 0.05
    - _FlaskBlurIntensity: 0.75
    - _FlaskThickness: 0.05
    - _FoamBottom: 1
    - _FoamDensity: 0.91
    - _FoamMaxPos: -0.490494
    - _FoamRaySteps: 7
    - _FoamTurbulence: 1
    - _FoamWeight: 65.1
    - _Glossiness: 0.92
    - _GlossinessInt: 0.5
    - _Level: 1
    - _LevelPos: -0.5
    - _LiquidRaySteps: 10
    - _LowerLimit: -0.75
    - _Metallic: 0
    - _Muddy: 1
    - _Radius: 0.5
    - _SmokeAtten: 2
    - _SmokeRaySteps: 5
    - _SmokeSpeed: 5
    - _Sparkling: 1
    - _SparklingIntensity: 25
    - _SparklingThreshold: 0.646
    - _Topology: 0
    - _Turbulence: 1
    - _Turbulence2: 1
    - _TurbulenceSpeed: 1
    - _UpperLimit: 0.5
    - _ZTestMode: 4
    m_Colors:
    - _Bounds: {r: 1, g: 1, b: 1, a: 1}
    - _Center: {r: -2.1, g: -0.5, b: -2.1, a: 0}
    - _Color: {r: 1, g: 1, b: 1, a: 1}
    - _Color1: {r: 0, g: 0, b: 0, a: 0.503}
    - _Color2: {r: 0.04482756, g: 0.04482756, b: 0.04482756, a: 0.3}
    - _EmissionColor: {r: 0, g: 0, b: 0, a: 0}
    - _FlaskColor: {r: 0, g: 0, b: 0, a: 1}
    - _FlaskThickness: {r: 0.97, g: 0.97, b: 0.97, a: 0}
    - _FoamColor: {r: 1, g: 1, b: 1, a: 0.803}
    - _GlossinessInt: {r: 49, g: 1, b: 0, a: 0}
    - _Scale: {r: 2.1039343, g: 1.6831474, b: 8.415737, a: 42.078686}
    - _Size: {r: 0.42435232, g: 0.245, b: 0.245, a: 0.118825}
    - _SmokeColor: {r: 0.7, g: 0.7, b: 0.7, a: 0.25}
    - _Turbulence: {r: 0.5, g: 0.2, b: 12.566371, a: 0}
    - _ViewDir: {r: 0, g: 0, b: 1, a: 1}
--- !u!1 &1452080985
GameObject:
  m_ObjectHideFlags: 0
  m_CorrespondingSourceObject: {fileID: 0}
  m_PrefabInstance: {fileID: 0}
  m_PrefabAsset: {fileID: 0}
  serializedVersion: 6
  m_Component:
  - component: {fileID: 1452080987}
  - component: {fileID: 1452080986}
  - component: {fileID: 1452080988}
  m_Layer: 0
  m_Name: Spotlight
  m_TagString: Untagged
  m_Icon: {fileID: 0}
  m_NavMeshLayer: 0
  m_StaticEditorFlags: 4294967295
  m_IsActive: 1
--- !u!108 &1452080986
Light:
  m_ObjectHideFlags: 0
  m_CorrespondingSourceObject: {fileID: 0}
  m_PrefabInstance: {fileID: 0}
  m_PrefabAsset: {fileID: 0}
  m_GameObject: {fileID: 1452080985}
  m_Enabled: 1
  serializedVersion: 8
  m_Type: 0
  m_Color: {r: 0.102941155, g: 1, b: 0, a: 1}
  m_Intensity: 3.5
  m_Range: 13
  m_SpotAngle: 22
  m_CookieSize: 10
  m_Shadows:
    m_Type: 2
    m_Resolution: -1
    m_CustomResolution: -1
    m_Strength: 1
    m_Bias: 0.05
    m_NormalBias: 0.4
    m_NearPlane: 0.2
  m_Cookie: {fileID: 0}
  m_DrawHalo: 0
  m_Flare: {fileID: 0}
  m_RenderMode: 0
  m_CullingMask:
    serializedVersion: 2
    m_Bits: 4294967295
  m_Lightmapping: 4
  m_LightShadowCasterMode: 0
  m_AreaSize: {x: 1, y: 1}
  m_BounceIntensity: 1
  m_ColorTemperature: 6570
  m_UseColorTemperature: 0
  m_ShadowRadius: 0
  m_ShadowAngle: 0
--- !u!4 &1452080987
Transform:
  m_ObjectHideFlags: 0
  m_CorrespondingSourceObject: {fileID: 0}
  m_PrefabInstance: {fileID: 0}
  m_PrefabAsset: {fileID: 0}
  m_GameObject: {fileID: 1452080985}
  m_LocalRotation: {x: 0.7071068, y: 0, z: 0, w: 0.7071067}
  m_LocalPosition: {x: 0, y: 10, z: 0}
  m_LocalScale: {x: 1, y: 1, z: 1}
  m_Children: []
  m_Father: {fileID: 0}
  m_RootOrder: 7
  m_LocalEulerAnglesHint: {x: 0, y: 0, z: 0}
--- !u!114 &1452080988
MonoBehaviour:
  m_ObjectHideFlags: 0
  m_CorrespondingSourceObject: {fileID: 0}
  m_PrefabInstance: {fileID: 0}
  m_PrefabAsset: {fileID: 0}
  m_GameObject: {fileID: 1452080985}
  m_Enabled: 1
  m_EditorHideFlags: 0
  m_Script: {fileID: 11500000, guid: 0753f9df958214d27a3850df6d180c76, type: 3}
  m_Name: 
  m_EditorClassIdentifier: 
  lightOnDelay: 8
  targetIntensity: 4
  initialIntensity: 0
  duration: 3
  nextColorInterval: 2
  colorChangeDuration: 2
--- !u!1 &1455510931
GameObject:
  m_ObjectHideFlags: 0
  m_CorrespondingSourceObject: {fileID: 104468, guid: 8fb3550a3fd3348b786f5c6ea49318ce,
    type: 3}
  m_PrefabInstance: {fileID: 0}
  m_PrefabAsset: {fileID: 0}
  serializedVersion: 6
  m_Component:
  - component: {fileID: 1455510935}
  - component: {fileID: 1455510934}
  - component: {fileID: 1455510933}
  - component: {fileID: 1455510932}
  - component: {fileID: 1455510936}
  m_Layer: 0
  m_Name: SphereFlask
  m_TagString: Untagged
  m_Icon: {fileID: 0}
  m_NavMeshLayer: 0
  m_StaticEditorFlags: 0
  m_IsActive: 1
--- !u!114 &1455510932
MonoBehaviour:
  m_ObjectHideFlags: 0
  m_CorrespondingSourceObject: {fileID: 11451546, guid: 8fb3550a3fd3348b786f5c6ea49318ce,
    type: 3}
  m_PrefabInstance: {fileID: 0}
  m_PrefabAsset: {fileID: 0}
  m_GameObject: {fileID: 1455510931}
  m_Enabled: 1
  m_EditorHideFlags: 0
  m_Script: {fileID: 11500000, guid: 4f61dcfd7077c46509132f92d2df65fe, type: 3}
  m_Name: 
  m_EditorClassIdentifier: 
  _topology: 0
  _detail: 10
  _level: 0.66678077
  _liquidColor1: {r: 0.777, g: 0.743, b: 1, a: 0.077}
  _liquidScale1: 1
  _liquidColor2: {r: 0.39, g: 0.39, b: 1, a: 0.163}
  _liquidScale2: 5
  _alpha: 1
  _emissionColor: {r: 0, g: 0, b: 0, a: 1}
  _emissionBrightness: 0
  _ditherShadows: 1
  _murkiness: 1
  _turbulence1: 0.55
  _turbulence2: 0.25
  _frecuency: 1
  _speed: 1
  _sparklingIntensity: 0.54
  _sparklingAmount: 0.2
  _deepObscurance: 2
  _foamColor: {r: 1, g: 1, b: 1, a: 0.77}
  _foamScale: 0.2
  _foamThickness: 0.04
  _foamDensity: 0.2
  _foamWeight: 10
  _foamTurbulence: 1
  _foamVisibleFromBottom: 1
  _smokeEnabled: 1
  _smokeColor: {r: 0.7, g: 0.7, b: 0.7, a: 0.25}
  _smokeScale: 0.25
  _smokeBaseObscurance: 2
  _smokeSpeed: 5
  _fixMesh: 0
  originalMesh: {fileID: 0}
  originalPivotOffset: {x: 0, y: 0, z: 0}
  _pivotOffset: {x: 0, y: 0, z: 0}
  _upperLimit: 1
  _lowerLimit: -1.5
  _subMeshIndex: 0
  _flaskTint: {r: 0, g: 0, b: 0, a: 1}
  _flaskThickness: 0.03
  _flaskGlossinessExternal: 0.92
  _flaskGlossinessInternal: 0.5
  _scatteringEnabled: 0
  _scatteringPower: 5
  _scatteringAmount: 0.3
  _refractionBlur: 1
  _blurIntensity: 0
  _liquidRaySteps: 10
  _foamRaySteps: 7
  _smokeRaySteps: 5
  _bumpMap: {fileID: 0}
  _bumpDistortionScale: 1
  _bumpDistortionOffset: {x: 0, y: 0}
  _distortionMap: {fileID: 0}
  _texture: {fileID: 0}
  _textureScale: {x: 1, y: 1}
  _textureOffset: {x: 0, y: 0}
  _distortionAmount: 0
  _depthAware: 1
  _depthAwareOffset: 0
  _depthAwareCustomPass: 0
  _doubleSidedBias: 0.05
  _rotationLevelBias: 0
  _ignoreGravity: 0
  _reactToForces: 0
  _textureAlpha: 1
  _extentsScale: {x: 1, y: 1, z: 1}
  _noiseVariation: 1
  _allowViewFromInside: 0
  _debugSpillPoint: 0
  _renderQueue: 3001
  _reflectionTexture: {fileID: 0}
  _physicsMass: 1
  _physicsAngularDamp: 0.02
  liqMat: {fileID: 1108739323}
--- !u!23 &1455510933
MeshRenderer:
  m_ObjectHideFlags: 0
  m_CorrespondingSourceObject: {fileID: 2341052, guid: 8fb3550a3fd3348b786f5c6ea49318ce,
    type: 3}
  m_PrefabInstance: {fileID: 0}
  m_PrefabAsset: {fileID: 0}
  m_GameObject: {fileID: 1455510931}
  m_Enabled: 1
  m_CastShadows: 1
  m_ReceiveShadows: 1
  m_DynamicOccludee: 1
  m_MotionVectors: 1
  m_LightProbeUsage: 1
  m_ReflectionProbeUsage: 1
  m_RenderingLayerMask: 1
  m_RendererPriority: 0
  m_Materials:
  - {fileID: 1108739323}
  m_StaticBatchInfo:
    firstSubMesh: 0
    subMeshCount: 0
  m_StaticBatchRoot: {fileID: 0}
  m_ProbeAnchor: {fileID: 0}
  m_LightProbeVolumeOverride: {fileID: 0}
  m_ScaleInLightmap: 1
  m_PreserveUVs: 0
  m_IgnoreNormalsForChartDetection: 0
  m_ImportantGI: 0
  m_StitchLightmapSeams: 0
  m_SelectedEditorRenderState: 3
  m_MinimumChartSize: 4
  m_AutoUVMaxDistance: 0.5
  m_AutoUVMaxAngle: 89
  m_LightmapParameters: {fileID: 0}
  m_SortingLayerID: 0
  m_SortingLayer: 0
  m_SortingOrder: 0
--- !u!33 &1455510934
MeshFilter:
  m_ObjectHideFlags: 0
  m_CorrespondingSourceObject: {fileID: 3310396, guid: 8fb3550a3fd3348b786f5c6ea49318ce,
    type: 3}
  m_PrefabInstance: {fileID: 0}
  m_PrefabAsset: {fileID: 0}
  m_GameObject: {fileID: 1455510931}
  m_Mesh: {fileID: 4300000, guid: efe3af71140af4efea659e59b6b6f74b, type: 3}
--- !u!4 &1455510935
Transform:
  m_ObjectHideFlags: 0
  m_CorrespondingSourceObject: {fileID: 421658, guid: 8fb3550a3fd3348b786f5c6ea49318ce,
    type: 3}
  m_PrefabInstance: {fileID: 0}
  m_PrefabAsset: {fileID: 0}
  m_GameObject: {fileID: 1455510931}
  m_LocalRotation: {x: 0, y: 0, z: 0, w: 1}
  m_LocalPosition: {x: 0, y: 0, z: 0}
  m_LocalScale: {x: 2, y: 2, z: 2}
  m_Children:
  - {fileID: 2071260210}
  m_Father: {fileID: 0}
  m_RootOrder: 6
  m_LocalEulerAnglesHint: {x: 0, y: 0, z: 0}
--- !u!114 &1455510936
MonoBehaviour:
  m_ObjectHideFlags: 0
  m_CorrespondingSourceObject: {fileID: 0}
  m_PrefabInstance: {fileID: 0}
  m_PrefabAsset: {fileID: 0}
  m_GameObject: {fileID: 1455510931}
  m_Enabled: 1
  m_EditorHideFlags: 0
  m_Script: {fileID: 11500000, guid: 37669b04ea4a745ebb15015dbf1d0e59, type: 3}
  m_Name: 
  m_EditorClassIdentifier: 
  speed: 0.01
  initialPosition: {x: 0, y: -4, z: 0}
  finalPosition: {x: 0, y: 0, z: 0}
  duration: 2
  delay: 4
  level: 0
  minRange: 0.2
  maxRange: 0.8
  acceleration: 0.001
  rotationSpeed: 0.144
  alphaDuration: 2
  finalRefractionBlur: 0.75
--- !u!21 &1668049634
Material:
  serializedVersion: 6
  m_ObjectHideFlags: 0
  m_CorrespondingSourceObject: {fileID: 0}
  m_PrefabInstance: {fileID: 0}
  m_PrefabAsset: {fileID: 0}
  m_Name: LiquidVolumeDefault(Clone)
  m_Shader: {fileID: 4800000, guid: be9d7fbb2c1ef43308f35fb0a12bbb88, type: 3}
  m_ShaderKeywords: LIQUID_VOLUME_CUBE
  m_LightmapFlags: 5
  m_EnableInstancingVariants: 0
  m_DoubleSidedGI: 0
  m_CustomRenderQueue: 3001
  stringTagMap: {}
  disabledShaderPasses: []
  m_SavedProperties:
    serializedVersion: 3
    m_TexEnvs:
    - _MainTex:
        m_Texture: {fileID: 0}
        m_Scale: {x: 1, y: 1}
        m_Offset: {x: 0, y: 0}
    - _NoiseTex:
        m_Texture: {fileID: 11700000, guid: 41974beaaddc547889b39d0022cb1d07, type: 2}
        m_Scale: {x: 1, y: 1}
        m_Offset: {x: 0, y: 0}
    - _NoiseTex2D:
        m_Texture: {fileID: 2800000, guid: 2e25f51e1f31e4da8bdac5d08b0f578f, type: 3}
        m_Scale: {x: 1, y: 1}
        m_Offset: {x: 0, y: 0}
    m_Floats:
    - _Alpha: 1
    - _AlphaCombined: 1
    - _BasePos: -1
    - _CullMode: 2
    - _DeepAtten: 0.3
    - _DoubleSidedBias: 0.05
    - _FlaskBlurIntensity: 0.75
    - _FlaskThickness: 0.05
    - _FoamBottom: 1
    - _FoamDensity: 0.91
    - _FoamMaxPos: -0.490494
    - _FoamRaySteps: 7
    - _FoamTurbulence: 1
    - _FoamWeight: 65.1
    - _Glossiness: 0.92
    - _GlossinessInt: 0.5
    - _Level: 1
    - _LevelPos: -0.5
    - _LiquidRaySteps: 10
    - _LowerLimit: -0.75
    - _Metallic: 0
    - _Muddy: 1
    - _Radius: 0.5
    - _SmokeAtten: 2
    - _SmokeRaySteps: 5
    - _SmokeSpeed: 5
    - _Sparkling: 1
    - _SparklingIntensity: 25
    - _SparklingThreshold: 0.646
    - _Topology: 0
    - _Turbulence: 1
    - _Turbulence2: 1
    - _TurbulenceSpeed: 1
    - _UpperLimit: 0.5
    - _ZTestMode: 4
    m_Colors:
    - _Bounds: {r: 1, g: 1, b: 1, a: 1}
    - _Center: {r: 2.1, g: -0.5, b: 2.1, a: 0}
    - _Color: {r: 1, g: 1, b: 1, a: 1}
    - _Color1: {r: 0.66100776, g: 0.5808824, b: 1, a: 0.523}
    - _Color2: {r: 0.31967545, g: 0.42545044, b: 0.6793104, a: 0.3}
    - _EmissionColor: {r: 0, g: 0, b: 0, a: 0}
    - _FlaskColor: {r: 0, g: 0, b: 0, a: 1}
    - _FlaskThickness: {r: 0.97, g: 0.97, b: 0.97, a: 0}
    - _FoamColor: {r: 1, g: 1, b: 1, a: 0.65}
    - _GlossinessInt: {r: 49, g: 1, b: 0, a: 0}
    - _Scale: {r: 2.1039343, g: 1.6831474, b: 8.415737, a: 42.078686}
    - _Size: {r: 0.42435232, g: 0.245, b: 0.245, a: 0.118825}
    - _SmokeColor: {r: 0.7, g: 0.7, b: 0.7, a: 0.25}
    - _Turbulence: {r: 0.5, g: 0.2, b: 12.566371, a: 0}
    - _ViewDir: {r: 0, g: 0, b: 1, a: 1}
--- !u!1 &1823878598
GameObject:
  m_ObjectHideFlags: 0
  m_CorrespondingSourceObject: {fileID: 0}
  m_PrefabInstance: {fileID: 0}
  m_PrefabAsset: {fileID: 0}
  serializedVersion: 6
  m_Component:
  - component: {fileID: 1823878599}
  - component: {fileID: 1823878602}
  - component: {fileID: 1823878600}
  m_Layer: 0
  m_Name: Corner (2)
  m_TagString: Untagged
  m_Icon: {fileID: 0}
  m_NavMeshLayer: 0
  m_StaticEditorFlags: 4294967295
  m_IsActive: 1
--- !u!4 &1823878599
Transform:
  m_ObjectHideFlags: 0
  m_CorrespondingSourceObject: {fileID: 0}
  m_PrefabInstance: {fileID: 0}
  m_PrefabAsset: {fileID: 0}
  m_GameObject: {fileID: 1823878598}
  m_LocalRotation: {x: 0, y: 0, z: 0, w: 1}
  m_LocalPosition: {x: -2.1, y: -1.5, z: 2.1}
  m_LocalScale: {x: 0.25, y: 2.55, z: 0.25}
  m_Children: []
  m_Father: {fileID: 774311606}
  m_RootOrder: 4
  m_LocalEulerAnglesHint: {x: 0, y: 0, z: 0}
--- !u!23 &1823878600
MeshRenderer:
  m_ObjectHideFlags: 0
  m_CorrespondingSourceObject: {fileID: 0}
  m_PrefabInstance: {fileID: 0}
  m_PrefabAsset: {fileID: 0}
  m_GameObject: {fileID: 1823878598}
  m_Enabled: 1
  m_CastShadows: 1
  m_ReceiveShadows: 1
  m_DynamicOccludee: 1
  m_MotionVectors: 1
  m_LightProbeUsage: 1
  m_ReflectionProbeUsage: 1
  m_RenderingLayerMask: 1
  m_RendererPriority: 0
  m_Materials:
  - {fileID: 2100000, guid: 5bd1daf9bf3e64109a30098f8697f2e7, type: 2}
  m_StaticBatchInfo:
    firstSubMesh: 0
    subMeshCount: 0
  m_StaticBatchRoot: {fileID: 0}
  m_ProbeAnchor: {fileID: 0}
  m_LightProbeVolumeOverride: {fileID: 0}
  m_ScaleInLightmap: 1
  m_PreserveUVs: 1
  m_IgnoreNormalsForChartDetection: 0
  m_ImportantGI: 0
  m_StitchLightmapSeams: 0
  m_SelectedEditorRenderState: 3
  m_MinimumChartSize: 4
  m_AutoUVMaxDistance: 0.5
  m_AutoUVMaxAngle: 89
  m_LightmapParameters: {fileID: 0}
  m_SortingLayerID: 0
  m_SortingLayer: 0
  m_SortingOrder: 0
--- !u!33 &1823878602
MeshFilter:
  m_ObjectHideFlags: 0
  m_CorrespondingSourceObject: {fileID: 0}
  m_PrefabInstance: {fileID: 0}
  m_PrefabAsset: {fileID: 0}
  m_GameObject: {fileID: 1823878598}
  m_Mesh: {fileID: 10202, guid: 0000000000000000e000000000000000, type: 0}
--- !u!1 &1918731447
GameObject:
  m_ObjectHideFlags: 0
  m_CorrespondingSourceObject: {fileID: 116208, guid: de6ff48ddabd14394af4c33b4de195f9,
    type: 3}
  m_PrefabInstance: {fileID: 0}
  m_PrefabAsset: {fileID: 0}
  serializedVersion: 6
  m_Component:
  - component: {fileID: 1918731452}
  - component: {fileID: 1918731451}
  - component: {fileID: 1918731450}
  - component: {fileID: 1918731449}
  - component: {fileID: 1918731448}
  m_Layer: 0
  m_Name: CubeFlaskMini (3)
  m_TagString: Untagged
  m_Icon: {fileID: 0}
  m_NavMeshLayer: 0
  m_StaticEditorFlags: 0
  m_IsActive: 1
--- !u!114 &1918731448
MonoBehaviour:
  m_ObjectHideFlags: 0
  m_CorrespondingSourceObject: {fileID: 0}
  m_PrefabInstance: {fileID: 0}
  m_PrefabAsset: {fileID: 0}
  m_GameObject: {fileID: 1918731447}
  m_Enabled: 1
  m_EditorHideFlags: 0
  m_Script: {fileID: 11500000, guid: 37669b04ea4a745ebb15015dbf1d0e59, type: 3}
  m_Name: 
  m_EditorClassIdentifier: 
  speed: 0.01
  initialPosition: {x: -2.1, y: -0.5, z: 2.1}
  finalPosition: {x: -2.1, y: -0.1, z: 2.1}
  duration: 8
  delay: 4
  level: 0
  minRange: 0.05
  maxRange: 0.95
  acceleration: 0.153
  rotationSpeed: 0
  alphaDuration: 2
  finalRefractionBlur: 0.75
--- !u!114 &1918731449
MonoBehaviour:
  m_ObjectHideFlags: 0
  m_CorrespondingSourceObject: {fileID: 11431786, guid: de6ff48ddabd14394af4c33b4de195f9,
    type: 3}
  m_PrefabInstance: {fileID: 0}
  m_PrefabAsset: {fileID: 0}
  m_GameObject: {fileID: 1918731447}
  m_Enabled: 1
  m_EditorHideFlags: 0
  m_Script: {fileID: 11500000, guid: 4f61dcfd7077c46509132f92d2df65fe, type: 3}
  m_Name: 
  m_EditorClassIdentifier: 
  _topology: 2
  _detail: 10
  _level: 0.5
  _liquidColor1: {r: 0.7689655, g: 0.050887424, b: 0.050887424, a: 0.437}
  _liquidScale1: 1
  _liquidColor2: {r: 1, g: 0.27971607, b: 0.27971607, a: 0.3}
  _liquidScale2: 5
  _alpha: 1
  _emissionColor: {r: 0, g: 0, b: 0, a: 1}
  _emissionBrightness: 0
  _ditherShadows: 1
  _murkiness: 1
  _turbulence1: 0.5
  _turbulence2: 0.2
  _frecuency: 1
  _speed: 1
  _sparklingIntensity: 0.1
  _sparklingAmount: 0.354
  _deepObscurance: 0.3
  _foamColor: {r: 1, g: 1, b: 1, a: 0.65}
  _foamScale: 0.2
  _foamThickness: 0.04
  _foamDensity: 0.91
  _foamWeight: 65.1
  _foamTurbulence: 1
  _foamVisibleFromBottom: 1
  _smokeEnabled: 1
  _smokeColor: {r: 0.7, g: 0.7, b: 0.7, a: 0.25}
  _smokeScale: 0.25
  _smokeBaseObscurance: 2
  _smokeSpeed: 5
  _fixMesh: 0
  originalMesh: {fileID: 0}
  originalPivotOffset: {x: 0, y: 0, z: 0}
  _pivotOffset: {x: 0, y: 0, z: 0}
  _upperLimit: 1
  _lowerLimit: -1.5
  _subMeshIndex: 0
  _flaskTint: {r: 0, g: 0, b: 0, a: 1}
  _flaskThickness: 0.03
  _flaskGlossinessExternal: 0.92
  _flaskGlossinessInternal: 0.5
  _scatteringEnabled: 0
  _scatteringPower: 5
  _scatteringAmount: 0.3
  _refractionBlur: 1
  _blurIntensity: 0.75
  _liquidRaySteps: 10
  _foamRaySteps: 7
  _smokeRaySteps: 5
  _bumpMap: {fileID: 0}
  _bumpDistortionScale: 1
  _bumpDistortionOffset: {x: 0, y: 0}
  _distortionMap: {fileID: 0}
  _texture: {fileID: 0}
  _textureScale: {x: 1, y: 1}
  _textureOffset: {x: 0, y: 0}
  _distortionAmount: 1
  _depthAware: 0
  _depthAwareOffset: 0
  _depthAwareCustomPass: 0
  _doubleSidedBias: 0.05
  _rotationLevelBias: 0
  _ignoreGravity: 0
  _reactToForces: 0
  _textureAlpha: 1
  _extentsScale: {x: 1, y: 1, z: 1}
  _noiseVariation: 1
  _allowViewFromInside: 0
  _debugSpillPoint: 0
  _renderQueue: 3001
  _reflectionTexture: {fileID: 0}
  _physicsMass: 1
  _physicsAngularDamp: 0.02
  liqMat: {fileID: 236375638}
--- !u!23 &1918731450
MeshRenderer:
  m_ObjectHideFlags: 0
  m_CorrespondingSourceObject: {fileID: 2358772, guid: de6ff48ddabd14394af4c33b4de195f9,
    type: 3}
  m_PrefabInstance: {fileID: 0}
  m_PrefabAsset: {fileID: 0}
  m_GameObject: {fileID: 1918731447}
  m_Enabled: 1
  m_CastShadows: 1
  m_ReceiveShadows: 1
  m_DynamicOccludee: 1
  m_MotionVectors: 1
  m_LightProbeUsage: 1
  m_ReflectionProbeUsage: 1
  m_RenderingLayerMask: 1
  m_RendererPriority: 0
  m_Materials:
  - {fileID: 236375638}
  m_StaticBatchInfo:
    firstSubMesh: 0
    subMeshCount: 0
  m_StaticBatchRoot: {fileID: 0}
  m_ProbeAnchor: {fileID: 0}
  m_LightProbeVolumeOverride: {fileID: 0}
  m_ScaleInLightmap: 1
  m_PreserveUVs: 1
  m_IgnoreNormalsForChartDetection: 0
  m_ImportantGI: 0
  m_StitchLightmapSeams: 0
  m_SelectedEditorRenderState: 3
  m_MinimumChartSize: 4
  m_AutoUVMaxDistance: 0.5
  m_AutoUVMaxAngle: 89
  m_LightmapParameters: {fileID: 0}
  m_SortingLayerID: 0
  m_SortingLayer: 0
  m_SortingOrder: 0
--- !u!33 &1918731451
MeshFilter:
  m_ObjectHideFlags: 0
  m_CorrespondingSourceObject: {fileID: 3395876, guid: de6ff48ddabd14394af4c33b4de195f9,
    type: 3}
  m_PrefabInstance: {fileID: 0}
  m_PrefabAsset: {fileID: 0}
  m_GameObject: {fileID: 1918731447}
  m_Mesh: {fileID: 10202, guid: 0000000000000000e000000000000000, type: 0}
--- !u!4 &1918731452
Transform:
  m_ObjectHideFlags: 0
  m_CorrespondingSourceObject: {fileID: 408016, guid: de6ff48ddabd14394af4c33b4de195f9,
    type: 3}
  m_PrefabInstance: {fileID: 0}
  m_PrefabAsset: {fileID: 0}
  m_GameObject: {fileID: 1918731447}
  m_LocalRotation: {x: 0, y: 0, z: 0, w: 1}
  m_LocalPosition: {x: -2.1, y: -0.5, z: 2.1}
  m_LocalScale: {x: 0.245, y: 0.245, z: 0.245}
  m_Children:
  - {fileID: 548313188}
  m_Father: {fileID: 0}
  m_RootOrder: 0
  m_LocalEulerAnglesHint: {x: 0, y: 0, z: 0}
--- !u!1 &1943623905
GameObject:
  m_ObjectHideFlags: 0
  m_CorrespondingSourceObject: {fileID: 116208, guid: de6ff48ddabd14394af4c33b4de195f9,
    type: 3}
  m_PrefabInstance: {fileID: 0}
  m_PrefabAsset: {fileID: 0}
  serializedVersion: 6
  m_Component:
  - component: {fileID: 1943623910}
  - component: {fileID: 1943623909}
  - component: {fileID: 1943623908}
  - component: {fileID: 1943623907}
  - component: {fileID: 1943623906}
  m_Layer: 0
  m_Name: CubeFlaskMini (2)
  m_TagString: Untagged
  m_Icon: {fileID: 0}
  m_NavMeshLayer: 0
  m_StaticEditorFlags: 0
  m_IsActive: 1
--- !u!114 &1943623906
MonoBehaviour:
  m_ObjectHideFlags: 0
  m_CorrespondingSourceObject: {fileID: 0}
  m_PrefabInstance: {fileID: 0}
  m_PrefabAsset: {fileID: 0}
  m_GameObject: {fileID: 1943623905}
  m_Enabled: 1
  m_EditorHideFlags: 0
  m_Script: {fileID: 11500000, guid: 37669b04ea4a745ebb15015dbf1d0e59, type: 3}
  m_Name: 
  m_EditorClassIdentifier: 
  speed: 0.01
  initialPosition: {x: 2.1, y: -0.5, z: 2.1}
  finalPosition: {x: 2.1, y: -0.1, z: 2.1}
  duration: 9
  delay: 4
  level: 0
  minRange: 0.05
  maxRange: 0.95
  acceleration: 0.063
  rotationSpeed: 0
  alphaDuration: 2
  finalRefractionBlur: 0.75
--- !u!114 &1943623907
MonoBehaviour:
  m_ObjectHideFlags: 0
  m_CorrespondingSourceObject: {fileID: 11431786, guid: de6ff48ddabd14394af4c33b4de195f9,
    type: 3}
  m_PrefabInstance: {fileID: 0}
  m_PrefabAsset: {fileID: 0}
  m_GameObject: {fileID: 1943623905}
  m_Enabled: 1
  m_EditorHideFlags: 0
  m_Script: {fileID: 11500000, guid: 4f61dcfd7077c46509132f92d2df65fe, type: 3}
  m_Name: 
  m_EditorClassIdentifier: 
  _topology: 2
  _detail: 10
  _level: 0.5
  _liquidColor1: {r: 0.66100776, g: 0.5808824, b: 1, a: 0.523}
  _liquidScale1: 1
  _liquidColor2: {r: 0.31967545, g: 0.42545044, b: 0.6793104, a: 0.3}
  _liquidScale2: 5
  _alpha: 1
  _emissionColor: {r: 0, g: 0, b: 0, a: 1}
  _emissionBrightness: 0
  _ditherShadows: 1
  _murkiness: 1
  _turbulence1: 0.5
  _turbulence2: 0.2
  _frecuency: 1
  _speed: 1
  _sparklingIntensity: 0.1
  _sparklingAmount: 0.354
  _deepObscurance: 0.3
  _foamColor: {r: 1, g: 1, b: 1, a: 0.65}
  _foamScale: 0.2
  _foamThickness: 0.04
  _foamDensity: 0.91
  _foamWeight: 65.1
  _foamTurbulence: 1
  _foamVisibleFromBottom: 1
  _smokeEnabled: 1
  _smokeColor: {r: 0.7, g: 0.7, b: 0.7, a: 0.25}
  _smokeScale: 0.25
  _smokeBaseObscurance: 2
  _smokeSpeed: 5
  _fixMesh: 0
  originalMesh: {fileID: 0}
  originalPivotOffset: {x: 0, y: 0, z: 0}
  _pivotOffset: {x: 0, y: 0, z: 0}
  _upperLimit: 1
  _lowerLimit: -1.5
  _subMeshIndex: 0
  _flaskTint: {r: 0, g: 0, b: 0, a: 1}
  _flaskThickness: 0.03
  _flaskGlossinessExternal: 0.92
  _flaskGlossinessInternal: 0.5
  _scatteringEnabled: 0
  _scatteringPower: 5
  _scatteringAmount: 0.3
  _refractionBlur: 1
  _blurIntensity: 0.75
  _liquidRaySteps: 10
  _foamRaySteps: 7
  _smokeRaySteps: 5
  _bumpMap: {fileID: 0}
  _bumpDistortionScale: 1
  _bumpDistortionOffset: {x: 0, y: 0}
  _distortionMap: {fileID: 0}
  _texture: {fileID: 0}
  _textureScale: {x: 1, y: 1}
  _textureOffset: {x: 0, y: 0}
  _distortionAmount: 1
  _depthAware: 0
  _depthAwareOffset: 0
  _depthAwareCustomPass: 0
  _doubleSidedBias: 0.05
  _rotationLevelBias: 0
  _ignoreGravity: 0
  _reactToForces: 0
  _textureAlpha: 1
  _extentsScale: {x: 1, y: 1, z: 1}
  _noiseVariation: 1
  _allowViewFromInside: 0
  _debugSpillPoint: 0
  _renderQueue: 3001
  _reflectionTexture: {fileID: 0}
  _physicsMass: 1
  _physicsAngularDamp: 0.02
  liqMat: {fileID: 1668049634}
--- !u!23 &1943623908
MeshRenderer:
  m_ObjectHideFlags: 0
  m_CorrespondingSourceObject: {fileID: 2358772, guid: de6ff48ddabd14394af4c33b4de195f9,
    type: 3}
  m_PrefabInstance: {fileID: 0}
  m_PrefabAsset: {fileID: 0}
  m_GameObject: {fileID: 1943623905}
  m_Enabled: 1
  m_CastShadows: 1
  m_ReceiveShadows: 1
  m_DynamicOccludee: 1
  m_MotionVectors: 1
  m_LightProbeUsage: 1
  m_ReflectionProbeUsage: 1
  m_RenderingLayerMask: 1
  m_RendererPriority: 0
  m_Materials:
  - {fileID: 1668049634}
  m_StaticBatchInfo:
    firstSubMesh: 0
    subMeshCount: 0
  m_StaticBatchRoot: {fileID: 0}
  m_ProbeAnchor: {fileID: 0}
  m_LightProbeVolumeOverride: {fileID: 0}
  m_ScaleInLightmap: 1
  m_PreserveUVs: 1
  m_IgnoreNormalsForChartDetection: 0
  m_ImportantGI: 0
  m_StitchLightmapSeams: 0
  m_SelectedEditorRenderState: 3
  m_MinimumChartSize: 4
  m_AutoUVMaxDistance: 0.5
  m_AutoUVMaxAngle: 89
  m_LightmapParameters: {fileID: 0}
  m_SortingLayerID: 0
  m_SortingLayer: 0
  m_SortingOrder: 0
--- !u!33 &1943623909
MeshFilter:
  m_ObjectHideFlags: 0
  m_CorrespondingSourceObject: {fileID: 3395876, guid: de6ff48ddabd14394af4c33b4de195f9,
    type: 3}
  m_PrefabInstance: {fileID: 0}
  m_PrefabAsset: {fileID: 0}
  m_GameObject: {fileID: 1943623905}
  m_Mesh: {fileID: 10202, guid: 0000000000000000e000000000000000, type: 0}
--- !u!4 &1943623910
Transform:
  m_ObjectHideFlags: 0
  m_CorrespondingSourceObject: {fileID: 408016, guid: de6ff48ddabd14394af4c33b4de195f9,
    type: 3}
  m_PrefabInstance: {fileID: 0}
  m_PrefabAsset: {fileID: 0}
  m_GameObject: {fileID: 1943623905}
  m_LocalRotation: {x: 0, y: 0, z: 0, w: 1}
  m_LocalPosition: {x: 2.1, y: -0.5, z: 2.1}
  m_LocalScale: {x: 0.245, y: 0.245, z: 0.245}
  m_Children:
  - {fileID: 679193201}
  m_Father: {fileID: 0}
  m_RootOrder: 1
  m_LocalEulerAnglesHint: {x: 0, y: 0, z: 0}
--- !u!1 &1971356133
GameObject:
  m_ObjectHideFlags: 0
  m_CorrespondingSourceObject: {fileID: 0}
  m_PrefabInstance: {fileID: 0}
  m_PrefabAsset: {fileID: 0}
  serializedVersion: 6
  m_Component:
  - component: {fileID: 1971356134}
  - component: {fileID: 1971356137}
  - component: {fileID: 1971356135}
  m_Layer: 0
  m_Name: Base
  m_TagString: Untagged
  m_Icon: {fileID: 0}
  m_NavMeshLayer: 0
  m_StaticEditorFlags: 4294967295
  m_IsActive: 1
--- !u!4 &1971356134
Transform:
  m_ObjectHideFlags: 0
  m_CorrespondingSourceObject: {fileID: 0}
  m_PrefabInstance: {fileID: 0}
  m_PrefabAsset: {fileID: 0}
  m_GameObject: {fileID: 1971356133}
  m_LocalRotation: {x: 0, y: 0, z: 0, w: 1}
  m_LocalPosition: {x: 0, y: -1.4, z: 0}
  m_LocalScale: {x: 5, y: 0.1, z: 5}
  m_Children: []
  m_Father: {fileID: 774311606}
  m_RootOrder: 1
  m_LocalEulerAnglesHint: {x: 0, y: 0, z: 0}
--- !u!23 &1971356135
MeshRenderer:
  m_ObjectHideFlags: 0
  m_CorrespondingSourceObject: {fileID: 0}
  m_PrefabInstance: {fileID: 0}
  m_PrefabAsset: {fileID: 0}
  m_GameObject: {fileID: 1971356133}
  m_Enabled: 1
  m_CastShadows: 1
  m_ReceiveShadows: 1
  m_DynamicOccludee: 1
  m_MotionVectors: 1
  m_LightProbeUsage: 1
  m_ReflectionProbeUsage: 1
  m_RenderingLayerMask: 1
  m_RendererPriority: 0
  m_Materials:
  - {fileID: 2100000, guid: 5bd1daf9bf3e64109a30098f8697f2e7, type: 2}
  m_StaticBatchInfo:
    firstSubMesh: 0
    subMeshCount: 0
  m_StaticBatchRoot: {fileID: 0}
  m_ProbeAnchor: {fileID: 0}
  m_LightProbeVolumeOverride: {fileID: 0}
  m_ScaleInLightmap: 1
  m_PreserveUVs: 1
  m_IgnoreNormalsForChartDetection: 0
  m_ImportantGI: 0
  m_StitchLightmapSeams: 0
  m_SelectedEditorRenderState: 3
  m_MinimumChartSize: 4
  m_AutoUVMaxDistance: 0.5
  m_AutoUVMaxAngle: 89
  m_LightmapParameters: {fileID: 0}
  m_SortingLayerID: 0
  m_SortingLayer: 0
  m_SortingOrder: 0
--- !u!33 &1971356137
MeshFilter:
  m_ObjectHideFlags: 0
  m_CorrespondingSourceObject: {fileID: 0}
  m_PrefabInstance: {fileID: 0}
  m_PrefabAsset: {fileID: 0}
  m_GameObject: {fileID: 1971356133}
  m_Mesh: {fileID: 10202, guid: 0000000000000000e000000000000000, type: 0}
--- !u!1 &2071260207
GameObject:
  m_ObjectHideFlags: 0
  m_CorrespondingSourceObject: {fileID: 0}
  m_PrefabInstance: {fileID: 0}
  m_PrefabAsset: {fileID: 0}
  serializedVersion: 6
  m_Component:
  - component: {fileID: 2071260210}
  - component: {fileID: 2071260209}
  - component: {fileID: 2071260208}
  - component: {fileID: 2071260211}
  - component: {fileID: 2071260212}
  m_Layer: 0
  m_Name: Fish
  m_TagString: Untagged
  m_Icon: {fileID: 0}
  m_NavMeshLayer: 0
  m_StaticEditorFlags: 0
  m_IsActive: 1
--- !u!23 &2071260208
MeshRenderer:
  m_ObjectHideFlags: 0
  m_CorrespondingSourceObject: {fileID: 0}
  m_PrefabInstance: {fileID: 0}
  m_PrefabAsset: {fileID: 0}
  m_GameObject: {fileID: 2071260207}
  m_Enabled: 1
  m_CastShadows: 1
  m_ReceiveShadows: 1
  m_DynamicOccludee: 1
  m_MotionVectors: 1
  m_LightProbeUsage: 1
  m_ReflectionProbeUsage: 1
  m_RenderingLayerMask: 1
  m_RendererPriority: 0
  m_Materials:
  - {fileID: 2100000, guid: e3dc9d80802ac49c3b9992a26bdf7662, type: 2}
  m_StaticBatchInfo:
    firstSubMesh: 0
    subMeshCount: 0
  m_StaticBatchRoot: {fileID: 0}
  m_ProbeAnchor: {fileID: 0}
  m_LightProbeVolumeOverride: {fileID: 0}
  m_ScaleInLightmap: 1
  m_PreserveUVs: 1
  m_IgnoreNormalsForChartDetection: 0
  m_ImportantGI: 0
  m_StitchLightmapSeams: 0
  m_SelectedEditorRenderState: 3
  m_MinimumChartSize: 4
  m_AutoUVMaxDistance: 0.5
  m_AutoUVMaxAngle: 89
  m_LightmapParameters: {fileID: 0}
  m_SortingLayerID: 0
  m_SortingLayer: 0
  m_SortingOrder: 0
--- !u!33 &2071260209
MeshFilter:
  m_ObjectHideFlags: 0
  m_CorrespondingSourceObject: {fileID: 0}
  m_PrefabInstance: {fileID: 0}
  m_PrefabAsset: {fileID: 0}
  m_GameObject: {fileID: 2071260207}
  m_Mesh: {fileID: 10210, guid: 0000000000000000e000000000000000, type: 0}
--- !u!4 &2071260210
Transform:
  m_ObjectHideFlags: 0
  m_CorrespondingSourceObject: {fileID: 0}
  m_PrefabInstance: {fileID: 0}
  m_PrefabAsset: {fileID: 0}
  m_GameObject: {fileID: 2071260207}
  m_LocalRotation: {x: 0, y: 0, z: 0, w: 1}
  m_LocalPosition: {x: 0, y: 0, z: 0}
  m_LocalScale: {x: 0.5, y: 0.5, z: 0.5}
  m_Children: []
  m_Father: {fileID: 1455510935}
  m_RootOrder: 0
  m_LocalEulerAnglesHint: {x: 0, y: 0, z: 0}
--- !u!114 &2071260211
MonoBehaviour:
  m_ObjectHideFlags: 0
  m_CorrespondingSourceObject: {fileID: 0}
  m_PrefabInstance: {fileID: 0}
  m_PrefabAsset: {fileID: 0}
  m_GameObject: {fileID: 2071260207}
  m_Enabled: 1
  m_EditorHideFlags: 0
  m_Script: {fileID: 11500000, guid: 08ef10f7a034e481390d69204cac9650, type: 3}
  m_Name: 
  m_EditorClassIdentifier: 
--- !u!114 &2071260212
MonoBehaviour:
  m_ObjectHideFlags: 0
  m_CorrespondingSourceObject: {fileID: 0}
  m_PrefabInstance: {fileID: 0}
  m_PrefabAsset: {fileID: 0}
  m_GameObject: {fileID: 2071260207}
  m_Enabled: 1
  m_EditorHideFlags: 0
  m_Script: {fileID: 11500000, guid: d1f28e61a8b4548a9b0d429d08ec43a2, type: 3}
  m_Name: 
  m_EditorClassIdentifier: 
  acceleration: 0.0122
