%YAML 1.1
%TAG !u! tag:unity3d.com,2011:
--- !u!1 &4862273642297837327
GameObject:
  m_ObjectHideFlags: 0
  m_CorrespondingSourceObject: {fileID: 0}
  m_PrefabInstance: {fileID: 0}
  m_PrefabAsset: {fileID: 0}
  serializedVersion: 6
  m_Component:
  - component: {fileID: 4862273642298191777}
  - component: {fileID: 4862273642296876517}
  - component: {fileID: 4862273642295804301}
  - component: {fileID: 4862273642287078023}
  m_Layer: 0
  m_Name: CylinderFlask
  m_TagString: Untagged
  m_Icon: {fileID: 0}
  m_NavMeshLayer: 0
  m_StaticEditorFlags: 0
  m_IsActive: 0
--- !u!4 &4862273642298191777
Transform:
  m_ObjectHideFlags: 0
  m_CorrespondingSourceObject: {fileID: 0}
  m_PrefabInstance: {fileID: 0}
  m_PrefabAsset: {fileID: 0}
  m_GameObject: {fileID: 4862273642297837327}
  m_LocalRotation: {x: -0.11356712, y: 0.13858312, z: -0.039973874, w: 0.9830053}
  m_LocalPosition: {x: -0.004, y: -1.01, z: -1.131}
  m_LocalScale: {x: 2.66, y: 1, z: 2.66}
  m_Children: []
  m_Father: {fileID: 0}
  m_RootOrder: 0
  m_LocalEulerAnglesHint: {x: -12.251, y: 16.744001, z: -6.4670005}
--- !u!33 &4862273642296876517
MeshFilter:
  m_ObjectHideFlags: 0
  m_CorrespondingSourceObject: {fileID: 0}
  m_PrefabInstance: {fileID: 0}
  m_PrefabAsset: {fileID: 0}
  m_GameObject: {fileID: 4862273642297837327}
  m_Mesh: {fileID: 10206, guid: 0000000000000000e000000000000000, type: 0}
--- !u!23 &4862273642295804301
MeshRenderer:
  m_ObjectHideFlags: 0
  m_CorrespondingSourceObject: {fileID: 0}
  m_PrefabInstance: {fileID: 0}
  m_PrefabAsset: {fileID: 0}
  m_GameObject: {fileID: 4862273642297837327}
  m_Enabled: 1
  m_CastShadows: 0
  m_ReceiveShadows: 1
  m_DynamicOccludee: 1
  m_MotionVectors: 1
  m_LightProbeUsage: 1
  m_ReflectionProbeUsage: 1
  m_RenderingLayerMask: 1
  m_RendererPriority: 0
  m_Materials:
  - {fileID: 0}
  m_StaticBatchInfo:
    firstSubMesh: 0
    subMeshCount: 0
  m_StaticBatchRoot: {fileID: 0}
  m_ProbeAnchor: {fileID: 0}
  m_LightProbeVolumeOverride: {fileID: 0}
  m_ScaleInLightmap: 1
  m_PreserveUVs: 1
  m_IgnoreNormalsForChartDetection: 0
  m_ImportantGI: 0
  m_StitchLightmapSeams: 0
  m_SelectedEditorRenderState: 3
  m_MinimumChartSize: 4
  m_AutoUVMaxDistance: 0.5
  m_AutoUVMaxAngle: 89
  m_LightmapParameters: {fileID: 0}
  m_SortingLayerID: 0
  m_SortingLayer: 0
  m_SortingOrder: 0
--- !u!114 &4862273642287078023
MonoBehaviour:
  m_ObjectHideFlags: 0
  m_CorrespondingSourceObject: {fileID: 0}
  m_PrefabInstance: {fileID: 0}
  m_PrefabAsset: {fileID: 0}
  m_GameObject: {fileID: 4862273642297837327}
  m_Enabled: 1
  m_EditorHideFlags: 0
  m_Script: {fileID: 11500000, guid: 4f61dcfd7077c46509132f92d2df65fe, type: 3}
  m_Name: 
  m_EditorClassIdentifier: 
  _topology: 1
  _detail: 11
  _level: 0.031
  _liquidColor1: {r: 0.26666668, g: 0.26666668, b: 0.67058825, a: 0.43529412}
  _liquidScale1: 0.96
  _liquidColor2: {r: 0.3764706, g: 0.65882355, b: 0.4745098, a: 0.13725491}
  _liquidScale2: 3.899
  _alpha: 1
  _emissionColor: {r: 0.2, g: 0.35686275, b: 0.73333335, a: 1}
  _emissionBrightness: 0.88
  _ditherShadows: 0
  _murkiness: 0.173
  _turbulence1: 0.064
  _turbulence2: 0.033
  _frecuency: 1
  _speed: 0.088
  _sparklingIntensity: 0.1
  _sparklingAmount: 0.1
  _deepObscurance: 0
  _foamColor: {r: 0.5882353, g: 0.73333335, b: 0.8, a: 0.34117648}
  _foamScale: 0.029
  _foamThickness: 0.01
  _foamDensity: -0.002
  _foamWeight: 65
  _foamTurbulence: 0.578
  _foamVisibleFromBottom: 0
  _smokeEnabled: 1
  _smokeColor: {r: 0.7, g: 0.7, b: 0.7, a: 0.25}
  _smokeScale: 0.25
  _smokeBaseObscurance: 2
  _smokeSpeed: 5
  _fixMesh: 0
  originalMesh: {fileID: 0}
  originalPivotOffset: {x: -0.010807514, y: 0, z: -0.0035114288}
  _pivotOffset: {x: 0, y: 0, z: 0}
  _upperLimit: 1.5
  _lowerLimit: -1.5
  _subMeshIndex: 0
  _flaskTint: {r: 0, g: 0, b: 0, a: 1}
  _flaskThickness: 0.03
  _flaskGlossinessExternal: 0.767
  _flaskGlossinessInternal: 0.5
  _scatteringEnabled: 0
  _scatteringPower: 5
  _scatteringAmount: 0.3
  _refractionBlur: 1
  _blurIntensity: 0.75
  _liquidRaySteps: 10
  _foamRaySteps: 7
  _smokeRaySteps: 5
  _bumpMap: {fileID: 0}
  _bumpDistortionScale: 1
  _bumpDistortionOffset: {x: 0, y: 0}
  _distortionMap: {fileID: 0}
  _texture: {fileID: 0}
  _textureScale: {x: 1, y: 1}
  _textureOffset: {x: 0, y: 0}
  _distortionAmount: 1
  _depthAware: 1
  _depthAwareOffset: 10
  _depthAwareCustomPass: 0
  _doubleSidedBias: 0.05
  _rotationLevelBias: 0
  _ignoreGravity: 0
  _reactToForces: 0
  _textureAlpha: 1
  _extentsScale: {x: 1, y: 1, z: 1}
  _noiseVariation: 1
  _allowViewFromInside: 0
  _debugSpillPoint: 0
  _renderQueue: 2999
  _reflectionTexture: {fileID: 0}
  _physicsMass: 1
  _physicsAngularDamp: 0.02
  liqMat: {fileID: 0}
