%YAML 1.1
%TAG !u! tag:unity3d.com,2011:
--- !u!29 &1
OcclusionCullingSettings:
  m_ObjectHideFlags: 0
  serializedVersion: 2
  m_OcclusionBakeSettings:
    smallestOccluder: 5
    smallestHole: 0.25
    backfaceThreshold: 100
  m_SceneGUID: 00000000000000000000000000000000
  m_OcclusionCullingData: {fileID: 0}
--- !u!104 &2
RenderSettings:
  m_ObjectHideFlags: 0
  serializedVersion: 9
  m_Fog: 0
  m_FogColor: {r: 0.5, g: 0.5, b: 0.5, a: 1}
  m_FogMode: 3
  m_FogDensity: 0.01
  m_LinearFogStart: 0
  m_LinearFogEnd: 300
  m_AmbientSkyColor: {r: 0.212, g: 0.227, b: 0.259, a: 1}
  m_AmbientEquatorColor: {r: 0.114, g: 0.125, b: 0.133, a: 1}
  m_AmbientGroundColor: {r: 0.047, g: 0.043, b: 0.035, a: 1}
  m_AmbientIntensity: 1
  m_AmbientMode: 0
  m_SubtractiveShadowColor: {r: 0.42, g: 0.478, b: 0.627, a: 1}
  m_SkyboxMaterial: {fileID: 10304, guid: 0000000000000000f000000000000000, type: 0}
  m_HaloStrength: 0.5
  m_FlareStrength: 1
  m_FlareFadeSpeed: 3
  m_HaloTexture: {fileID: 0}
  m_SpotCookie: {fileID: 10001, guid: 0000000000000000e000000000000000, type: 0}
  m_DefaultReflectionMode: 0
  m_DefaultReflectionResolution: 128
  m_ReflectionBounces: 1
  m_ReflectionIntensity: 1
  m_CustomReflection: {fileID: 0}
  m_Sun: {fileID: 0}
  m_IndirectSpecularColor: {r: 0, g: 0, b: 0, a: 1}
  m_UseRadianceAmbientProbe: 0
--- !u!157 &4
LightmapSettings:
  m_ObjectHideFlags: 0
  serializedVersion: 11
  m_GIWorkflowMode: 0
  m_GISettings:
    serializedVersion: 2
    m_BounceScale: 1
    m_IndirectOutputScale: 1
    m_AlbedoBoost: 1
    m_EnvironmentLightingMode: 0
    m_EnableBakedLightmaps: 1
    m_EnableRealtimeLightmaps: 1
  m_LightmapEditorSettings:
    serializedVersion: 10
    m_Resolution: 2
    m_BakeResolution: 40
    m_AtlasSize: 1024
    m_AO: 0
    m_AOMaxDistance: 1
    m_CompAOExponent: 0
    m_CompAOExponentDirect: 0
    m_Padding: 2
    m_LightmapParameters: {fileID: 0}
    m_LightmapsBakeMode: 1
    m_TextureCompression: 1
    m_FinalGather: 0
    m_FinalGatherFiltering: 1
    m_FinalGatherRayCount: 1024
    m_ReflectionCompression: 2
    m_MixedBakeMode: 1
    m_BakeBackend: 0
    m_PVRSampling: 1
    m_PVRDirectSampleCount: 32
    m_PVRSampleCount: 500
    m_PVRBounces: 2
    m_PVRFilterTypeDirect: 0
    m_PVRFilterTypeIndirect: 0
    m_PVRFilterTypeAO: 0
    m_PVRFilteringMode: 1
    m_PVRCulling: 1
    m_PVRFilteringGaussRadiusDirect: 1
    m_PVRFilteringGaussRadiusIndirect: 5
    m_PVRFilteringGaussRadiusAO: 2
    m_PVRFilteringAtrousPositionSigmaDirect: 0.5
    m_PVRFilteringAtrousPositionSigmaIndirect: 2
    m_PVRFilteringAtrousPositionSigmaAO: 1
    m_ShowResolutionOverlay: 1
  m_LightingDataAsset: {fileID: 0}
  m_UseShadowmask: 0
--- !u!196 &5
NavMeshSettings:
  serializedVersion: 2
  m_ObjectHideFlags: 0
  m_BuildSettings:
    serializedVersion: 2
    agentTypeID: 0
    agentRadius: 0.5
    agentHeight: 2
    agentSlope: 45
    agentClimb: 0.4
    ledgeDropHeight: 0
    maxJumpAcrossDistance: 0
    minRegionArea: 2
    manualCellSize: 0
    cellSize: 0.16666667
    manualTileSize: 0
    tileSize: 256
    accuratePlacement: 0
    debug:
      m_Flags: 0
  m_NavMeshData: {fileID: 0}
--- !u!21 &16536117
Material:
  serializedVersion: 6
  m_ObjectHideFlags: 0
  m_CorrespondingSourceObject: {fileID: 0}
  m_PrefabInstance: {fileID: 0}
  m_PrefabAsset: {fileID: 0}
  m_Name: LiquidVolumeDefault(Clone)
  m_Shader: {fileID: 4800000, guid: be9d7fbb2c1ef43308f35fb0a12bbb88, type: 3}
  m_ShaderKeywords: LIQUID_VOLUME_CYLINDER
  m_LightmapFlags: 5
  m_EnableInstancingVariants: 0
  m_DoubleSidedGI: 0
  m_CustomRenderQueue: 3001
  stringTagMap: {}
  disabledShaderPasses: []
  m_SavedProperties:
    serializedVersion: 3
    m_TexEnvs:
    - _MainTex:
        m_Texture: {fileID: 0}
        m_Scale: {x: 1, y: 1}
        m_Offset: {x: 0, y: 0}
    - _NoiseTex:
        m_Texture: {fileID: 11700000, guid: cf5740ccd8e2d4200aaa67e31ff22ed0, type: 2}
        m_Scale: {x: 1, y: 1}
        m_Offset: {x: 0, y: 0}
    - _NoiseTex2D:
        m_Texture: {fileID: 2800000, guid: 2e25f51e1f31e4da8bdac5d08b0f578f, type: 3}
        m_Scale: {x: 1, y: 1}
        m_Offset: {x: 0, y: 0}
    m_Floats:
    - _Alpha: 1
    - _AlphaCombined: 1
    - _BasePos: -1
    - _CullMode: 2
    - _DeepAtten: 2
    - _DoubleSidedBias: 0.05
    - _FlaskBlurIntensity: 0.75
    - _FlaskThickness: 0.05
    - _FoamBottom: 1
    - _FoamDensity: 0.5
    - _FoamMaxPos: 0.92673403
    - _FoamRaySteps: 7
    - _FoamTurbulence: 1
    - _FoamWeight: 10
    - _Glossiness: 0.767
    - _GlossinessInt: 0.5
    - _Level: 1
    - _LevelPos: 0.89938
    - _LiquidRaySteps: 10
    - _LowerLimit: -1
    - _Metallic: 0
    - _Muddy: 1
    - _Radius: 0.5
    - _SmokeAtten: 2
    - _SmokeRaySteps: 5
    - _SmokeSpeed: 5
    - _Sparkling: 1
    - _SparklingIntensity: 25
    - _SparklingThreshold: 0.8
    - _Topology: 0
    - _Turbulence: 1
    - _Turbulence2: 1
    - _TurbulenceSpeed: 1
    - _UpperLimit: 1
    - _ZTestMode: 4
    m_Colors:
    - _Bounds: {r: 1, g: 1, b: 1, a: 1}
    - _Center: {r: 1.09, g: 0.75, b: 2.33, a: 0}
    - _Color: {r: 1, g: 1, b: 1, a: 1}
    - _Color1: {r: 0, g: 0.33448273, b: 0, a: 0.1}
    - _Color2: {r: 1, g: 0, b: 0, a: 0.3}
    - _EmissionColor: {r: 0, g: 0, b: 0, a: 0}
    - _FlaskColor: {r: 0, g: 0, b: 0, a: 1}
    - _FlaskThickness: {r: 0.97, g: 0.97, b: 0.97, a: 0}
    - _FoamColor: {r: 1, g: 0.9100346, b: 0.8088235, a: 0.65}
    - _GlossinessInt: {r: 49, g: 512, b: 1, a: 0}
    - _Scale: {r: 0.2538071, g: 0.20304568, b: 1.0152284, a: 4.9238577}
    - _Size: {r: 2.4494898, g: 2, b: 1.0000002, a: 0.48500007}
    - _SmokeColor: {r: 0.7, g: 0.7, b: 0.7, a: 0.25}
    - _Turbulence: {r: 0.5, g: 0.2, b: 12.566371, a: 0}
    - _ViewDir: {r: 0, g: 0, b: 1, a: 1}
--- !u!21 &111272790
Material:
  serializedVersion: 6
  m_ObjectHideFlags: 0
  m_CorrespondingSourceObject: {fileID: 0}
  m_PrefabInstance: {fileID: 0}
  m_PrefabAsset: {fileID: 0}
  m_Name: LiquidVolumeDefault(Clone)
  m_Shader: {fileID: 4800000, guid: be9d7fbb2c1ef43308f35fb0a12bbb88, type: 3}
  m_ShaderKeywords: LIQUID_VOLUME_DEPTH_AWARE LIQUID_VOLUME_SPHERE
  m_LightmapFlags: 5
  m_EnableInstancingVariants: 0
  m_DoubleSidedGI: 0
  m_CustomRenderQueue: 3001
  stringTagMap: {}
  disabledShaderPasses: []
  m_SavedProperties:
    serializedVersion: 3
    m_TexEnvs:
    - _MainTex:
        m_Texture: {fileID: 0}
        m_Scale: {x: 1, y: 1}
        m_Offset: {x: 0, y: 0}
    - _NoiseTex:
        m_Texture: {fileID: 11700000, guid: 41974beaaddc547889b39d0022cb1d07, type: 2}
        m_Scale: {x: 1, y: 1}
        m_Offset: {x: 0, y: 0}
    - _NoiseTex2D:
        m_Texture: {fileID: 2800000, guid: 2e25f51e1f31e4da8bdac5d08b0f578f, type: 3}
        m_Scale: {x: 1, y: 1}
        m_Offset: {x: 0, y: 0}
    m_Floats:
    - _Alpha: 1
    - _AlphaCombined: 1
    - _BasePos: -1
    - _CullMode: 2
    - _DeepAtten: 2
    - _DoubleSidedBias: 0.05
    - _FlaskBlurIntensity: 0.75
    - _FlaskThickness: 0.05
    - _FoamBottom: 1
    - _FoamDensity: 0.5
    - _FoamMaxPos: 0.1733
    - _FoamRaySteps: 7
    - _FoamTurbulence: 1
    - _FoamWeight: 10
    - _Glossiness: 0.767
    - _GlossinessInt: 0.5
    - _Level: 1
    - _LevelPos: 0.16
    - _LiquidRaySteps: 10
    - _LowerLimit: -0.5
    - _Metallic: 0
    - _Muddy: 1
    - _Radius: 0.5
    - _SmokeAtten: 2
    - _SmokeRaySteps: 5
    - _SmokeSpeed: 5
    - _Sparkling: 1
    - _SparklingIntensity: 25
    - _SparklingThreshold: 0.8
    - _Topology: 0
    - _Turbulence: 1
    - _Turbulence2: 1
    - _TurbulenceSpeed: 1
    - _UpperLimit: 0.5
    - _ZTestMode: 4
    m_Colors:
    - _Bounds: {r: 1, g: 1, b: 1, a: 1}
    - _Center: {r: -0.54, g: 0.16, b: 2, a: 0}
    - _Color: {r: 1, g: 1, b: 1, a: 1}
    - _Color1: {r: 0, g: 1, b: 0, a: 0.1}
    - _Color2: {r: 0.97740054, g: 0.9191176, b: 1, a: 0.3}
    - _EmissionColor: {r: 0, g: 0, b: 0, a: 0}
    - _FlaskColor: {r: 0, g: 0, b: 0, a: 1}
    - _FlaskThickness: {r: 0.95, g: 0.95, b: 0.95, a: 0}
    - _FoamColor: {r: 1, g: 1, b: 1, a: 0.65}
    - _GlossinessInt: {r: 49, g: 512, b: 1, a: 0}
    - _Scale: {r: 1.5037595, g: 1.2030076, b: 6.015038, a: 29.172934}
    - _Size: {r: 0.60621774, g: 0.35, b: 0.35, a: 0.16624999}
    - _SmokeColor: {r: 0.7, g: 0.7, b: 0.7, a: 0.25}
    - _Turbulence: {r: 0.5, g: 0.2, b: 12.566371, a: 0}
    - _ViewDir: {r: 0, g: 0, b: 1, a: 1}
--- !u!1 &132015444
GameObject:
  m_ObjectHideFlags: 0
  m_CorrespondingSourceObject: {fileID: 104468, guid: 8fb3550a3fd3348b786f5c6ea49318ce,
    type: 3}
  m_PrefabInstance: {fileID: 0}
  m_PrefabAsset: {fileID: 0}
  serializedVersion: 6
  m_Component:
  - component: {fileID: 132015448}
  - component: {fileID: 132015447}
  - component: {fileID: 132015446}
  - component: {fileID: 132015445}
  m_Layer: 0
  m_Name: SphereFlask
  m_TagString: Untagged
  m_Icon: {fileID: 0}
  m_NavMeshLayer: 0
  m_StaticEditorFlags: 0
  m_IsActive: 1
--- !u!114 &132015445
MonoBehaviour:
  m_ObjectHideFlags: 0
  m_CorrespondingSourceObject: {fileID: 11451546, guid: 8fb3550a3fd3348b786f5c6ea49318ce,
    type: 3}
  m_PrefabInstance: {fileID: 0}
  m_PrefabAsset: {fileID: 0}
  m_GameObject: {fileID: 132015444}
  m_Enabled: 1
  m_EditorHideFlags: 0
  m_Script: {fileID: 11500000, guid: 4f61dcfd7077c46509132f92d2df65fe, type: 3}
  m_Name: 
  m_EditorClassIdentifier: 
  _topology: 0
  _detail: 10
  _level: 0.5
  _liquidColor1: {r: 0, g: 1, b: 0, a: 0.1}
  _liquidScale1: 1
  _liquidColor2: {r: 0.97740054, g: 0.9191176, b: 1, a: 0.3}
  _liquidScale2: 4.85
  _alpha: 1
  _emissionColor: {r: 0, g: 0, b: 0, a: 1}
  _emissionBrightness: 0
  _ditherShadows: 1
  _murkiness: 1
  _turbulence1: 0.5
  _turbulence2: 0.2
  _frecuency: 1
  _speed: 1
  _sparklingIntensity: 0.1
  _sparklingAmount: 0.2
  _deepObscurance: 2
  _foamColor: {r: 1, g: 1, b: 1, a: 0.65}
  _foamScale: 0.2
  _foamThickness: 0.04
  _foamDensity: 0.5
  _foamWeight: 10
  _foamTurbulence: 1
  _foamVisibleFromBottom: 1
  _smokeEnabled: 1
  _smokeColor: {r: 0.7, g: 0.7, b: 0.7, a: 0.25}
  _smokeScale: 0.25
  _smokeBaseObscurance: 2
  _smokeSpeed: 5
  _fixMesh: 0
  originalMesh: {fileID: 0}
  originalPivotOffset: {x: 0, y: 0, z: 0}
  _pivotOffset: {x: 0, y: 0, z: 0}
  _upperLimit: 1
  _lowerLimit: -1
  _subMeshIndex: 0
  _flaskTint: {r: 0, g: 0, b: 0, a: 1}
  _flaskThickness: 0.05
  _flaskGlossinessExternal: 0.767
  _flaskGlossinessInternal: 0.5
  _scatteringEnabled: 1
  _scatteringPower: 9
  _scatteringAmount: 1
  _refractionBlur: 1
  _blurIntensity: 0.75
  _liquidRaySteps: 10
  _foamRaySteps: 7
  _smokeRaySteps: 5
  _bumpMap: {fileID: 0}
  _bumpDistortionScale: 1
  _bumpDistortionOffset: {x: 0, y: 0}
  _distortionMap: {fileID: 0}
  _texture: {fileID: 0}
  _textureScale: {x: 1, y: 1}
  _textureOffset: {x: 0, y: 0}
  _distortionAmount: 1
  _depthAware: 1
  _depthAwareOffset: 0
  _depthAwareCustomPass: 0
  _doubleSidedBias: 0.05
  _rotationLevelBias: 0
  _ignoreGravity: 0
  _reactToForces: 0
  _textureAlpha: 1
  _extentsScale: {x: 1, y: 1, z: 1}
  _noiseVariation: 1
  _allowViewFromInside: 0
  _debugSpillPoint: 0
  _renderQueue: 3001
  _reflectionTexture: {fileID: 0}
  _physicsMass: 1
  _physicsAngularDamp: 0.02
  liqMat: {fileID: 111272790}
--- !u!23 &132015446
MeshRenderer:
  m_ObjectHideFlags: 0
  m_CorrespondingSourceObject: {fileID: 2341052, guid: 8fb3550a3fd3348b786f5c6ea49318ce,
    type: 3}
  m_PrefabInstance: {fileID: 0}
  m_PrefabAsset: {fileID: 0}
  m_GameObject: {fileID: 132015444}
  m_Enabled: 1
  m_CastShadows: 1
  m_ReceiveShadows: 1
  m_DynamicOccludee: 1
  m_MotionVectors: 1
  m_LightProbeUsage: 1
  m_ReflectionProbeUsage: 1
  m_RenderingLayerMask: 1
  m_RendererPriority: 0
  m_Materials:
  - {fileID: 111272790}
  m_StaticBatchInfo:
    firstSubMesh: 0
    subMeshCount: 0
  m_StaticBatchRoot: {fileID: 0}
  m_ProbeAnchor: {fileID: 0}
  m_LightProbeVolumeOverride: {fileID: 0}
  m_ScaleInLightmap: 1
  m_PreserveUVs: 0
  m_IgnoreNormalsForChartDetection: 0
  m_ImportantGI: 0
  m_StitchLightmapSeams: 0
  m_SelectedEditorRenderState: 3
  m_MinimumChartSize: 4
  m_AutoUVMaxDistance: 0.5
  m_AutoUVMaxAngle: 89
  m_LightmapParameters: {fileID: 0}
  m_SortingLayerID: 0
  m_SortingLayer: 0
  m_SortingOrder: 0
--- !u!33 &132015447
MeshFilter:
  m_ObjectHideFlags: 0
  m_CorrespondingSourceObject: {fileID: 3310396, guid: 8fb3550a3fd3348b786f5c6ea49318ce,
    type: 3}
  m_PrefabInstance: {fileID: 0}
  m_PrefabAsset: {fileID: 0}
  m_GameObject: {fileID: 132015444}
  m_Mesh: {fileID: 4300000, guid: efe3af71140af4efea659e59b6b6f74b, type: 3}
--- !u!4 &132015448
Transform:
  m_ObjectHideFlags: 0
  m_CorrespondingSourceObject: {fileID: 421658, guid: 8fb3550a3fd3348b786f5c6ea49318ce,
    type: 3}
  m_PrefabInstance: {fileID: 0}
  m_PrefabAsset: {fileID: 0}
  m_GameObject: {fileID: 132015444}
  m_LocalRotation: {x: 0, y: 0, z: 0, w: 1}
  m_LocalPosition: {x: -0.54, y: 0.16, z: 2}
  m_LocalScale: {x: 0.35, y: 0.35, z: 0.35}
  m_Children: []
  m_Father: {fileID: 0}
  m_RootOrder: 5
  m_LocalEulerAnglesHint: {x: 0, y: 0, z: 0}
--- !u!1 &166879371
GameObject:
  m_ObjectHideFlags: 0
  m_CorrespondingSourceObject: {fileID: 0}
  m_PrefabInstance: {fileID: 0}
  m_PrefabAsset: {fileID: 0}
  serializedVersion: 6
  m_Component:
  - component: {fileID: 166879375}
  - component: {fileID: 166879374}
  - component: {fileID: 166879373}
  - component: {fileID: 166879372}
  m_Layer: 0
  m_Name: Plane
  m_TagString: Untagged
  m_Icon: {fileID: 0}
  m_NavMeshLayer: 0
  m_StaticEditorFlags: 0
  m_IsActive: 1
--- !u!23 &166879372
MeshRenderer:
  m_ObjectHideFlags: 0
  m_CorrespondingSourceObject: {fileID: 0}
  m_PrefabInstance: {fileID: 0}
  m_PrefabAsset: {fileID: 0}
  m_GameObject: {fileID: 166879371}
  m_Enabled: 1
  m_CastShadows: 1
  m_ReceiveShadows: 1
  m_DynamicOccludee: 1
  m_MotionVectors: 1
  m_LightProbeUsage: 1
  m_ReflectionProbeUsage: 1
  m_RenderingLayerMask: 1
  m_RendererPriority: 0
  m_Materials:
  - {fileID: 10303, guid: 0000000000000000f000000000000000, type: 0}
  m_StaticBatchInfo:
    firstSubMesh: 0
    subMeshCount: 0
  m_StaticBatchRoot: {fileID: 0}
  m_ProbeAnchor: {fileID: 0}
  m_LightProbeVolumeOverride: {fileID: 0}
  m_ScaleInLightmap: 1
  m_PreserveUVs: 1
  m_IgnoreNormalsForChartDetection: 0
  m_ImportantGI: 0
  m_StitchLightmapSeams: 0
  m_SelectedEditorRenderState: 3
  m_MinimumChartSize: 4
  m_AutoUVMaxDistance: 0.5
  m_AutoUVMaxAngle: 89
  m_LightmapParameters: {fileID: 0}
  m_SortingLayerID: 0
  m_SortingLayer: 0
  m_SortingOrder: 0
--- !u!64 &166879373
MeshCollider:
  m_ObjectHideFlags: 0
  m_CorrespondingSourceObject: {fileID: 0}
  m_PrefabInstance: {fileID: 0}
  m_PrefabAsset: {fileID: 0}
  m_GameObject: {fileID: 166879371}
  m_Material: {fileID: 0}
  m_IsTrigger: 0
  m_Enabled: 1
  serializedVersion: 3
  m_Convex: 0
  m_CookingOptions: 14
  m_Mesh: {fileID: 10209, guid: 0000000000000000e000000000000000, type: 0}
--- !u!33 &166879374
MeshFilter:
  m_ObjectHideFlags: 0
  m_CorrespondingSourceObject: {fileID: 0}
  m_PrefabInstance: {fileID: 0}
  m_PrefabAsset: {fileID: 0}
  m_GameObject: {fileID: 166879371}
  m_Mesh: {fileID: 10209, guid: 0000000000000000e000000000000000, type: 0}
--- !u!4 &166879375
Transform:
  m_ObjectHideFlags: 0
  m_CorrespondingSourceObject: {fileID: 0}
  m_PrefabInstance: {fileID: 0}
  m_PrefabAsset: {fileID: 0}
  m_GameObject: {fileID: 166879371}
  m_LocalRotation: {x: 0, y: 0, z: 0, w: 1}
  m_LocalPosition: {x: 0, y: 0, z: 0}
  m_LocalScale: {x: 10, y: 1, z: 10}
  m_Children: []
  m_Father: {fileID: 0}
  m_RootOrder: 4
  m_LocalEulerAnglesHint: {x: 0, y: 0, z: 0}
--- !u!1 &418039482
GameObject:
  m_ObjectHideFlags: 0
  m_CorrespondingSourceObject: {fileID: 116208, guid: de6ff48ddabd14394af4c33b4de195f9,
    type: 3}
  m_PrefabInstance: {fileID: 0}
  m_PrefabAsset: {fileID: 0}
  serializedVersion: 6
  m_Component:
  - component: {fileID: 418039486}
  - component: {fileID: 418039485}
  - component: {fileID: 418039484}
  - component: {fileID: 418039483}
  m_Layer: 0
  m_Name: CubeFlask
  m_TagString: Untagged
  m_Icon: {fileID: 0}
  m_NavMeshLayer: 0
  m_StaticEditorFlags: 0
  m_IsActive: 1
--- !u!114 &418039483
MonoBehaviour:
  m_ObjectHideFlags: 0
  m_CorrespondingSourceObject: {fileID: 11431786, guid: de6ff48ddabd14394af4c33b4de195f9,
    type: 3}
  m_PrefabInstance: {fileID: 0}
  m_PrefabAsset: {fileID: 0}
  m_GameObject: {fileID: 418039482}
  m_Enabled: 1
  m_EditorHideFlags: 0
  m_Script: {fileID: 11500000, guid: 4f61dcfd7077c46509132f92d2df65fe, type: 3}
  m_Name: 
  m_EditorClassIdentifier: 
  _topology: 2
  _detail: 10
  _level: 0.5
  _liquidColor1: {r: 0, g: 1, b: 0, a: 0.1}
  _liquidScale1: 1
  _liquidColor2: {r: 1, g: 0, b: 0, a: 0.3}
  _liquidScale2: 4.85
  _alpha: 1
  _emissionColor: {r: 0, g: 0, b: 0, a: 1}
  _emissionBrightness: 0
  _ditherShadows: 1
  _murkiness: 1
  _turbulence1: 0.5
  _turbulence2: 0.2
  _frecuency: 1
  _speed: 1
  _sparklingIntensity: 0.1
  _sparklingAmount: 0.2
  _deepObscurance: 2
  _foamColor: {r: 1, g: 1, b: 1, a: 0.65}
  _foamScale: 0.2
  _foamThickness: 0.04
  _foamDensity: 0.5
  _foamWeight: 10
  _foamTurbulence: 1
  _foamVisibleFromBottom: 1
  _smokeEnabled: 1
  _smokeColor: {r: 0.7, g: 0.7, b: 0.7, a: 0.25}
  _smokeScale: 0.25
  _smokeBaseObscurance: 2
  _smokeSpeed: 5
  _fixMesh: 0
  originalMesh: {fileID: 0}
  originalPivotOffset: {x: 0, y: 0, z: 0}
  _pivotOffset: {x: 0, y: 0, z: 0}
  _upperLimit: 1
  _lowerLimit: -1
  _subMeshIndex: 0
  _flaskTint: {r: 0, g: 0, b: 0, a: 1}
  _flaskThickness: 0.03
  _flaskGlossinessExternal: 0.767
  _flaskGlossinessInternal: 0.5
  _scatteringEnabled: 1
  _scatteringPower: 9
  _scatteringAmount: 1
  _refractionBlur: 1
  _blurIntensity: 0.75
  _liquidRaySteps: 10
  _foamRaySteps: 7
  _smokeRaySteps: 5
  _bumpMap: {fileID: 0}
  _bumpDistortionScale: 1
  _bumpDistortionOffset: {x: 0, y: 0}
  _distortionMap: {fileID: 0}
  _texture: {fileID: 0}
  _textureScale: {x: 1, y: 1}
  _textureOffset: {x: 0, y: 0}
  _distortionAmount: 1
  _depthAware: 0
  _depthAwareOffset: 0
  _depthAwareCustomPass: 0
  _doubleSidedBias: 0.05
  _rotationLevelBias: 0
  _ignoreGravity: 0
  _reactToForces: 0
  _textureAlpha: 1
  _extentsScale: {x: 1, y: 1, z: 1}
  _noiseVariation: 1
  _allowViewFromInside: 1
  _debugSpillPoint: 0
  _renderQueue: 3001
  _reflectionTexture: {fileID: 0}
  _physicsMass: 1
  _physicsAngularDamp: 0.02
  liqMat: {fileID: 434436887}
--- !u!23 &418039484
MeshRenderer:
  m_ObjectHideFlags: 0
  m_CorrespondingSourceObject: {fileID: 2358772, guid: de6ff48ddabd14394af4c33b4de195f9,
    type: 3}
  m_PrefabInstance: {fileID: 0}
  m_PrefabAsset: {fileID: 0}
  m_GameObject: {fileID: 418039482}
  m_Enabled: 1
  m_CastShadows: 1
  m_ReceiveShadows: 1
  m_DynamicOccludee: 1
  m_MotionVectors: 1
  m_LightProbeUsage: 1
  m_ReflectionProbeUsage: 1
  m_RenderingLayerMask: 1
  m_RendererPriority: 0
  m_Materials:
  - {fileID: 434436887}
  m_StaticBatchInfo:
    firstSubMesh: 0
    subMeshCount: 0
  m_StaticBatchRoot: {fileID: 0}
  m_ProbeAnchor: {fileID: 0}
  m_LightProbeVolumeOverride: {fileID: 0}
  m_ScaleInLightmap: 1
  m_PreserveUVs: 1
  m_IgnoreNormalsForChartDetection: 0
  m_ImportantGI: 0
  m_StitchLightmapSeams: 0
  m_SelectedEditorRenderState: 3
  m_MinimumChartSize: 4
  m_AutoUVMaxDistance: 0.5
  m_AutoUVMaxAngle: 89
  m_LightmapParameters: {fileID: 0}
  m_SortingLayerID: 0
  m_SortingLayer: 0
  m_SortingOrder: 0
--- !u!33 &418039485
MeshFilter:
  m_ObjectHideFlags: 0
  m_CorrespondingSourceObject: {fileID: 3395876, guid: de6ff48ddabd14394af4c33b4de195f9,
    type: 3}
  m_PrefabInstance: {fileID: 0}
  m_PrefabAsset: {fileID: 0}
  m_GameObject: {fileID: 418039482}
  m_Mesh: {fileID: 10202, guid: 0000000000000000e000000000000000, type: 0}
--- !u!4 &418039486
Transform:
  m_ObjectHideFlags: 0
  m_CorrespondingSourceObject: {fileID: 408016, guid: de6ff48ddabd14394af4c33b4de195f9,
    type: 3}
  m_PrefabInstance: {fileID: 0}
  m_PrefabAsset: {fileID: 0}
  m_GameObject: {fileID: 418039482}
  m_LocalRotation: {x: 0, y: 0, z: 0, w: 1}
  m_LocalPosition: {x: -0.4, y: 0.47, z: 2.93}
  m_LocalScale: {x: 1, y: 1, z: 1}
  m_Children: []
  m_Father: {fileID: 0}
  m_RootOrder: 6
  m_LocalEulerAnglesHint: {x: 0, y: 0, z: 0}
--- !u!21 &434436887
Material:
  serializedVersion: 6
  m_ObjectHideFlags: 0
  m_CorrespondingSourceObject: {fileID: 0}
  m_PrefabInstance: {fileID: 0}
  m_PrefabAsset: {fileID: 0}
  m_Name: LiquidVolumeDefault(Clone)
  m_Shader: {fileID: 4800000, guid: be9d7fbb2c1ef43308f35fb0a12bbb88, type: 3}
  m_ShaderKeywords: LIQUID_VOLUME_CUBE
  m_LightmapFlags: 5
  m_EnableInstancingVariants: 0
  m_DoubleSidedGI: 0
  m_CustomRenderQueue: 3001
  stringTagMap: {}
  disabledShaderPasses: []
  m_SavedProperties:
    serializedVersion: 3
    m_TexEnvs:
    - _MainTex:
        m_Texture: {fileID: 0}
        m_Scale: {x: 1, y: 1}
        m_Offset: {x: 0, y: 0}
    - _NoiseTex:
        m_Texture: {fileID: 11700000, guid: 41974beaaddc547889b39d0022cb1d07, type: 2}
        m_Scale: {x: 1, y: 1}
        m_Offset: {x: 0, y: 0}
    - _NoiseTex2D:
        m_Texture: {fileID: 2800000, guid: 2e25f51e1f31e4da8bdac5d08b0f578f, type: 3}
        m_Scale: {x: 1, y: 1}
        m_Offset: {x: 0, y: 0}
    m_Floats:
    - _Alpha: 1
    - _AlphaCombined: 1
    - _BasePos: -1
    - _CullMode: 2
    - _DeepAtten: 2
    - _DoubleSidedBias: 0.05
    - _FlaskBlurIntensity: 0.75
    - _FlaskThickness: 0.05
    - _FoamBottom: 1
    - _FoamDensity: 0.5
    - _FoamMaxPos: 0.50879997
    - _FoamRaySteps: 7
    - _FoamTurbulence: 1
    - _FoamWeight: 10
    - _Glossiness: 0.767
    - _GlossinessInt: 0.5
    - _Level: 1
    - _LevelPos: 0.47
    - _LiquidRaySteps: 10
    - _LowerLimit: -0.5
    - _Metallic: 0
    - _Muddy: 1
    - _Radius: 0.5
    - _SmokeAtten: 2
    - _SmokeRaySteps: 5
    - _SmokeSpeed: 5
    - _Sparkling: 1
    - _SparklingIntensity: 25
    - _SparklingThreshold: 0.8
    - _Topology: 0
    - _Turbulence: 1
    - _Turbulence2: 1
    - _TurbulenceSpeed: 1
    - _UpperLimit: 0.5
    - _ZTestMode: 4
    m_Colors:
    - _Bounds: {r: 1, g: 1, b: 1, a: 1}
    - _Center: {r: -0.4, g: 0.47, b: 2.93, a: 0}
    - _Color: {r: 1, g: 1, b: 1, a: 1}
    - _Color1: {r: 0, g: 1, b: 0, a: 0.1}
    - _Color2: {r: 1, g: 0, b: 0, a: 0.3}
    - _EmissionColor: {r: 0, g: 0, b: 0, a: 0}
    - _FlaskColor: {r: 0, g: 0, b: 0, a: 1}
    - _FlaskThickness: {r: 0.97, g: 0.97, b: 0.97, a: 0}
    - _FoamColor: {r: 1, g: 1, b: 1, a: 0.65}
    - _GlossinessInt: {r: 49, g: 512, b: 1, a: 0}
    - _Scale: {r: 0.5154639, g: 0.41237113, b: 2.0618556, a: 9.999999}
    - _Size: {r: 1.7320508, g: 1, b: 1, a: 0.485}
    - _SmokeColor: {r: 0.7, g: 0.7, b: 0.7, a: 0.25}
    - _Turbulence: {r: 0.5, g: 0.2, b: 12.566371, a: 0}
    - _ViewDir: {r: 0, g: 0, b: 1, a: 1}
--- !u!1 &716886627
GameObject:
  m_ObjectHideFlags: 0
  m_CorrespondingSourceObject: {fileID: 1000012343271956, guid: c90e67fc6fcee41b18a834f7d089883d,
    type: 3}
  m_PrefabInstance: {fileID: 0}
  m_PrefabAsset: {fileID: 0}
  serializedVersion: 6
  m_Component:
  - component: {fileID: 716886628}
  - component: {fileID: 716886631}
  - component: {fileID: 716886630}
  - component: {fileID: 716886629}
  m_Layer: 0
  m_Name: Cork
  m_TagString: Untagged
  m_Icon: {fileID: 0}
  m_NavMeshLayer: 0
  m_StaticEditorFlags: 0
  m_IsActive: 1
--- !u!4 &716886628
Transform:
  m_ObjectHideFlags: 0
  m_CorrespondingSourceObject: {fileID: 4000013278274568, guid: c90e67fc6fcee41b18a834f7d089883d,
    type: 3}
  m_PrefabInstance: {fileID: 0}
  m_PrefabAsset: {fileID: 0}
  m_GameObject: {fileID: 716886627}
  m_LocalRotation: {x: 0, y: 0, z: 0, w: 1}
  m_LocalPosition: {x: 0, y: 0.5, z: 0}
  m_LocalScale: {x: 0.14, y: 0.1, z: 0.14}
  m_Children: []
  m_Father: {fileID: 1038225622}
  m_RootOrder: 0
  m_LocalEulerAnglesHint: {x: 0, y: 0, z: 0}
--- !u!23 &716886629
MeshRenderer:
  m_ObjectHideFlags: 0
  m_CorrespondingSourceObject: {fileID: 23000013196977936, guid: c90e67fc6fcee41b18a834f7d089883d,
    type: 3}
  m_PrefabInstance: {fileID: 0}
  m_PrefabAsset: {fileID: 0}
  m_GameObject: {fileID: 716886627}
  m_Enabled: 1
  m_CastShadows: 1
  m_ReceiveShadows: 0
  m_DynamicOccludee: 1
  m_MotionVectors: 1
  m_LightProbeUsage: 1
  m_ReflectionProbeUsage: 1
  m_RenderingLayerMask: 1
  m_RendererPriority: 0
  m_Materials:
  - {fileID: 2100000, guid: c87c3f6e021fa41bebce0e68d3c64244, type: 2}
  m_StaticBatchInfo:
    firstSubMesh: 0
    subMeshCount: 0
  m_StaticBatchRoot: {fileID: 0}
  m_ProbeAnchor: {fileID: 0}
  m_LightProbeVolumeOverride: {fileID: 0}
  m_ScaleInLightmap: 1
  m_PreserveUVs: 1
  m_IgnoreNormalsForChartDetection: 0
  m_ImportantGI: 0
  m_StitchLightmapSeams: 0
  m_SelectedEditorRenderState: 3
  m_MinimumChartSize: 4
  m_AutoUVMaxDistance: 0.5
  m_AutoUVMaxAngle: 89
  m_LightmapParameters: {fileID: 0}
  m_SortingLayerID: 0
  m_SortingLayer: 0
  m_SortingOrder: 0
--- !u!136 &716886630
CapsuleCollider:
  m_ObjectHideFlags: 0
  m_CorrespondingSourceObject: {fileID: 136000011030339448, guid: c90e67fc6fcee41b18a834f7d089883d,
    type: 3}
  m_PrefabInstance: {fileID: 0}
  m_PrefabAsset: {fileID: 0}
  m_GameObject: {fileID: 716886627}
  m_Material: {fileID: 0}
  m_IsTrigger: 0
  m_Enabled: 1
  m_Radius: 0.5
  m_Height: 2
  m_Direction: 1
  m_Center: {x: 0, y: 0, z: 0}
--- !u!33 &716886631
MeshFilter:
  m_ObjectHideFlags: 0
  m_CorrespondingSourceObject: {fileID: 33000010464334968, guid: c90e67fc6fcee41b18a834f7d089883d,
    type: 3}
  m_PrefabInstance: {fileID: 0}
  m_PrefabAsset: {fileID: 0}
  m_GameObject: {fileID: 716886627}
  m_Mesh: {fileID: 10206, guid: 0000000000000000e000000000000000, type: 0}
--- !u!1 &730494894
GameObject:
  m_ObjectHideFlags: 0
  m_CorrespondingSourceObject: {fileID: 104468, guid: 8fb3550a3fd3348b786f5c6ea49318ce,
    type: 3}
  m_PrefabInstance: {fileID: 0}
  m_PrefabAsset: {fileID: 0}
  serializedVersion: 6
  m_Component:
  - component: {fileID: 730494898}
  - component: {fileID: 730494897}
  - component: {fileID: 730494896}
  - component: {fileID: 730494895}
  m_Layer: 0
  m_Name: SphereFlask (1)
  m_TagString: Untagged
  m_Icon: {fileID: 0}
  m_NavMeshLayer: 0
  m_StaticEditorFlags: 0
  m_IsActive: 1
--- !u!114 &730494895
MonoBehaviour:
  m_ObjectHideFlags: 0
  m_CorrespondingSourceObject: {fileID: 11451546, guid: 8fb3550a3fd3348b786f5c6ea49318ce,
    type: 3}
  m_PrefabInstance: {fileID: 0}
  m_PrefabAsset: {fileID: 0}
  m_GameObject: {fileID: 730494894}
  m_Enabled: 1
  m_EditorHideFlags: 0
  m_Script: {fileID: 11500000, guid: 4f61dcfd7077c46509132f92d2df65fe, type: 3}
  m_Name: 
  m_EditorClassIdentifier: 
  _topology: 0
  _detail: 10
  _level: 0.605
  _liquidColor1: {r: 0.8235294, g: 0.98442906, b: 1, a: 0.1}
  _liquidScale1: 1
  _liquidColor2: {r: 1, g: 0, b: 0, a: 0.3}
  _liquidScale2: 4.85
  _alpha: 1
  _emissionColor: {r: 0, g: 0, b: 0, a: 1}
  _emissionBrightness: 0
  _ditherShadows: 1
  _murkiness: 1
  _turbulence1: 0.5
  _turbulence2: 0.2
  _frecuency: 1
  _speed: 1
  _sparklingIntensity: 0.1
  _sparklingAmount: 0.2
  _deepObscurance: 2
  _foamColor: {r: 1, g: 1, b: 1, a: 0.65}
  _foamScale: 0.2
  _foamThickness: 0.04
  _foamDensity: 0.5
  _foamWeight: 10
  _foamTurbulence: 1
  _foamVisibleFromBottom: 1
  _smokeEnabled: 1
  _smokeColor: {r: 0.7, g: 0.7, b: 0.7, a: 0.25}
  _smokeScale: 0.25
  _smokeBaseObscurance: 2
  _smokeSpeed: 5
  _fixMesh: 0
  originalMesh: {fileID: 0}
  originalPivotOffset: {x: 0, y: 0, z: 0}
  _pivotOffset: {x: 0, y: 0, z: 0}
  _upperLimit: 1
  _lowerLimit: -1
  _subMeshIndex: 0
  _flaskTint: {r: 0, g: 0, b: 0, a: 1}
  _flaskThickness: 0.05
  _flaskGlossinessExternal: 0.767
  _flaskGlossinessInternal: 0.5
  _scatteringEnabled: 0
  _scatteringPower: 5
  _scatteringAmount: 0.3
  _refractionBlur: 1
  _blurIntensity: 0.75
  _liquidRaySteps: 10
  _foamRaySteps: 7
  _smokeRaySteps: 5
  _bumpMap: {fileID: 0}
  _bumpDistortionScale: 1
  _bumpDistortionOffset: {x: 0, y: 0}
  _distortionMap: {fileID: 0}
  _texture: {fileID: 0}
  _textureScale: {x: 1, y: 1}
  _textureOffset: {x: 0, y: 0}
  _distortionAmount: 1
  _depthAware: 0
  _depthAwareOffset: 0
  _depthAwareCustomPass: 0
  _doubleSidedBias: 0.05
  _rotationLevelBias: 0
  _ignoreGravity: 0
  _reactToForces: 0
  _textureAlpha: 1
  _extentsScale: {x: 1, y: 1, z: 1}
  _noiseVariation: 1
  _allowViewFromInside: 0
  _debugSpillPoint: 0
  _renderQueue: 3001
  _reflectionTexture: {fileID: 0}
  _physicsMass: 1
  _physicsAngularDamp: 0.02
  liqMat: {fileID: 1917503686}
--- !u!23 &730494896
MeshRenderer:
  m_ObjectHideFlags: 0
  m_CorrespondingSourceObject: {fileID: 2341052, guid: 8fb3550a3fd3348b786f5c6ea49318ce,
    type: 3}
  m_PrefabInstance: {fileID: 0}
  m_PrefabAsset: {fileID: 0}
  m_GameObject: {fileID: 730494894}
  m_Enabled: 1
  m_CastShadows: 1
  m_ReceiveShadows: 1
  m_DynamicOccludee: 1
  m_MotionVectors: 1
  m_LightProbeUsage: 1
  m_ReflectionProbeUsage: 1
  m_RenderingLayerMask: 1
  m_RendererPriority: 0
  m_Materials:
  - {fileID: 1917503686}
  m_StaticBatchInfo:
    firstSubMesh: 0
    subMeshCount: 0
  m_StaticBatchRoot: {fileID: 0}
  m_ProbeAnchor: {fileID: 0}
  m_LightProbeVolumeOverride: {fileID: 0}
  m_ScaleInLightmap: 1
  m_PreserveUVs: 0
  m_IgnoreNormalsForChartDetection: 0
  m_ImportantGI: 0
  m_StitchLightmapSeams: 0
  m_SelectedEditorRenderState: 3
  m_MinimumChartSize: 4
  m_AutoUVMaxDistance: 0.5
  m_AutoUVMaxAngle: 89
  m_LightmapParameters: {fileID: 0}
  m_SortingLayerID: 0
  m_SortingLayer: 0
  m_SortingOrder: 0
--- !u!33 &730494897
MeshFilter:
  m_ObjectHideFlags: 0
  m_CorrespondingSourceObject: {fileID: 3310396, guid: 8fb3550a3fd3348b786f5c6ea49318ce,
    type: 3}
  m_PrefabInstance: {fileID: 0}
  m_PrefabAsset: {fileID: 0}
  m_GameObject: {fileID: 730494894}
  m_Mesh: {fileID: 4300000, guid: efe3af71140af4efea659e59b6b6f74b, type: 3}
--- !u!4 &730494898
Transform:
  m_ObjectHideFlags: 0
  m_CorrespondingSourceObject: {fileID: 421658, guid: 8fb3550a3fd3348b786f5c6ea49318ce,
    type: 3}
  m_PrefabInstance: {fileID: 0}
  m_PrefabAsset: {fileID: 0}
  m_GameObject: {fileID: 730494894}
  m_LocalRotation: {x: 0, y: 0, z: 0, w: 1}
  m_LocalPosition: {x: 0.204, y: 0.114, z: 1.5966}
  m_LocalScale: {x: 0.2, y: 0.2, z: 0.2}
  m_Children: []
  m_Father: {fileID: 0}
  m_RootOrder: 0
  m_LocalEulerAnglesHint: {x: 0, y: 0, z: 0}
--- !u!1 &745597752
GameObject:
  m_ObjectHideFlags: 0
  m_CorrespondingSourceObject: {fileID: 181670, guid: fb313971255d8405cb11f060383b879f,
    type: 3}
  m_PrefabInstance: {fileID: 0}
  m_PrefabAsset: {fileID: 0}
  serializedVersion: 6
  m_Component:
  - component: {fileID: 745597756}
  - component: {fileID: 745597755}
  - component: {fileID: 745597754}
  - component: {fileID: 745597753}
  m_Layer: 0
  m_Name: CylinderFlask
  m_TagString: Untagged
  m_Icon: {fileID: 0}
  m_NavMeshLayer: 0
  m_StaticEditorFlags: 0
  m_IsActive: 1
--- !u!114 &745597753
MonoBehaviour:
  m_ObjectHideFlags: 0
  m_CorrespondingSourceObject: {fileID: 11442222, guid: fb313971255d8405cb11f060383b879f,
    type: 3}
  m_PrefabInstance: {fileID: 0}
  m_PrefabAsset: {fileID: 0}
  m_GameObject: {fileID: 745597752}
  m_Enabled: 1
  m_EditorHideFlags: 0
  m_Script: {fileID: 11500000, guid: 4f61dcfd7077c46509132f92d2df65fe, type: 3}
  m_Name: 
  m_EditorClassIdentifier: 
  _topology: 1
  _detail: 10
  _level: 0.577
  _liquidColor1: {r: 0, g: 0.33448273, b: 0, a: 0.1}
  _liquidScale1: 1
  _liquidColor2: {r: 1, g: 0, b: 0, a: 0.3}
  _liquidScale2: 4.85
  _alpha: 1
  _emissionColor: {r: 0, g: 0, b: 0, a: 1}
  _emissionBrightness: 0
  _ditherShadows: 1
  _murkiness: 1
  _turbulence1: 0.5
  _turbulence2: 0.2
  _frecuency: 1
  _speed: 1
  _sparklingIntensity: 0.1
  _sparklingAmount: 0.2
  _deepObscurance: 2
  _foamColor: {r: 1, g: 0.9100346, b: 0.8088235, a: 0.65}
  _foamScale: 0.2
  _foamThickness: 0.0141
  _foamDensity: 0.5
  _foamWeight: 10
  _foamTurbulence: 1
  _foamVisibleFromBottom: 1
  _smokeEnabled: 1
  _smokeColor: {r: 0.7, g: 0.7, b: 0.7, a: 0.25}
  _smokeScale: 0.25
  _smokeBaseObscurance: 2
  _smokeSpeed: 5
  _fixMesh: 0
  originalMesh: {fileID: 0}
  originalPivotOffset: {x: 0, y: 0, z: 0}
  _pivotOffset: {x: 0, y: 0, z: 0}
  _upperLimit: 1
  _lowerLimit: -1
  _subMeshIndex: 0
  _flaskTint: {r: 0, g: 0, b: 0, a: 1}
  _flaskThickness: 0.03
  _flaskGlossinessExternal: 0.767
  _flaskGlossinessInternal: 0.5
  _scatteringEnabled: 1
  _scatteringPower: 9
  _scatteringAmount: 1
  _refractionBlur: 1
  _blurIntensity: 0.75
  _liquidRaySteps: 10
  _foamRaySteps: 7
  _smokeRaySteps: 5
  _bumpMap: {fileID: 0}
  _bumpDistortionScale: 1
  _bumpDistortionOffset: {x: 0, y: 0}
  _distortionMap: {fileID: 0}
  _texture: {fileID: 0}
  _textureScale: {x: 1, y: 1}
  _textureOffset: {x: 0, y: 0}
  _distortionAmount: 1
  _depthAware: 0
  _depthAwareOffset: 0
  _depthAwareCustomPass: 0
  _doubleSidedBias: 0.05
  _rotationLevelBias: 0
  _ignoreGravity: 0
  _reactToForces: 0
  _textureAlpha: 1
  _extentsScale: {x: 1, y: 1, z: 1}
  _noiseVariation: 3
  _allowViewFromInside: 0
  _debugSpillPoint: 0
  _renderQueue: 3001
  _reflectionTexture: {fileID: 0}
  _physicsMass: 1
  _physicsAngularDamp: 0.02
  liqMat: {fileID: 16536117}
--- !u!23 &745597754
MeshRenderer:
  m_ObjectHideFlags: 0
  m_CorrespondingSourceObject: {fileID: 2343716, guid: fb313971255d8405cb11f060383b879f,
    type: 3}
  m_PrefabInstance: {fileID: 0}
  m_PrefabAsset: {fileID: 0}
  m_GameObject: {fileID: 745597752}
  m_Enabled: 1
  m_CastShadows: 1
  m_ReceiveShadows: 1
  m_DynamicOccludee: 1
  m_MotionVectors: 1
  m_LightProbeUsage: 1
  m_ReflectionProbeUsage: 1
  m_RenderingLayerMask: 1
  m_RendererPriority: 0
  m_Materials:
  - {fileID: 16536117}
  m_StaticBatchInfo:
    firstSubMesh: 0
    subMeshCount: 0
  m_StaticBatchRoot: {fileID: 0}
  m_ProbeAnchor: {fileID: 0}
  m_LightProbeVolumeOverride: {fileID: 0}
  m_ScaleInLightmap: 1
  m_PreserveUVs: 1
  m_IgnoreNormalsForChartDetection: 0
  m_ImportantGI: 0
  m_StitchLightmapSeams: 0
  m_SelectedEditorRenderState: 3
  m_MinimumChartSize: 4
  m_AutoUVMaxDistance: 0.5
  m_AutoUVMaxAngle: 89
  m_LightmapParameters: {fileID: 0}
  m_SortingLayerID: 0
  m_SortingLayer: 0
  m_SortingOrder: 0
--- !u!33 &745597755
MeshFilter:
  m_ObjectHideFlags: 0
  m_CorrespondingSourceObject: {fileID: 3350348, guid: fb313971255d8405cb11f060383b879f,
    type: 3}
  m_PrefabInstance: {fileID: 0}
  m_PrefabAsset: {fileID: 0}
  m_GameObject: {fileID: 745597752}
  m_Mesh: {fileID: 10206, guid: 0000000000000000e000000000000000, type: 0}
--- !u!4 &745597756
Transform:
  m_ObjectHideFlags: 0
  m_CorrespondingSourceObject: {fileID: 470280, guid: fb313971255d8405cb11f060383b879f,
    type: 3}
  m_PrefabInstance: {fileID: 0}
  m_PrefabAsset: {fileID: 0}
  m_GameObject: {fileID: 745597752}
  m_LocalRotation: {x: 0, y: 0, z: 0, w: 1}
  m_LocalPosition: {x: 1.09, y: 0.75, z: 2.33}
  m_LocalScale: {x: 1, y: 1, z: 1}
  m_Children: []
  m_Father: {fileID: 0}
  m_RootOrder: 7
  m_LocalEulerAnglesHint: {x: 0, y: 0, z: 0}
--- !u!1 &1038225618
GameObject:
  m_ObjectHideFlags: 0
  m_CorrespondingSourceObject: {fileID: 1000013096799518, guid: c90e67fc6fcee41b18a834f7d089883d,
    type: 3}
  m_PrefabInstance: {fileID: 0}
  m_PrefabAsset: {fileID: 0}
  serializedVersion: 6
  m_Component:
  - component: {fileID: 1038225622}
  - component: {fileID: 1038225621}
  - component: {fileID: 1038225620}
  - component: {fileID: 1038225619}
  m_Layer: 0
  m_Name: Potion
  m_TagString: Untagged
  m_Icon: {fileID: 0}
  m_NavMeshLayer: 0
  m_StaticEditorFlags: 0
  m_IsActive: 1
--- !u!114 &1038225619
MonoBehaviour:
  m_ObjectHideFlags: 0
  m_CorrespondingSourceObject: {fileID: 114000010266114552, guid: c90e67fc6fcee41b18a834f7d089883d,
    type: 3}
  m_PrefabInstance: {fileID: 0}
  m_PrefabAsset: {fileID: 0}
  m_GameObject: {fileID: 1038225618}
  m_Enabled: 1
  m_EditorHideFlags: 0
  m_Script: {fileID: 11500000, guid: 4f61dcfd7077c46509132f92d2df65fe, type: 3}
  m_Name: 
  m_EditorClassIdentifier: 
  _topology: 1
  _detail: 10
  _level: 0.446
  _liquidColor1: {r: 0, g: 1, b: 0, a: 0.1}
  _liquidScale1: 1
  _liquidColor2: {r: 0, g: 0, b: 1, a: 0.3}
  _liquidScale2: 5
  _alpha: 1
  _emissionColor: {r: 0, g: 0, b: 0, a: 1}
  _emissionBrightness: 0
  _ditherShadows: 1
  _murkiness: 1
  _turbulence1: 0.5
  _turbulence2: 0.2
  _frecuency: 1
  _speed: 1
  _sparklingIntensity: 0.1
  _sparklingAmount: 0.2
  _deepObscurance: 2
  _foamColor: {r: 1, g: 1, b: 1, a: 0.65}
  _foamScale: 0.2
  _foamThickness: 0.04
  _foamDensity: 0.5
  _foamWeight: 10
  _foamTurbulence: 1
  _foamVisibleFromBottom: 1
  _smokeEnabled: 1
  _smokeColor: {r: 0.7, g: 0.7, b: 0.7, a: 0.07}
  _smokeScale: 0.25
  _smokeBaseObscurance: 2
  _smokeSpeed: 5
  _fixMesh: 0
  originalMesh: {fileID: 0}
  originalPivotOffset: {x: 0, y: 0, z: 0}
  _pivotOffset: {x: 0, y: 0, z: 0}
  _upperLimit: 0.779
  _lowerLimit: -1
  _subMeshIndex: 0
  _flaskTint: {r: 0, g: 0, b: 0, a: 1}
  _flaskThickness: 0.078
  _flaskGlossinessExternal: 0.767
  _flaskGlossinessInternal: 0.5
  _scatteringEnabled: 1
  _scatteringPower: 9
  _scatteringAmount: 1
  _refractionBlur: 0
  _blurIntensity: 0.75
  _liquidRaySteps: 10
  _foamRaySteps: 7
  _smokeRaySteps: 5
  _bumpMap: {fileID: 0}
  _bumpDistortionScale: 1
  _bumpDistortionOffset: {x: 0, y: 0}
  _distortionMap: {fileID: 0}
  _texture: {fileID: 0}
  _textureScale: {x: 1, y: 1}
  _textureOffset: {x: 0, y: 0}
  _distortionAmount: 1
  _depthAware: 0
  _depthAwareOffset: 0
  _depthAwareCustomPass: 0
  _doubleSidedBias: 0.05
  _rotationLevelBias: 0
  _ignoreGravity: 0
  _reactToForces: 0
  _textureAlpha: 1
  _extentsScale: {x: 1, y: 1.71, z: 1}
  _noiseVariation: 1
  _allowViewFromInside: 0
  _debugSpillPoint: 0
  _renderQueue: 3001
  _reflectionTexture: {fileID: 0}
  _physicsMass: 1
  _physicsAngularDamp: 0.02
  liqMat: {fileID: 1812059176}
--- !u!23 &1038225620
MeshRenderer:
  m_ObjectHideFlags: 0
  m_CorrespondingSourceObject: {fileID: 23000011024105486, guid: c90e67fc6fcee41b18a834f7d089883d,
    type: 3}
  m_PrefabInstance: {fileID: 0}
  m_PrefabAsset: {fileID: 0}
  m_GameObject: {fileID: 1038225618}
  m_Enabled: 1
  m_CastShadows: 1
  m_ReceiveShadows: 0
  m_DynamicOccludee: 1
  m_MotionVectors: 1
  m_LightProbeUsage: 1
  m_ReflectionProbeUsage: 1
  m_RenderingLayerMask: 1
  m_RendererPriority: 0
  m_Materials:
  - {fileID: 1812059176}
  m_StaticBatchInfo:
    firstSubMesh: 0
    subMeshCount: 0
  m_StaticBatchRoot: {fileID: 0}
  m_ProbeAnchor: {fileID: 0}
  m_LightProbeVolumeOverride: {fileID: 0}
  m_ScaleInLightmap: 1
  m_PreserveUVs: 0
  m_IgnoreNormalsForChartDetection: 0
  m_ImportantGI: 0
  m_StitchLightmapSeams: 0
  m_SelectedEditorRenderState: 3
  m_MinimumChartSize: 4
  m_AutoUVMaxDistance: 0.5
  m_AutoUVMaxAngle: 89
  m_LightmapParameters: {fileID: 0}
  m_SortingLayerID: 0
  m_SortingLayer: 0
  m_SortingOrder: 0
--- !u!33 &1038225621
MeshFilter:
  m_ObjectHideFlags: 0
  m_CorrespondingSourceObject: {fileID: 33000013730044828, guid: c90e67fc6fcee41b18a834f7d089883d,
    type: 3}
  m_PrefabInstance: {fileID: 0}
  m_PrefabAsset: {fileID: 0}
  m_GameObject: {fileID: 1038225618}
  m_Mesh: {fileID: 4300000, guid: fad12d5e64e5544769fc767a3abecfe2, type: 2}
--- !u!4 &1038225622
Transform:
  m_ObjectHideFlags: 0
  m_CorrespondingSourceObject: {fileID: 4000010765243264, guid: c90e67fc6fcee41b18a834f7d089883d,
    type: 3}
  m_PrefabInstance: {fileID: 0}
  m_PrefabAsset: {fileID: 0}
  m_GameObject: {fileID: 1038225618}
  m_LocalRotation: {x: 0, y: 0, z: 0, w: 1}
  m_LocalPosition: {x: -0.0011063294, y: 0.45853937, z: 1.9953923}
  m_LocalScale: {x: 1, y: 1, z: 1}
  m_Children:
  - {fileID: 716886628}
  m_Father: {fileID: 0}
  m_RootOrder: 2
  m_LocalEulerAnglesHint: {x: 0, y: 0, z: 0}
--- !u!1 &1115177859
GameObject:
  m_ObjectHideFlags: 0
  m_CorrespondingSourceObject: {fileID: 0}
  m_PrefabInstance: {fileID: 0}
  m_PrefabAsset: {fileID: 0}
  serializedVersion: 6
  m_Component:
  - component: {fileID: 1115177864}
  - component: {fileID: 1115177863}
  - component: {fileID: 1115177862}
  - component: {fileID: 1115177861}
  - component: {fileID: 1115177860}
  m_Layer: 0
  m_Name: Main Camera
  m_TagString: MainCamera
  m_Icon: {fileID: 0}
  m_NavMeshLayer: 0
  m_StaticEditorFlags: 0
  m_IsActive: 1
--- !u!81 &1115177860
AudioListener:
  m_ObjectHideFlags: 0
  m_CorrespondingSourceObject: {fileID: 0}
  m_PrefabInstance: {fileID: 0}
  m_PrefabAsset: {fileID: 0}
  m_GameObject: {fileID: 1115177859}
  m_Enabled: 1
--- !u!124 &1115177861
Behaviour:
  m_ObjectHideFlags: 0
  m_CorrespondingSourceObject: {fileID: 0}
  m_PrefabInstance: {fileID: 0}
  m_PrefabAsset: {fileID: 0}
  m_GameObject: {fileID: 1115177859}
  m_Enabled: 1
--- !u!92 &1115177862
Behaviour:
  m_ObjectHideFlags: 0
  m_CorrespondingSourceObject: {fileID: 0}
  m_PrefabInstance: {fileID: 0}
  m_PrefabAsset: {fileID: 0}
  m_GameObject: {fileID: 1115177859}
  m_Enabled: 1
--- !u!20 &1115177863
Camera:
  m_ObjectHideFlags: 0
  m_CorrespondingSourceObject: {fileID: 0}
  m_PrefabInstance: {fileID: 0}
  m_PrefabAsset: {fileID: 0}
  m_GameObject: {fileID: 1115177859}
  m_Enabled: 1
  serializedVersion: 2
  m_ClearFlags: 1
  m_BackGroundColor: {r: 0.19215687, g: 0.3019608, b: 0.4745098, a: 0.019607844}
  m_projectionMatrixMode: 1
  m_SensorSize: {x: 36, y: 24}
  m_LensShift: {x: 0, y: 0}
  m_GateFitMode: 2
  m_FocalLength: 50
  m_NormalizedViewPortRect:
    serializedVersion: 2
    x: 0
    y: 0
    width: 1
    height: 1
  near clip plane: 0.3
  far clip plane: 1000
  field of view: 60
  orthographic: 0
  orthographic size: 5
  m_Depth: -1
  m_CullingMask:
    serializedVersion: 2
    m_Bits: 4294967295
  m_RenderingPath: -1
  m_TargetTexture: {fileID: 0}
  m_TargetDisplay: 0
  m_TargetEye: 3
  m_HDR: 0
  m_AllowMSAA: 1
  m_AllowDynamicResolution: 0
  m_ForceIntoRT: 0
  m_OcclusionCulling: 1
  m_StereoConvergence: 10
  m_StereoSeparation: 0.022
--- !u!4 &1115177864
Transform:
  m_ObjectHideFlags: 0
  m_CorrespondingSourceObject: {fileID: 0}
  m_PrefabInstance: {fileID: 0}
  m_PrefabAsset: {fileID: 0}
  m_GameObject: {fileID: 1115177859}
  m_LocalRotation: {x: -0.010036152, y: 0.13051948, z: 0.001321284, w: 0.9913941}
  m_LocalPosition: {x: -0.25, y: 0.2, z: 0.25821257}
  m_LocalScale: {x: 1, y: 1, z: 1}
  m_Children: []
  m_Father: {fileID: 0}
  m_RootOrder: 1
  m_LocalEulerAnglesHint: {x: -1.16, y: 15, z: 0}
--- !u!1 &1751131917
GameObject:
  m_ObjectHideFlags: 0
  m_CorrespondingSourceObject: {fileID: 0}
  m_PrefabInstance: {fileID: 0}
  m_PrefabAsset: {fileID: 0}
  serializedVersion: 6
  m_Component:
  - component: {fileID: 1751131919}
  - component: {fileID: 1751131918}
  - component: {fileID: 1751131920}
  m_Layer: 0
  m_Name: Directional Light
  m_TagString: Untagged
  m_Icon: {fileID: 0}
  m_NavMeshLayer: 0
  m_StaticEditorFlags: 0
  m_IsActive: 1
--- !u!108 &1751131918
Light:
  m_ObjectHideFlags: 0
  m_CorrespondingSourceObject: {fileID: 0}
  m_PrefabInstance: {fileID: 0}
  m_PrefabAsset: {fileID: 0}
  m_GameObject: {fileID: 1751131917}
  m_Enabled: 1
  serializedVersion: 8
  m_Type: 1
  m_Color: {r: 1, g: 0.95686275, b: 0.8392157, a: 1}
  m_Intensity: 1
  m_Range: 10
  m_SpotAngle: 30
  m_CookieSize: 10
  m_Shadows:
    m_Type: 2
    m_Resolution: 3
    m_CustomResolution: -1
    m_Strength: 1
    m_Bias: 0.04
    m_NormalBias: 0.31
    m_NearPlane: 0.1
  m_Cookie: {fileID: 0}
  m_DrawHalo: 0
  m_Flare: {fileID: 0}
  m_RenderMode: 0
  m_CullingMask:
    serializedVersion: 2
    m_Bits: 4294967295
  m_Lightmapping: 4
  m_LightShadowCasterMode: 0
  m_AreaSize: {x: 1, y: 1}
  m_BounceIntensity: 1
  m_ColorTemperature: 6570
  m_UseColorTemperature: 0
  m_ShadowRadius: 0
  m_ShadowAngle: 0
--- !u!4 &1751131919
Transform:
  m_ObjectHideFlags: 0
  m_CorrespondingSourceObject: {fileID: 0}
  m_PrefabInstance: {fileID: 0}
  m_PrefabAsset: {fileID: 0}
  m_GameObject: {fileID: 1751131917}
  m_LocalRotation: {x: 0, y: 0.9999461, z: -0.010384519, w: 0}
  m_LocalPosition: {x: 0, y: 3, z: 0}
  m_LocalScale: {x: 1, y: 1, z: 1}
  m_Children: []
  m_Father: {fileID: 0}
  m_RootOrder: 3
  m_LocalEulerAnglesHint: {x: 1.19, y: 180, z: 0}
--- !u!114 &1751131920
MonoBehaviour:
  m_ObjectHideFlags: 0
  m_CorrespondingSourceObject: {fileID: 0}
  m_PrefabInstance: {fileID: 0}
  m_PrefabAsset: {fileID: 0}
  m_GameObject: {fileID: 1751131917}
  m_Enabled: 1
  m_EditorHideFlags: 0
  m_Script: {fileID: 11500000, guid: 47a873df173374a8a847ffc2b4736cbf, type: 3}
  m_Name: 
  m_EditorClassIdentifier: 
--- !u!21 &1812059176
Material:
  serializedVersion: 6
  m_ObjectHideFlags: 0
  m_CorrespondingSourceObject: {fileID: 0}
  m_PrefabInstance: {fileID: 0}
  m_PrefabAsset: {fileID: 0}
  m_Name: LiquidVolumeDefault(Clone)
  m_Shader: {fileID: 4800000, guid: be9d7fbb2c1ef43308f35fb0a12bbb88, type: 3}
  m_ShaderKeywords: LIQUID_VOLUME_CYLINDER
  m_LightmapFlags: 5
  m_EnableInstancingVariants: 0
  m_DoubleSidedGI: 0
  m_CustomRenderQueue: 3001
  stringTagMap: {}
  disabledShaderPasses: []
  m_SavedProperties:
    serializedVersion: 3
    m_TexEnvs:
    - _MainTex:
        m_Texture: {fileID: 0}
        m_Scale: {x: 1, y: 1}
        m_Offset: {x: 0, y: 0}
    - _NoiseTex:
        m_Texture: {fileID: 11700000, guid: 41974beaaddc547889b39d0022cb1d07, type: 2}
        m_Scale: {x: 1, y: 1}
        m_Offset: {x: 0, y: 0}
    - _NoiseTex2D:
        m_Texture: {fileID: 2800000, guid: 2e25f51e1f31e4da8bdac5d08b0f578f, type: 3}
        m_Scale: {x: 1, y: 1}
        m_Offset: {x: 0, y: 0}
    m_Floats:
    - _Alpha: 1
    - _AlphaCombined: 1
    - _BasePos: -1
    - _CullMode: 2
    - _DeepAtten: 2
    - _DoubleSidedBias: 0.05
    - _FlaskBlurIntensity: 0
    - _FlaskThickness: 0.05
    - _FoamBottom: 1
    - _FoamDensity: 0.5
    - _FoamMaxPos: 0.43629596
    - _FoamRaySteps: 7
    - _FoamTurbulence: 1
    - _FoamWeight: 10
    - _Glossiness: 0.767
    - _GlossinessInt: 0.5
    - _Level: 1
    - _LevelPos: 0.42003164
    - _LiquidRaySteps: 10
    - _LowerLimit: -0.86161435
    - _Metallic: 0
    - _Muddy: 1
    - _Radius: 0.5
    - _SmokeAtten: 2
    - _SmokeRaySteps: 5
    - _SmokeSpeed: 5
    - _Sparkling: 1
    - _SparklingIntensity: 25
    - _SparklingThreshold: 0.8
    - _Topology: 0
    - _Turbulence: 1
    - _Turbulence2: 1
    - _TurbulenceSpeed: 1
    - _UpperLimit: 0.6711976
    - _ZTestMode: 4
    m_Colors:
    - _Bounds: {r: 1, g: 1, b: 1, a: 1}
    - _Center: {r: -0.0011063294, g: 0.45853937, b: 1.9953923, a: 0}
    - _Color: {r: 1, g: 1, b: 1, a: 1}
    - _Color1: {r: 0, g: 1, b: 0, a: 0.1}
    - _Color2: {r: 0, g: 0, b: 1, a: 0.3}
    - _EmissionColor: {r: 0, g: 0, b: 0, a: 0}
    - _FlaskColor: {r: 0, g: 0, b: 0, a: 1}
    - _FlaskThickness: {r: 0.922, g: 0.922, b: 0.922, a: 0}
    - _FoamColor: {r: 1, g: 1, b: 1, a: 0.65}
    - _GlossinessInt: {r: 49, g: 512, b: 1, a: 0}
    - _Scale: {r: 0.30003032, g: 0.24002425, b: 1.2001213, a: 6.000606}
    - _Size: {r: 1.4399644, g: 1.7232287, b: 0.72731197, a: 0.33529082}
    - _SmokeColor: {r: 0.7, g: 0.7, b: 0.7, a: 0.07}
    - _Turbulence: {r: 0.5, g: 0.2, b: 12.566371, a: 0}
    - _ViewDir: {r: 0, g: 0, b: 1, a: 1}
--- !u!21 &1917503686
Material:
  serializedVersion: 6
  m_ObjectHideFlags: 0
  m_CorrespondingSourceObject: {fileID: 0}
  m_PrefabInstance: {fileID: 0}
  m_PrefabAsset: {fileID: 0}
  m_Name: LiquidVolumeDefault(Clone)
  m_Shader: {fileID: 4800000, guid: be9d7fbb2c1ef43308f35fb0a12bbb88, type: 3}
  m_ShaderKeywords: LIQUID_VOLUME_SPHERE
  m_LightmapFlags: 5
  m_EnableInstancingVariants: 0
  m_DoubleSidedGI: 0
  m_CustomRenderQueue: 3001
  stringTagMap: {}
  disabledShaderPasses: []
  m_SavedProperties:
    serializedVersion: 3
    m_TexEnvs:
    - _MainTex:
        m_Texture: {fileID: 0}
        m_Scale: {x: 1, y: 1}
        m_Offset: {x: 0, y: 0}
    - _NoiseTex:
        m_Texture: {fileID: 11700000, guid: 41974beaaddc547889b39d0022cb1d07, type: 2}
        m_Scale: {x: 1, y: 1}
        m_Offset: {x: 0, y: 0}
    - _NoiseTex2D:
        m_Texture: {fileID: 2800000, guid: 2e25f51e1f31e4da8bdac5d08b0f578f, type: 3}
        m_Scale: {x: 1, y: 1}
        m_Offset: {x: 0, y: 0}
    m_Floats:
    - _Alpha: 1
    - _AlphaCombined: 1
    - _BasePos: -1
    - _CullMode: 2
    - _DeepAtten: 2
    - _DoubleSidedBias: 0.05
    - _FlaskBlurIntensity: 0.75
    - _FlaskThickness: 0.05
    - _FoamBottom: 1
    - _FoamDensity: 0.5
    - _FoamMaxPos: 0.14155
    - _FoamRaySteps: 7
    - _FoamTurbulence: 1
    - _FoamWeight: 10
    - _Glossiness: 0.767
    - _GlossinessInt: 0.5
    - _Level: 1
    - _LevelPos: 0.13395001
    - _LiquidRaySteps: 10
    - _LowerLimit: -0.5
    - _Metallic: 0
    - _Muddy: 1
    - _Radius: 0.5
    - _SmokeAtten: 2
    - _SmokeRaySteps: 5
    - _SmokeSpeed: 5
    - _Sparkling: 1
    - _SparklingIntensity: 25
    - _SparklingThreshold: 0.8
    - _Topology: 0
    - _Turbulence: 1
    - _Turbulence2: 1
    - _TurbulenceSpeed: 1
    - _UpperLimit: 0.5
    - _ZTestMode: 4
    m_Colors:
    - _Bounds: {r: 1, g: 1, b: 1, a: 1}
    - _Center: {r: 0.204, g: 0.114, b: 1.5966, a: 0}
    - _Color: {r: 1, g: 1, b: 1, a: 1}
    - _Color1: {r: 0.8235294, g: 0.98442906, b: 1, a: 0.1}
    - _Color2: {r: 1, g: 0, b: 0, a: 0.3}
    - _EmissionColor: {r: 0, g: 0, b: 0, a: 0}
    - _FlaskColor: {r: 0, g: 0, b: 0, a: 1}
    - _FlaskThickness: {r: 0.95, g: 0.95, b: 0.95, a: 0}
    - _FoamColor: {r: 1, g: 1, b: 1, a: 0.65}
    - _GlossinessInt: {r: 49, g: 1, b: 0, a: 0}
    - _Scale: {r: 2.631579, g: 2.1052632, b: 10.526316, a: 51.05263}
    - _Size: {r: 0.34641019, g: 0.2, b: 0.2, a: 0.095}
    - _SmokeColor: {r: 0.7, g: 0.7, b: 0.7, a: 0.25}
    - _Turbulence: {r: 0.5, g: 0.2, b: 12.566371, a: 0}
    - _ViewDir: {r: 0, g: 0, b: 1, a: 1}
